<svg width="478" height="176" viewBox="0 0 478 176" fill="none" xmlns="http://www.w3.org/2000/svg">
<rect width="478" height="176" fill="white"/>
<rect x="18.5" y="36.5" width="442" height="91" stroke="#96BFCC" stroke-width="3" stroke-dasharray="10 10"/>
<rect x="29" y="47" width="82" height="70" fill="#3949AB"/>
<rect x="123" y="47" width="326" height="70" fill="#FB8C00"/>
<path d="M17.6494 24.2402C17.6494 23.1055 17.9183 22.194 18.4561 21.5059C18.9938 20.8132 19.6979 20.4668 20.5684 20.4668C21.4342 20.4668 22.1201 20.763 22.626 21.3555V17.5H23.8906V28H22.7285L22.667 27.207C22.1611 27.8268 21.457 28.1367 20.5547 28.1367C19.6979 28.1367 18.9984 27.7858 18.4561 27.084C17.9183 26.3822 17.6494 25.4661 17.6494 24.3359V24.2402ZM18.9141 24.3838C18.9141 25.2223 19.0872 25.8786 19.4336 26.3525C19.7799 26.8265 20.2585 27.0635 20.8691 27.0635C21.6712 27.0635 22.2568 26.7035 22.626 25.9834V22.5859C22.2477 21.8887 21.6667 21.54 20.8828 21.54C20.263 21.54 19.7799 21.7793 19.4336 22.2578C19.0872 22.7363 18.9141 23.445 18.9141 24.3838ZM27.2334 28H25.9688V20.6035H27.2334V28ZM25.8662 18.6416C25.8662 18.4365 25.9277 18.2633 26.0508 18.1221C26.1784 17.9808 26.3652 17.9102 26.6113 17.9102C26.8574 17.9102 27.0443 17.9808 27.1719 18.1221C27.2995 18.2633 27.3633 18.4365 27.3633 18.6416C27.3633 18.8467 27.2995 19.0176 27.1719 19.1543C27.0443 19.291 26.8574 19.3594 26.6113 19.3594C26.3652 19.3594 26.1784 19.291 26.0508 19.1543C25.9277 19.0176 25.8662 18.8467 25.8662 18.6416ZM31.7041 26.2842L33.5361 20.6035H34.8281L32.1758 28H31.2119L28.5322 20.6035H29.8242L31.7041 26.2842ZM35.334 27.3369C35.334 27.1182 35.3978 26.9359 35.5254 26.79C35.6576 26.6442 35.8535 26.5713 36.1133 26.5713C36.373 26.5713 36.569 26.6442 36.7012 26.79C36.8379 26.9359 36.9062 27.1182 36.9062 27.3369C36.9062 27.5465 36.8379 27.722 36.7012 27.8633C36.569 28.0046 36.373 28.0752 36.1133 28.0752C35.8535 28.0752 35.6576 28.0046 35.5254 27.8633C35.3978 27.722 35.334 27.5465 35.334 27.3369ZM45.5469 26.2568L46.9688 20.6035H48.2334L46.0801 28H45.0547L43.2568 22.3945L41.5068 28H40.4814L38.335 20.6035H39.5928L41.0488 26.1406L42.7715 20.6035H43.79L45.5469 26.2568ZM53.1006 21.7383C52.9092 21.7064 52.7018 21.6904 52.4785 21.6904C51.6491 21.6904 51.0863 22.0436 50.79 22.75V28H49.5254V20.6035H50.7559L50.7764 21.458C51.1911 20.7972 51.779 20.4668 52.54 20.4668C52.7861 20.4668 52.973 20.4987 53.1006 20.5625V21.7383ZM58.5625 28C58.4896 27.8542 58.4303 27.5944 58.3848 27.2207C57.7969 27.8314 57.0951 28.1367 56.2793 28.1367C55.5501 28.1367 54.9508 27.9316 54.4814 27.5215C54.0166 27.1068 53.7842 26.5827 53.7842 25.9492C53.7842 25.179 54.0758 24.582 54.6592 24.1582C55.2471 23.7298 56.0719 23.5156 57.1338 23.5156H58.3643V22.9346C58.3643 22.4925 58.2321 22.1416 57.9678 21.8818C57.7035 21.6175 57.3138 21.4854 56.7988 21.4854C56.3477 21.4854 55.9694 21.5993 55.6641 21.8271C55.3587 22.055 55.2061 22.3307 55.2061 22.6543H53.9346C53.9346 22.2852 54.0645 21.9297 54.3242 21.5879C54.5885 21.2415 54.944 20.9681 55.3906 20.7676C55.8418 20.5671 56.3363 20.4668 56.874 20.4668C57.7262 20.4668 58.3939 20.681 58.877 21.1094C59.36 21.5332 59.6107 22.1188 59.6289 22.8662V26.2705C59.6289 26.9495 59.7155 27.4896 59.8887 27.8906V28H58.5625ZM56.4639 27.0361C56.8604 27.0361 57.2363 26.9336 57.5918 26.7285C57.9473 26.5234 58.2048 26.2568 58.3643 25.9287V24.4111H57.373C55.8236 24.4111 55.0488 24.8646 55.0488 25.7715C55.0488 26.168 55.181 26.4779 55.4453 26.7012C55.7096 26.9245 56.0492 27.0361 56.4639 27.0361ZM67.8594 24.3838C67.8594 25.5094 67.6019 26.4163 67.0869 27.1045C66.5719 27.7926 65.8747 28.1367 64.9951 28.1367C64.0973 28.1367 63.391 27.8519 62.876 27.2822V30.8438H61.6113V20.6035H62.7666L62.8281 21.4238C63.3431 20.7858 64.0586 20.4668 64.9746 20.4668C65.8633 20.4668 66.5651 20.8018 67.0801 21.4717C67.5996 22.1416 67.8594 23.0736 67.8594 24.2676V24.3838ZM66.5947 24.2402C66.5947 23.4062 66.417 22.7477 66.0615 22.2646C65.7061 21.7816 65.2184 21.54 64.5986 21.54C63.833 21.54 63.2588 21.8796 62.876 22.5586V26.0928C63.2542 26.7673 63.833 27.1045 64.6123 27.1045C65.2184 27.1045 65.6992 26.8652 66.0547 26.3867C66.4147 25.9036 66.5947 25.1882 66.5947 24.2402ZM75.7207 24.3838C75.7207 25.5094 75.4632 26.4163 74.9482 27.1045C74.4333 27.7926 73.736 28.1367 72.8564 28.1367C71.9587 28.1367 71.2523 27.8519 70.7373 27.2822V30.8438H69.4727V20.6035H70.6279L70.6895 21.4238C71.2044 20.7858 71.9199 20.4668 72.8359 20.4668C73.7246 20.4668 74.4264 20.8018 74.9414 21.4717C75.4609 22.1416 75.7207 23.0736 75.7207 24.2676V24.3838ZM74.4561 24.2402C74.4561 23.4062 74.2783 22.7477 73.9229 22.2646C73.5674 21.7816 73.0798 21.54 72.46 21.54C71.6943 21.54 71.1201 21.8796 70.7373 22.5586V26.0928C71.1156 26.7673 71.6943 27.1045 72.4736 27.1045C73.0798 27.1045 73.5605 26.8652 73.916 26.3867C74.276 25.9036 74.4561 25.1882 74.4561 24.2402ZM80.4033 28.1367C79.4007 28.1367 78.585 27.8086 77.9561 27.1523C77.3271 26.4915 77.0127 25.6097 77.0127 24.5068V24.2744C77.0127 23.5407 77.1517 22.8867 77.4297 22.3125C77.7122 21.7337 78.1042 21.2826 78.6055 20.959C79.1113 20.6309 79.6582 20.4668 80.2461 20.4668C81.2077 20.4668 81.9551 20.7835 82.4883 21.417C83.0215 22.0505 83.2881 22.9574 83.2881 24.1377V24.6641H78.2773C78.2956 25.3932 78.5075 25.9834 78.9131 26.4346C79.3232 26.8812 79.8428 27.1045 80.4717 27.1045C80.9183 27.1045 81.2965 27.0133 81.6064 26.8311C81.9163 26.6488 82.1875 26.4072 82.4199 26.1064L83.1924 26.708C82.5726 27.6605 81.6429 28.1367 80.4033 28.1367ZM80.2461 21.5059C79.7357 21.5059 79.3073 21.6927 78.9609 22.0664C78.6146 22.4355 78.4004 22.9551 78.3184 23.625H82.0234V23.5293C81.987 22.8867 81.8138 22.39 81.5039 22.0391C81.194 21.6836 80.7747 21.5059 80.2461 21.5059ZM88.333 21.7383C88.1416 21.7064 87.9342 21.6904 87.7109 21.6904C86.8815 21.6904 86.3187 22.0436 86.0225 22.75V28H84.7578V20.6035H85.9883L86.0088 21.458C86.4235 20.7972 87.0114 20.4668 87.7725 20.4668C88.0186 20.4668 88.2054 20.4987 88.333 20.5625V21.7383ZM92.9268 23.96C92.9268 22.93 93.0635 21.9411 93.3369 20.9932C93.6149 20.0452 94.0273 19.1839 94.5742 18.4092C95.1211 17.6344 95.6885 17.0876 96.2764 16.7686L96.5361 17.6025C95.8708 18.113 95.3239 18.8923 94.8955 19.9404C94.4717 20.9886 94.2393 22.1621 94.1982 23.4609L94.1914 24.042C94.1914 25.8011 94.5127 27.3278 95.1553 28.6221C95.5426 29.3968 96.0029 30.0029 96.5361 30.4404L96.2764 31.2129C95.6702 30.8757 95.0915 30.3105 94.54 29.5176C93.4645 27.9681 92.9268 26.1156 92.9268 23.96ZM104.309 26.2568L105.73 20.6035H106.995L104.842 28H103.816L102.019 22.3945L100.269 28H99.2432L97.0967 20.6035H98.3545L99.8105 26.1406L101.533 20.6035H102.552L104.309 26.2568ZM109.661 28H108.396V20.6035H109.661V28ZM108.294 18.6416C108.294 18.4365 108.355 18.2633 108.479 18.1221C108.606 17.9808 108.793 17.9102 109.039 17.9102C109.285 17.9102 109.472 17.9808 109.6 18.1221C109.727 18.2633 109.791 18.4365 109.791 18.6416C109.791 18.8467 109.727 19.0176 109.6 19.1543C109.472 19.291 109.285 19.3594 109.039 19.3594C108.793 19.3594 108.606 19.291 108.479 19.1543C108.355 19.0176 108.294 18.8467 108.294 18.6416ZM111.384 24.2402C111.384 23.1055 111.653 22.194 112.19 21.5059C112.728 20.8132 113.432 20.4668 114.303 20.4668C115.169 20.4668 115.854 20.763 116.36 21.3555V17.5H117.625V28H116.463L116.401 27.207C115.896 27.8268 115.191 28.1367 114.289 28.1367C113.432 28.1367 112.733 27.7858 112.19 27.084C111.653 26.3822 111.384 25.4661 111.384 24.3359V24.2402ZM112.648 24.3838C112.648 25.2223 112.822 25.8786 113.168 26.3525C113.514 26.8265 113.993 27.0635 114.604 27.0635C115.406 27.0635 115.991 26.7035 116.36 25.9834V22.5859C115.982 21.8887 115.401 21.54 114.617 21.54C113.997 21.54 113.514 21.7793 113.168 22.2578C112.822 22.7363 112.648 23.445 112.648 24.3838ZM121.31 18.8125V20.6035H122.69V21.5811H121.31V26.168C121.31 26.4642 121.371 26.6875 121.494 26.8379C121.617 26.9837 121.827 27.0566 122.123 27.0566C122.269 27.0566 122.469 27.0293 122.725 26.9746V28C122.392 28.0911 122.068 28.1367 121.754 28.1367C121.189 28.1367 120.763 27.9658 120.476 27.624C120.188 27.2822 120.045 26.7969 120.045 26.168V21.5811H118.698V20.6035H120.045V18.8125H121.31ZM125.438 21.499C125.999 20.8109 126.728 20.4668 127.626 20.4668C129.189 20.4668 129.978 21.3486 129.991 23.1123V28H128.727V23.1055C128.722 22.5723 128.599 22.1781 128.357 21.9229C128.12 21.6676 127.749 21.54 127.243 21.54C126.833 21.54 126.473 21.6494 126.163 21.8682C125.853 22.0869 125.612 22.374 125.438 22.7295V28H124.174V17.5H125.438V21.499ZM131.844 27.3369C131.844 27.1182 131.908 26.9359 132.035 26.79C132.167 26.6442 132.363 26.5713 132.623 26.5713C132.883 26.5713 133.079 26.6442 133.211 26.79C133.348 26.9359 133.416 27.1182 133.416 27.3369C133.416 27.5465 133.348 27.722 133.211 27.8633C133.079 28.0046 132.883 28.0752 132.623 28.0752C132.363 28.0752 132.167 28.0046 132.035 27.8633C131.908 27.722 131.844 27.5465 131.844 27.3369ZM131.851 21.3008C131.851 21.082 131.914 20.8997 132.042 20.7539C132.174 20.6081 132.37 20.5352 132.63 20.5352C132.89 20.5352 133.086 20.6081 133.218 20.7539C133.354 20.8997 133.423 21.082 133.423 21.3008C133.423 21.5104 133.354 21.6859 133.218 21.8271C133.086 21.9684 132.89 22.0391 132.63 22.0391C132.37 22.0391 132.174 21.9684 132.042 21.8271C131.914 21.6859 131.851 21.5104 131.851 21.3008ZM142.774 28H141.503V19.5713L138.953 20.5078V19.3594L142.576 17.999H142.774V28ZM152.721 23.7549C152.721 25.236 152.468 26.3366 151.962 27.0566C151.456 27.7767 150.665 28.1367 149.59 28.1367C148.528 28.1367 147.742 27.7858 147.231 27.084C146.721 26.3776 146.457 25.3249 146.438 23.9258V22.2373C146.438 20.7744 146.691 19.6875 147.197 18.9766C147.703 18.2656 148.496 17.9102 149.576 17.9102C150.647 17.9102 151.436 18.2542 151.941 18.9424C152.447 19.626 152.707 20.6833 152.721 22.1143V23.7549ZM151.456 22.0254C151.456 20.9544 151.306 20.1751 151.005 19.6875C150.704 19.1953 150.228 18.9492 149.576 18.9492C148.929 18.9492 148.457 19.193 148.161 19.6807C147.865 20.1683 147.712 20.918 147.703 21.9297V23.9531C147.703 25.0286 147.858 25.8239 148.168 26.3389C148.482 26.8493 148.956 27.1045 149.59 27.1045C150.214 27.1045 150.677 26.863 150.978 26.3799C151.283 25.8968 151.442 25.1357 151.456 24.0967V22.0254ZM160.582 23.7549C160.582 25.236 160.329 26.3366 159.823 27.0566C159.317 27.7767 158.527 28.1367 157.451 28.1367C156.389 28.1367 155.603 27.7858 155.093 27.084C154.582 26.3776 154.318 25.3249 154.3 23.9258V22.2373C154.3 20.7744 154.553 19.6875 155.059 18.9766C155.564 18.2656 156.357 17.9102 157.438 17.9102C158.508 17.9102 159.297 18.2542 159.803 18.9424C160.309 19.626 160.568 20.6833 160.582 22.1143V23.7549ZM159.317 22.0254C159.317 20.9544 159.167 20.1751 158.866 19.6875C158.565 19.1953 158.089 18.9492 157.438 18.9492C156.79 18.9492 156.319 19.193 156.022 19.6807C155.726 20.1683 155.574 20.918 155.564 21.9297V23.9531C155.564 25.0286 155.719 25.8239 156.029 26.3389C156.344 26.8493 156.818 27.1045 157.451 27.1045C158.076 27.1045 158.538 26.863 158.839 26.3799C159.144 25.8968 159.304 25.1357 159.317 24.0967V22.0254ZM162.093 19.9609C162.093 19.3639 162.282 18.8717 162.66 18.4844C163.043 18.097 163.533 17.9033 164.13 17.9033C164.736 17.9033 165.226 18.0993 165.6 18.4912C165.978 18.8786 166.167 19.3822 166.167 20.002V20.4873C166.167 21.0889 165.976 21.5811 165.593 21.9639C165.215 22.3421 164.731 22.5312 164.144 22.5312C163.551 22.5312 163.061 22.3421 162.674 21.9639C162.286 21.5811 162.093 21.0729 162.093 20.4395V19.9609ZM163.036 20.4873C163.036 20.8428 163.136 21.1367 163.337 21.3691C163.537 21.597 163.806 21.7109 164.144 21.7109C164.467 21.7109 164.727 21.5993 164.923 21.376C165.123 21.1527 165.224 20.8473 165.224 20.46V19.9609C165.224 19.6055 165.126 19.3115 164.93 19.0791C164.734 18.8467 164.467 18.7305 164.13 18.7305C163.793 18.7305 163.526 18.8467 163.33 19.0791C163.134 19.3115 163.036 19.6146 163.036 19.9883V20.4873ZM166.939 25.5596C166.939 24.9626 167.129 24.4727 167.507 24.0898C167.89 23.7025 168.38 23.5088 168.977 23.5088C169.574 23.5088 170.063 23.7002 170.446 24.083C170.829 24.4658 171.021 24.974 171.021 25.6074V26.0928C171.021 26.6898 170.829 27.182 170.446 27.5693C170.068 27.9521 169.583 28.1436 168.99 28.1436C168.398 28.1436 167.908 27.9544 167.521 27.5762C167.133 27.1934 166.939 26.6852 166.939 26.0518V25.5596ZM167.883 26.0928C167.883 26.4528 167.983 26.749 168.184 26.9814C168.384 27.2093 168.653 27.3232 168.99 27.3232C169.318 27.3232 169.58 27.2116 169.776 26.9883C169.972 26.7604 170.07 26.4528 170.07 26.0654V25.5596C170.07 25.1995 169.97 24.9056 169.77 24.6777C169.574 24.4499 169.309 24.3359 168.977 24.3359C168.653 24.3359 168.389 24.4499 168.184 24.6777C167.983 24.901 167.883 25.2041 167.883 25.5869V26.0928ZM164.431 27.248L163.713 26.7969L168.573 19.0176L169.291 19.4688L164.431 27.248ZM175.505 24.0283C175.505 25.0446 175.37 26.0199 175.102 26.9541C174.837 27.8838 174.429 28.7428 173.878 29.5312C173.331 30.3197 172.757 30.8802 172.155 31.2129L171.889 30.4404C172.59 29.9027 173.153 29.0687 173.577 27.9385C174.006 26.8037 174.224 25.5459 174.233 24.165V23.9463C174.233 22.9893 174.133 22.1006 173.933 21.2803C173.732 20.4554 173.452 19.7171 173.092 19.0654C172.736 18.4137 172.335 17.9056 171.889 17.541L172.155 16.7686C172.757 17.1012 173.329 17.6572 173.871 18.4365C174.418 19.2158 174.826 20.0749 175.095 21.0137C175.368 21.9525 175.505 22.9574 175.505 24.0283Z" fill="#6BAFC5"/>
<path d="M49.9082 76.2402C49.9082 75.1055 50.1771 74.194 50.7148 73.5059C51.2526 72.8132 51.9567 72.4668 52.8271 72.4668C53.693 72.4668 54.3789 72.763 54.8848 73.3555V69.5H56.1494V80H54.9873L54.9258 79.207C54.4199 79.8268 53.7158 80.1367 52.8135 80.1367C51.9567 80.1367 51.2572 79.7858 50.7148 79.084C50.1771 78.3822 49.9082 77.4661 49.9082 76.3359V76.2402ZM51.1729 76.3838C51.1729 77.2223 51.346 77.8786 51.6924 78.3525C52.0387 78.8265 52.5173 79.0635 53.1279 79.0635C53.93 79.0635 54.5156 78.7035 54.8848 77.9834V74.5859C54.5065 73.8887 53.9255 73.54 53.1416 73.54C52.5218 73.54 52.0387 73.7793 51.6924 74.2578C51.346 74.7363 51.1729 75.445 51.1729 76.3838ZM59.4922 80H58.2275V72.6035H59.4922V80ZM58.125 70.6416C58.125 70.4365 58.1865 70.2633 58.3096 70.1221C58.4372 69.9808 58.624 69.9102 58.8701 69.9102C59.1162 69.9102 59.3031 69.9808 59.4307 70.1221C59.5583 70.2633 59.6221 70.4365 59.6221 70.6416C59.6221 70.8467 59.5583 71.0176 59.4307 71.1543C59.3031 71.291 59.1162 71.3594 58.8701 71.3594C58.624 71.3594 58.4372 71.291 58.3096 71.1543C58.1865 71.0176 58.125 70.8467 58.125 70.6416ZM63.9629 78.2842L65.7949 72.6035H67.0869L64.4346 80H63.4707L60.791 72.6035H62.083L63.9629 78.2842ZM67.5928 79.3369C67.5928 79.1182 67.6566 78.9359 67.7842 78.79C67.9163 78.6442 68.1123 78.5713 68.3721 78.5713C68.6318 78.5713 68.8278 78.6442 68.96 78.79C69.0967 78.9359 69.165 79.1182 69.165 79.3369C69.165 79.5465 69.0967 79.722 68.96 79.8633C68.8278 80.0046 68.6318 80.0752 68.3721 80.0752C68.1123 80.0752 67.9163 80.0046 67.7842 79.8633C67.6566 79.722 67.5928 79.5465 67.5928 79.3369ZM72.6309 80H71.3662V72.6035H72.6309V80ZM71.2637 70.6416C71.2637 70.4365 71.3252 70.2633 71.4482 70.1221C71.5758 69.9808 71.7627 69.9102 72.0088 69.9102C72.2549 69.9102 72.4417 69.9808 72.5693 70.1221C72.6969 70.2633 72.7607 70.4365 72.7607 70.6416C72.7607 70.8467 72.6969 71.0176 72.5693 71.1543C72.4417 71.291 72.2549 71.3594 72.0088 71.3594C71.7627 71.3594 71.5758 71.291 71.4482 71.1543C71.3252 71.0176 71.2637 70.8467 71.2637 70.6416ZM77.6279 79.1045C78.0791 79.1045 78.4733 78.9678 78.8105 78.6943C79.1478 78.4209 79.3346 78.0791 79.3711 77.6689H80.5674C80.5446 78.0928 80.3988 78.4961 80.1299 78.8789C79.861 79.2617 79.501 79.5671 79.0498 79.7949C78.6032 80.0228 78.1292 80.1367 77.6279 80.1367C76.6208 80.1367 75.8187 79.8018 75.2217 79.1318C74.6292 78.4574 74.333 77.5368 74.333 76.3701V76.1582C74.333 75.4382 74.4652 74.7979 74.7295 74.2373C74.9938 73.6768 75.3721 73.2415 75.8643 72.9316C76.361 72.6217 76.9466 72.4668 77.6211 72.4668C78.4505 72.4668 79.1387 72.7152 79.6855 73.2119C80.237 73.7087 80.5309 74.3535 80.5674 75.1465H79.3711C79.3346 74.668 79.1523 74.276 78.8242 73.9707C78.5007 73.6608 78.0996 73.5059 77.6211 73.5059C76.9785 73.5059 76.4795 73.7383 76.124 74.2031C75.7731 74.6634 75.5977 75.3311 75.5977 76.2061V76.4453C75.5977 77.2975 75.7731 77.9538 76.124 78.4141C76.4749 78.8743 76.9762 79.1045 77.6279 79.1045ZM81.6543 76.2334C81.6543 75.5088 81.7956 74.8571 82.0781 74.2783C82.3652 73.6995 82.7617 73.2529 83.2676 72.9385C83.778 72.624 84.359 72.4668 85.0107 72.4668C86.0179 72.4668 86.8314 72.8154 87.4512 73.5127C88.0755 74.21 88.3877 75.1374 88.3877 76.2949V76.3838C88.3877 77.1038 88.2487 77.751 87.9707 78.3252C87.6973 78.8949 87.3031 79.3392 86.7881 79.6582C86.2777 79.9772 85.6898 80.1367 85.0244 80.1367C84.0218 80.1367 83.2083 79.7881 82.584 79.0908C81.9642 78.3936 81.6543 77.4707 81.6543 76.3223V76.2334ZM82.9258 76.3838C82.9258 77.2041 83.1149 77.8626 83.4932 78.3594C83.876 78.8561 84.3864 79.1045 85.0244 79.1045C85.667 79.1045 86.1774 78.8538 86.5557 78.3525C86.9339 77.8467 87.123 77.1403 87.123 76.2334C87.123 75.4222 86.9294 74.766 86.542 74.2646C86.1592 73.7588 85.6488 73.5059 85.0107 73.5059C84.3864 73.5059 83.8828 73.7542 83.5 74.251C83.1172 74.7477 82.9258 75.4587 82.9258 76.3838ZM91.1699 72.6035L91.2109 73.5332C91.776 72.8223 92.5143 72.4668 93.4258 72.4668C94.9889 72.4668 95.7773 73.3486 95.791 75.1123V80H94.5264V75.1055C94.5218 74.5723 94.3988 74.1781 94.1572 73.9229C93.9202 73.6676 93.5488 73.54 93.043 73.54C92.6328 73.54 92.2728 73.6494 91.9629 73.8682C91.653 74.0869 91.4115 74.374 91.2383 74.7295V80H89.9736V72.6035H91.1699ZM39.0391 90.5371C39.0391 89.6543 39.1562 88.8066 39.3906 87.9941C39.6289 87.1816 39.9824 86.4434 40.4512 85.7793C40.9199 85.1152 41.4062 84.6465 41.9102 84.373L42.1328 85.0879C41.5625 85.5254 41.0938 86.1934 40.7266 87.0918C40.3633 87.9902 40.1641 88.9961 40.1289 90.1094L40.123 90.6074C40.123 92.1152 40.3984 93.4238 40.9492 94.5332C41.2812 95.1973 41.6758 95.7168 42.1328 96.0918L41.9102 96.7539C41.3906 96.4648 40.8945 95.9805 40.4219 95.3008C39.5 93.9727 39.0391 92.3848 39.0391 90.5371ZM48.7949 92.5059L50.0137 87.6602H51.0977L49.252 94H48.373L46.832 89.1953L45.332 94H44.4531L42.6133 87.6602H43.6914L44.9395 92.4062L46.416 87.6602H47.2891L48.7949 92.5059ZM53.3828 94H52.2988V87.6602H53.3828V94ZM52.2109 85.9785C52.2109 85.8027 52.2637 85.6543 52.3691 85.5332C52.4785 85.4121 52.6387 85.3516 52.8496 85.3516C53.0605 85.3516 53.2207 85.4121 53.3301 85.5332C53.4395 85.6543 53.4941 85.8027 53.4941 85.9785C53.4941 86.1543 53.4395 86.3008 53.3301 86.418C53.2207 86.5352 53.0605 86.5938 52.8496 86.5938C52.6387 86.5938 52.4785 86.5352 52.3691 86.418C52.2637 86.3008 52.2109 86.1543 52.2109 85.9785ZM54.8594 90.7773C54.8594 89.8047 55.0898 89.0234 55.5508 88.4336C56.0117 87.8398 56.6152 87.543 57.3613 87.543C58.1035 87.543 58.6914 87.7969 59.125 88.3047V85H60.209V94H59.2129L59.1602 93.3203C58.7266 93.8516 58.123 94.1172 57.3496 94.1172C56.6152 94.1172 56.0156 93.8164 55.5508 93.2148C55.0898 92.6133 54.8594 91.8281 54.8594 90.8594V90.7773ZM55.9434 90.9004C55.9434 91.6191 56.0918 92.1816 56.3887 92.5879C56.6855 92.9941 57.0957 93.1973 57.6191 93.1973C58.3066 93.1973 58.8086 92.8887 59.125 92.2715V89.3594C58.8008 88.7617 58.3027 88.4629 57.6309 88.4629C57.0996 88.4629 56.6855 88.668 56.3887 89.0781C56.0918 89.4883 55.9434 90.0957 55.9434 90.9004ZM63.3672 86.125V87.6602H64.5508V88.498H63.3672V92.4297C63.3672 92.6836 63.4199 92.875 63.5254 93.0039C63.6309 93.1289 63.8105 93.1914 64.0645 93.1914C64.1895 93.1914 64.3613 93.168 64.5801 93.1211V94C64.2949 94.0781 64.0176 94.1172 63.748 94.1172C63.2637 94.1172 62.8984 93.9707 62.6523 93.6777C62.4062 93.3848 62.2832 92.9688 62.2832 92.4297V88.498H61.1289V87.6602H62.2832V86.125H63.3672ZM66.9062 88.4277C67.3867 87.8379 68.0117 87.543 68.7812 87.543C70.1211 87.543 70.7969 88.2988 70.8086 89.8105V94H69.7246V89.8047C69.7207 89.3477 69.6152 89.0098 69.4082 88.791C69.2051 88.5723 68.8867 88.4629 68.4531 88.4629C68.1016 88.4629 67.793 88.5566 67.5273 88.7441C67.2617 88.9316 67.0547 89.1777 66.9062 89.4824V94H65.8223V85H66.9062V88.4277ZM72.3965 93.4316C72.3965 93.2441 72.4512 93.0879 72.5605 92.9629C72.6738 92.8379 72.8418 92.7754 73.0645 92.7754C73.2871 92.7754 73.4551 92.8379 73.5684 92.9629C73.6855 93.0879 73.7441 93.2441 73.7441 93.4316C73.7441 93.6113 73.6855 93.7617 73.5684 93.8828C73.4551 94.0039 73.2871 94.0645 73.0645 94.0645C72.8418 94.0645 72.6738 94.0039 72.5605 93.8828C72.4512 93.7617 72.3965 93.6113 72.3965 93.4316ZM72.4023 88.2578C72.4023 88.0703 72.457 87.9141 72.5664 87.7891C72.6797 87.6641 72.8477 87.6016 73.0703 87.6016C73.293 87.6016 73.4609 87.6641 73.5742 87.7891C73.6914 87.9141 73.75 88.0703 73.75 88.2578C73.75 88.4375 73.6914 88.5879 73.5742 88.709C73.4609 88.8301 73.293 88.8906 73.0703 88.8906C72.8477 88.8906 72.6797 88.8301 72.5664 88.709C72.457 88.5879 72.4023 88.4375 72.4023 88.2578ZM83.793 94H78.2031V93.2207L81.1562 89.9395C81.5938 89.4434 81.8945 89.041 82.0586 88.7324C82.2266 88.4199 82.3105 88.0977 82.3105 87.7656C82.3105 87.3203 82.1758 86.9551 81.9062 86.6699C81.6367 86.3848 81.2773 86.2422 80.8281 86.2422C80.2891 86.2422 79.8691 86.3965 79.5684 86.7051C79.2715 87.0098 79.123 87.4355 79.123 87.9824H78.0391C78.0391 87.1973 78.291 86.5625 78.7949 86.0781C79.3027 85.5938 79.9805 85.3516 80.8281 85.3516C81.6211 85.3516 82.248 85.5605 82.709 85.9785C83.1699 86.3926 83.4004 86.9453 83.4004 87.6367C83.4004 88.4766 82.8652 89.4766 81.7949 90.6367L79.5098 93.1152H83.793V94ZM90.291 90.3613C90.291 91.6309 90.0742 92.5742 89.6406 93.1914C89.207 93.8086 88.5293 94.1172 87.6074 94.1172C86.6973 94.1172 86.0234 93.8164 85.5859 93.2148C85.1484 92.6094 84.9219 91.707 84.9062 90.5078V89.0605C84.9062 87.8066 85.123 86.875 85.5566 86.2656C85.9902 85.6562 86.6699 85.3516 87.5957 85.3516C88.5137 85.3516 89.1895 85.6465 89.623 86.2363C90.0566 86.8223 90.2793 87.7285 90.291 88.9551V90.3613ZM89.207 88.8789C89.207 87.9609 89.0781 87.293 88.8203 86.875C88.5625 86.4531 88.1543 86.2422 87.5957 86.2422C87.041 86.2422 86.6367 86.4512 86.3828 86.8691C86.1289 87.2871 85.998 87.9297 85.9902 88.7969V90.5312C85.9902 91.4531 86.123 92.1348 86.3887 92.5762C86.6582 93.0137 87.0645 93.2324 87.6074 93.2324C88.1426 93.2324 88.5391 93.0254 88.7969 92.6113C89.0586 92.1973 89.1953 91.5449 89.207 90.6543V88.8789ZM97.1465 90.9004C97.1465 91.8652 96.9258 92.6426 96.4844 93.2324C96.043 93.8223 95.4453 94.1172 94.6914 94.1172C93.9219 94.1172 93.3164 93.873 92.875 93.3848V96.4375H91.791V87.6602H92.7812L92.834 88.3633C93.2754 87.8164 93.8887 87.543 94.6738 87.543C95.4355 87.543 96.0371 87.8301 96.4785 88.4043C96.9238 88.9785 97.1465 89.7773 97.1465 90.8008V90.9004ZM96.0625 90.7773C96.0625 90.0625 95.9102 89.498 95.6055 89.084C95.3008 88.6699 94.8828 88.4629 94.3516 88.4629C93.6953 88.4629 93.2031 88.7539 92.875 89.3359V92.3652C93.1992 92.9434 93.6953 93.2324 94.3633 93.2324C94.8828 93.2324 95.2949 93.0273 95.5996 92.6172C95.9082 92.2031 96.0625 91.5898 96.0625 90.7773ZM100.562 89.9746L101.969 87.6602H103.234L101.16 90.7949L103.299 94H102.045L100.58 91.627L99.1152 94H97.8555L99.9941 90.7949L97.9199 87.6602H99.1738L100.562 89.9746ZM106.891 90.5957C106.891 91.4668 106.775 92.3027 106.545 93.1035C106.318 93.9004 105.969 94.6367 105.496 95.3125C105.027 95.9883 104.535 96.4688 104.02 96.7539L103.791 96.0918C104.393 95.6309 104.875 94.916 105.238 93.9473C105.605 92.9746 105.793 91.8965 105.801 90.7129V90.5254C105.801 89.7051 105.715 88.9434 105.543 88.2402C105.371 87.5332 105.131 86.9004 104.822 86.3418C104.518 85.7832 104.174 85.3477 103.791 85.0352L104.02 84.373C104.535 84.6582 105.025 85.1348 105.49 85.8027C105.959 86.4707 106.309 87.207 106.539 88.0117C106.773 88.8164 106.891 89.6777 106.891 90.5957Z" fill="white"/>
<path d="M258.451 83.2471C258.451 82.0941 258.709 81.1758 259.224 80.4922C259.743 79.8086 260.452 79.4668 261.35 79.4668C262.07 79.4668 262.664 79.7357 263.134 80.2734V76.5H265.116V87H263.332L263.236 86.2139C262.744 86.8291 262.111 87.1367 261.336 87.1367C260.465 87.1367 259.766 86.7949 259.237 86.1113C258.713 85.4232 258.451 84.4684 258.451 83.2471ZM260.427 83.3906C260.427 84.0833 260.548 84.6143 260.789 84.9834C261.031 85.3525 261.382 85.5371 261.842 85.5371C262.452 85.5371 262.883 85.2796 263.134 84.7646V81.8457C262.888 81.3307 262.462 81.0732 261.855 81.0732C260.903 81.0732 260.427 81.8457 260.427 83.3906ZM268.732 87H266.75V79.6035H268.732V87ZM266.634 77.6895C266.634 77.3932 266.732 77.1494 266.928 76.958C267.128 76.7666 267.399 76.6709 267.741 76.6709C268.078 76.6709 268.347 76.7666 268.548 76.958C268.748 77.1494 268.849 77.3932 268.849 77.6895C268.849 77.9902 268.746 78.2363 268.541 78.4277C268.34 78.6191 268.074 78.7148 267.741 78.7148C267.409 78.7148 267.14 78.6191 266.935 78.4277C266.734 78.2363 266.634 77.9902 266.634 77.6895ZM273.135 84.5869L274.509 79.6035H276.573L274.078 87H272.191L269.696 79.6035H271.761L273.135 84.5869ZM276.402 86.0293C276.402 85.7148 276.507 85.4596 276.717 85.2637C276.931 85.0677 277.198 84.9697 277.517 84.9697C277.84 84.9697 278.107 85.0677 278.316 85.2637C278.531 85.4596 278.638 85.7148 278.638 86.0293C278.638 86.3392 278.533 86.5921 278.323 86.7881C278.114 86.9795 277.845 87.0752 277.517 87.0752C277.193 87.0752 276.926 86.9795 276.717 86.7881C276.507 86.5921 276.402 86.3392 276.402 86.0293ZM282.739 77.7852V79.6035H284.004V81.0527H282.739V84.7441C282.739 85.0176 282.792 85.2135 282.896 85.332C283.001 85.4505 283.202 85.5098 283.498 85.5098C283.717 85.5098 283.91 85.4938 284.079 85.4619V86.959C283.692 87.0775 283.293 87.1367 282.883 87.1367C281.497 87.1367 280.791 86.4372 280.764 85.0381V81.0527H279.684V79.6035H280.764V77.7852H282.739ZM288.509 87.1367C287.424 87.1367 286.54 86.804 285.856 86.1387C285.177 85.4733 284.838 84.5869 284.838 83.4795V83.2881C284.838 82.5452 284.981 81.8822 285.269 81.2988C285.556 80.7109 285.961 80.2598 286.485 79.9453C287.014 79.6263 287.616 79.4668 288.29 79.4668C289.302 79.4668 290.097 79.7858 290.676 80.4238C291.259 81.0618 291.551 81.9665 291.551 83.1377V83.9443H286.841C286.905 84.4274 287.096 84.8148 287.415 85.1064C287.739 85.3981 288.146 85.5439 288.639 85.5439C289.4 85.5439 289.994 85.2682 290.423 84.7168L291.394 85.8037C291.097 86.223 290.696 86.5511 290.19 86.7881C289.685 87.0205 289.124 87.1367 288.509 87.1367ZM288.283 81.0664C287.891 81.0664 287.572 81.1986 287.326 81.4629C287.085 81.7272 286.93 82.1055 286.861 82.5977H289.609V82.4404C289.6 82.0029 289.482 81.6657 289.254 81.4287C289.026 81.1872 288.702 81.0664 288.283 81.0664ZM295.495 81.8115L296.739 79.6035H298.852L296.746 83.2266L298.94 87H296.821L295.502 84.6758L294.189 87H292.063L294.258 83.2266L292.159 79.6035H294.278L295.495 81.8115ZM302.167 77.7852V79.6035H303.432V81.0527H302.167V84.7441C302.167 85.0176 302.219 85.2135 302.324 85.332C302.429 85.4505 302.63 85.5098 302.926 85.5098C303.145 85.5098 303.338 85.4938 303.507 85.4619V86.959C303.119 87.0775 302.721 87.1367 302.311 87.1367C300.925 87.1367 300.219 86.4372 300.191 85.0381V81.0527H299.111V79.6035H300.191V77.7852H302.167Z" fill="white"/>
</svg>
