<svg width="619" height="305" viewBox="0 0 619 305" fill="none" xmlns="http://www.w3.org/2000/svg">
<rect width="619" height="305" fill="white"/>
<rect x="18.5" y="36.5" width="575" height="249" stroke="#96BFCC" stroke-width="3" stroke-dasharray="10 10"/>
<rect x="29" y="47" width="93" height="225" fill="#3949AB"/>
<rect x="489" y="47" width="93" height="225" fill="#3949AB"/>
<rect x="134" y="47" width="343" height="225" fill="#FB8C00"/>
<path d="M17.6494 24.2402C17.6494 23.1055 17.9183 22.194 18.4561 21.5059C18.9938 20.8132 19.6979 20.4668 20.5684 20.4668C21.4342 20.4668 22.1201 20.763 22.626 21.3555V17.5H23.8906V28H22.7285L22.667 27.207C22.1611 27.8268 21.457 28.1367 20.5547 28.1367C19.6979 28.1367 18.9984 27.7858 18.4561 27.084C17.9183 26.3822 17.6494 25.4661 17.6494 24.3359V24.2402ZM18.9141 24.3838C18.9141 25.2223 19.0872 25.8786 19.4336 26.3525C19.7799 26.8265 20.2585 27.0635 20.8691 27.0635C21.6712 27.0635 22.2568 26.7035 22.626 25.9834V22.5859C22.2477 21.8887 21.6667 21.54 20.8828 21.54C20.263 21.54 19.7799 21.7793 19.4336 22.2578C19.0872 22.7363 18.9141 23.445 18.9141 24.3838ZM27.2334 28H25.9688V20.6035H27.2334V28ZM25.8662 18.6416C25.8662 18.4365 25.9277 18.2633 26.0508 18.1221C26.1784 17.9808 26.3652 17.9102 26.6113 17.9102C26.8574 17.9102 27.0443 17.9808 27.1719 18.1221C27.2995 18.2633 27.3633 18.4365 27.3633 18.6416C27.3633 18.8467 27.2995 19.0176 27.1719 19.1543C27.0443 19.291 26.8574 19.3594 26.6113 19.3594C26.3652 19.3594 26.1784 19.291 26.0508 19.1543C25.9277 19.0176 25.8662 18.8467 25.8662 18.6416ZM31.7041 26.2842L33.5361 20.6035H34.8281L32.1758 28H31.2119L28.5322 20.6035H29.8242L31.7041 26.2842ZM35.334 27.3369C35.334 27.1182 35.3978 26.9359 35.5254 26.79C35.6576 26.6442 35.8535 26.5713 36.1133 26.5713C36.373 26.5713 36.569 26.6442 36.7012 26.79C36.8379 26.9359 36.9062 27.1182 36.9062 27.3369C36.9062 27.5465 36.8379 27.722 36.7012 27.8633C36.569 28.0046 36.373 28.0752 36.1133 28.0752C35.8535 28.0752 35.6576 28.0046 35.5254 27.8633C35.3978 27.722 35.334 27.5465 35.334 27.3369ZM45.5469 26.2568L46.9688 20.6035H48.2334L46.0801 28H45.0547L43.2568 22.3945L41.5068 28H40.4814L38.335 20.6035H39.5928L41.0488 26.1406L42.7715 20.6035H43.79L45.5469 26.2568ZM53.1006 21.7383C52.9092 21.7064 52.7018 21.6904 52.4785 21.6904C51.6491 21.6904 51.0863 22.0436 50.79 22.75V28H49.5254V20.6035H50.7559L50.7764 21.458C51.1911 20.7972 51.779 20.4668 52.54 20.4668C52.7861 20.4668 52.973 20.4987 53.1006 20.5625V21.7383ZM58.5625 28C58.4896 27.8542 58.4303 27.5944 58.3848 27.2207C57.7969 27.8314 57.0951 28.1367 56.2793 28.1367C55.5501 28.1367 54.9508 27.9316 54.4814 27.5215C54.0166 27.1068 53.7842 26.5827 53.7842 25.9492C53.7842 25.179 54.0758 24.582 54.6592 24.1582C55.2471 23.7298 56.0719 23.5156 57.1338 23.5156H58.3643V22.9346C58.3643 22.4925 58.2321 22.1416 57.9678 21.8818C57.7035 21.6175 57.3138 21.4854 56.7988 21.4854C56.3477 21.4854 55.9694 21.5993 55.6641 21.8271C55.3587 22.055 55.2061 22.3307 55.2061 22.6543H53.9346C53.9346 22.2852 54.0645 21.9297 54.3242 21.5879C54.5885 21.2415 54.944 20.9681 55.3906 20.7676C55.8418 20.5671 56.3363 20.4668 56.874 20.4668C57.7262 20.4668 58.3939 20.681 58.877 21.1094C59.36 21.5332 59.6107 22.1188 59.6289 22.8662V26.2705C59.6289 26.9495 59.7155 27.4896 59.8887 27.8906V28H58.5625ZM56.4639 27.0361C56.8604 27.0361 57.2363 26.9336 57.5918 26.7285C57.9473 26.5234 58.2048 26.2568 58.3643 25.9287V24.4111H57.373C55.8236 24.4111 55.0488 24.8646 55.0488 25.7715C55.0488 26.168 55.181 26.4779 55.4453 26.7012C55.7096 26.9245 56.0492 27.0361 56.4639 27.0361ZM67.8594 24.3838C67.8594 25.5094 67.6019 26.4163 67.0869 27.1045C66.5719 27.7926 65.8747 28.1367 64.9951 28.1367C64.0973 28.1367 63.391 27.8519 62.876 27.2822V30.8438H61.6113V20.6035H62.7666L62.8281 21.4238C63.3431 20.7858 64.0586 20.4668 64.9746 20.4668C65.8633 20.4668 66.5651 20.8018 67.0801 21.4717C67.5996 22.1416 67.8594 23.0736 67.8594 24.2676V24.3838ZM66.5947 24.2402C66.5947 23.4062 66.417 22.7477 66.0615 22.2646C65.7061 21.7816 65.2184 21.54 64.5986 21.54C63.833 21.54 63.2588 21.8796 62.876 22.5586V26.0928C63.2542 26.7673 63.833 27.1045 64.6123 27.1045C65.2184 27.1045 65.6992 26.8652 66.0547 26.3867C66.4147 25.9036 66.5947 25.1882 66.5947 24.2402ZM75.7207 24.3838C75.7207 25.5094 75.4632 26.4163 74.9482 27.1045C74.4333 27.7926 73.736 28.1367 72.8564 28.1367C71.9587 28.1367 71.2523 27.8519 70.7373 27.2822V30.8438H69.4727V20.6035H70.6279L70.6895 21.4238C71.2044 20.7858 71.9199 20.4668 72.8359 20.4668C73.7246 20.4668 74.4264 20.8018 74.9414 21.4717C75.4609 22.1416 75.7207 23.0736 75.7207 24.2676V24.3838ZM74.4561 24.2402C74.4561 23.4062 74.2783 22.7477 73.9229 22.2646C73.5674 21.7816 73.0798 21.54 72.46 21.54C71.6943 21.54 71.1201 21.8796 70.7373 22.5586V26.0928C71.1156 26.7673 71.6943 27.1045 72.4736 27.1045C73.0798 27.1045 73.5605 26.8652 73.916 26.3867C74.276 25.9036 74.4561 25.1882 74.4561 24.2402ZM80.4033 28.1367C79.4007 28.1367 78.585 27.8086 77.9561 27.1523C77.3271 26.4915 77.0127 25.6097 77.0127 24.5068V24.2744C77.0127 23.5407 77.1517 22.8867 77.4297 22.3125C77.7122 21.7337 78.1042 21.2826 78.6055 20.959C79.1113 20.6309 79.6582 20.4668 80.2461 20.4668C81.2077 20.4668 81.9551 20.7835 82.4883 21.417C83.0215 22.0505 83.2881 22.9574 83.2881 24.1377V24.6641H78.2773C78.2956 25.3932 78.5075 25.9834 78.9131 26.4346C79.3232 26.8812 79.8428 27.1045 80.4717 27.1045C80.9183 27.1045 81.2965 27.0133 81.6064 26.8311C81.9163 26.6488 82.1875 26.4072 82.4199 26.1064L83.1924 26.708C82.5726 27.6605 81.6429 28.1367 80.4033 28.1367ZM80.2461 21.5059C79.7357 21.5059 79.3073 21.6927 78.9609 22.0664C78.6146 22.4355 78.4004 22.9551 78.3184 23.625H82.0234V23.5293C81.987 22.8867 81.8138 22.39 81.5039 22.0391C81.194 21.6836 80.7747 21.5059 80.2461 21.5059ZM88.333 21.7383C88.1416 21.7064 87.9342 21.6904 87.7109 21.6904C86.8815 21.6904 86.3187 22.0436 86.0225 22.75V28H84.7578V20.6035H85.9883L86.0088 21.458C86.4235 20.7972 87.0114 20.4668 87.7725 20.4668C88.0186 20.4668 88.2054 20.4987 88.333 20.5625V21.7383ZM92.9268 23.96C92.9268 22.93 93.0635 21.9411 93.3369 20.9932C93.6149 20.0452 94.0273 19.1839 94.5742 18.4092C95.1211 17.6344 95.6885 17.0876 96.2764 16.7686L96.5361 17.6025C95.8708 18.113 95.3239 18.8923 94.8955 19.9404C94.4717 20.9886 94.2393 22.1621 94.1982 23.4609L94.1914 24.042C94.1914 25.8011 94.5127 27.3278 95.1553 28.6221C95.5426 29.3968 96.0029 30.0029 96.5361 30.4404L96.2764 31.2129C95.6702 30.8757 95.0915 30.3105 94.54 29.5176C93.4645 27.9681 92.9268 26.1156 92.9268 23.96ZM104.309 26.2568L105.73 20.6035H106.995L104.842 28H103.816L102.019 22.3945L100.269 28H99.2432L97.0967 20.6035H98.3545L99.8105 26.1406L101.533 20.6035H102.552L104.309 26.2568ZM109.661 28H108.396V20.6035H109.661V28ZM108.294 18.6416C108.294 18.4365 108.355 18.2633 108.479 18.1221C108.606 17.9808 108.793 17.9102 109.039 17.9102C109.285 17.9102 109.472 17.9808 109.6 18.1221C109.727 18.2633 109.791 18.4365 109.791 18.6416C109.791 18.8467 109.727 19.0176 109.6 19.1543C109.472 19.291 109.285 19.3594 109.039 19.3594C108.793 19.3594 108.606 19.291 108.479 19.1543C108.355 19.0176 108.294 18.8467 108.294 18.6416ZM111.384 24.2402C111.384 23.1055 111.653 22.194 112.19 21.5059C112.728 20.8132 113.432 20.4668 114.303 20.4668C115.169 20.4668 115.854 20.763 116.36 21.3555V17.5H117.625V28H116.463L116.401 27.207C115.896 27.8268 115.191 28.1367 114.289 28.1367C113.432 28.1367 112.733 27.7858 112.19 27.084C111.653 26.3822 111.384 25.4661 111.384 24.3359V24.2402ZM112.648 24.3838C112.648 25.2223 112.822 25.8786 113.168 26.3525C113.514 26.8265 113.993 27.0635 114.604 27.0635C115.406 27.0635 115.991 26.7035 116.36 25.9834V22.5859C115.982 21.8887 115.401 21.54 114.617 21.54C113.997 21.54 113.514 21.7793 113.168 22.2578C112.822 22.7363 112.648 23.445 112.648 24.3838ZM121.31 18.8125V20.6035H122.69V21.5811H121.31V26.168C121.31 26.4642 121.371 26.6875 121.494 26.8379C121.617 26.9837 121.827 27.0566 122.123 27.0566C122.269 27.0566 122.469 27.0293 122.725 26.9746V28C122.392 28.0911 122.068 28.1367 121.754 28.1367C121.189 28.1367 120.763 27.9658 120.476 27.624C120.188 27.2822 120.045 26.7969 120.045 26.168V21.5811H118.698V20.6035H120.045V18.8125H121.31ZM125.438 21.499C125.999 20.8109 126.728 20.4668 127.626 20.4668C129.189 20.4668 129.978 21.3486 129.991 23.1123V28H128.727V23.1055C128.722 22.5723 128.599 22.1781 128.357 21.9229C128.12 21.6676 127.749 21.54 127.243 21.54C126.833 21.54 126.473 21.6494 126.163 21.8682C125.853 22.0869 125.612 22.374 125.438 22.7295V28H124.174V17.5H125.438V21.499ZM131.844 27.3369C131.844 27.1182 131.908 26.9359 132.035 26.79C132.167 26.6442 132.363 26.5713 132.623 26.5713C132.883 26.5713 133.079 26.6442 133.211 26.79C133.348 26.9359 133.416 27.1182 133.416 27.3369C133.416 27.5465 133.348 27.722 133.211 27.8633C133.079 28.0046 132.883 28.0752 132.623 28.0752C132.363 28.0752 132.167 28.0046 132.035 27.8633C131.908 27.722 131.844 27.5465 131.844 27.3369ZM131.851 21.3008C131.851 21.082 131.914 20.8997 132.042 20.7539C132.174 20.6081 132.37 20.5352 132.63 20.5352C132.89 20.5352 133.086 20.6081 133.218 20.7539C133.354 20.8997 133.423 21.082 133.423 21.3008C133.423 21.5104 133.354 21.6859 133.218 21.8271C133.086 21.9684 132.89 22.0391 132.63 22.0391C132.37 22.0391 132.174 21.9684 132.042 21.8271C131.914 21.6859 131.851 21.5104 131.851 21.3008ZM142.774 28H141.503V19.5713L138.953 20.5078V19.3594L142.576 17.999H142.774V28ZM152.721 23.7549C152.721 25.236 152.468 26.3366 151.962 27.0566C151.456 27.7767 150.665 28.1367 149.59 28.1367C148.528 28.1367 147.742 27.7858 147.231 27.084C146.721 26.3776 146.457 25.3249 146.438 23.9258V22.2373C146.438 20.7744 146.691 19.6875 147.197 18.9766C147.703 18.2656 148.496 17.9102 149.576 17.9102C150.647 17.9102 151.436 18.2542 151.941 18.9424C152.447 19.626 152.707 20.6833 152.721 22.1143V23.7549ZM151.456 22.0254C151.456 20.9544 151.306 20.1751 151.005 19.6875C150.704 19.1953 150.228 18.9492 149.576 18.9492C148.929 18.9492 148.457 19.193 148.161 19.6807C147.865 20.1683 147.712 20.918 147.703 21.9297V23.9531C147.703 25.0286 147.858 25.8239 148.168 26.3389C148.482 26.8493 148.956 27.1045 149.59 27.1045C150.214 27.1045 150.677 26.863 150.978 26.3799C151.283 25.8968 151.442 25.1357 151.456 24.0967V22.0254ZM160.582 23.7549C160.582 25.236 160.329 26.3366 159.823 27.0566C159.317 27.7767 158.527 28.1367 157.451 28.1367C156.389 28.1367 155.603 27.7858 155.093 27.084C154.582 26.3776 154.318 25.3249 154.3 23.9258V22.2373C154.3 20.7744 154.553 19.6875 155.059 18.9766C155.564 18.2656 156.357 17.9102 157.438 17.9102C158.508 17.9102 159.297 18.2542 159.803 18.9424C160.309 19.626 160.568 20.6833 160.582 22.1143V23.7549ZM159.317 22.0254C159.317 20.9544 159.167 20.1751 158.866 19.6875C158.565 19.1953 158.089 18.9492 157.438 18.9492C156.79 18.9492 156.319 19.193 156.022 19.6807C155.726 20.1683 155.574 20.918 155.564 21.9297V23.9531C155.564 25.0286 155.719 25.8239 156.029 26.3389C156.344 26.8493 156.818 27.1045 157.451 27.1045C158.076 27.1045 158.538 26.863 158.839 26.3799C159.144 25.8968 159.304 25.1357 159.317 24.0967V22.0254ZM162.093 19.9609C162.093 19.3639 162.282 18.8717 162.66 18.4844C163.043 18.097 163.533 17.9033 164.13 17.9033C164.736 17.9033 165.226 18.0993 165.6 18.4912C165.978 18.8786 166.167 19.3822 166.167 20.002V20.4873C166.167 21.0889 165.976 21.5811 165.593 21.9639C165.215 22.3421 164.731 22.5312 164.144 22.5312C163.551 22.5312 163.061 22.3421 162.674 21.9639C162.286 21.5811 162.093 21.0729 162.093 20.4395V19.9609ZM163.036 20.4873C163.036 20.8428 163.136 21.1367 163.337 21.3691C163.537 21.597 163.806 21.7109 164.144 21.7109C164.467 21.7109 164.727 21.5993 164.923 21.376C165.123 21.1527 165.224 20.8473 165.224 20.46V19.9609C165.224 19.6055 165.126 19.3115 164.93 19.0791C164.734 18.8467 164.467 18.7305 164.13 18.7305C163.793 18.7305 163.526 18.8467 163.33 19.0791C163.134 19.3115 163.036 19.6146 163.036 19.9883V20.4873ZM166.939 25.5596C166.939 24.9626 167.129 24.4727 167.507 24.0898C167.89 23.7025 168.38 23.5088 168.977 23.5088C169.574 23.5088 170.063 23.7002 170.446 24.083C170.829 24.4658 171.021 24.974 171.021 25.6074V26.0928C171.021 26.6898 170.829 27.182 170.446 27.5693C170.068 27.9521 169.583 28.1436 168.99 28.1436C168.398 28.1436 167.908 27.9544 167.521 27.5762C167.133 27.1934 166.939 26.6852 166.939 26.0518V25.5596ZM167.883 26.0928C167.883 26.4528 167.983 26.749 168.184 26.9814C168.384 27.2093 168.653 27.3232 168.99 27.3232C169.318 27.3232 169.58 27.2116 169.776 26.9883C169.972 26.7604 170.07 26.4528 170.07 26.0654V25.5596C170.07 25.1995 169.97 24.9056 169.77 24.6777C169.574 24.4499 169.309 24.3359 168.977 24.3359C168.653 24.3359 168.389 24.4499 168.184 24.6777C167.983 24.901 167.883 25.2041 167.883 25.5869V26.0928ZM164.431 27.248L163.713 26.7969L168.573 19.0176L169.291 19.4688L164.431 27.248ZM175.505 24.0283C175.505 25.0446 175.37 26.0199 175.102 26.9541C174.837 27.8838 174.429 28.7428 173.878 29.5312C173.331 30.3197 172.757 30.8802 172.155 31.2129L171.889 30.4404C172.59 29.9027 173.153 29.0687 173.577 27.9385C174.006 26.8037 174.224 25.5459 174.233 24.165V23.9463C174.233 22.9893 174.133 22.1006 173.933 21.2803C173.732 20.4554 173.452 19.7171 173.092 19.0654C172.736 18.4137 172.335 17.9056 171.889 17.541L172.155 16.7686C172.757 17.1012 173.329 17.6572 173.871 18.4365C174.418 19.2158 174.826 20.0749 175.095 21.0137C175.368 21.9525 175.505 22.9574 175.505 24.0283Z" fill="#6BAFC5"/>
<path d="M42.6963 140.247C42.6963 139.094 42.9538 138.176 43.4688 137.492C43.9883 136.809 44.6969 136.467 45.5947 136.467C46.3148 136.467 46.9095 136.736 47.3789 137.273V133.5H49.3613V144H47.5771L47.4814 143.214C46.9893 143.829 46.3558 144.137 45.5811 144.137C44.7106 144.137 44.0111 143.795 43.4824 143.111C42.9583 142.423 42.6963 141.468 42.6963 140.247ZM44.6719 140.391C44.6719 141.083 44.7926 141.614 45.0342 141.983C45.2757 142.353 45.6266 142.537 46.0869 142.537C46.6976 142.537 47.1283 142.28 47.3789 141.765V138.846C47.1328 138.331 46.7067 138.073 46.1006 138.073C45.1481 138.073 44.6719 138.846 44.6719 140.391ZM52.9775 144H50.9951V136.604H52.9775V144ZM50.8789 134.689C50.8789 134.393 50.9769 134.149 51.1729 133.958C51.3734 133.767 51.6445 133.671 51.9863 133.671C52.3236 133.671 52.5924 133.767 52.793 133.958C52.9935 134.149 53.0938 134.393 53.0938 134.689C53.0938 134.99 52.9912 135.236 52.7861 135.428C52.5856 135.619 52.319 135.715 51.9863 135.715C51.6536 135.715 51.3848 135.619 51.1797 135.428C50.9792 135.236 50.8789 134.99 50.8789 134.689ZM57.3799 141.587L58.7539 136.604H60.8184L58.3232 144H56.4365L53.9414 136.604H56.0059L57.3799 141.587ZM60.6475 143.029C60.6475 142.715 60.7523 142.46 60.9619 142.264C61.1761 142.068 61.4427 141.97 61.7617 141.97C62.0853 141.97 62.3519 142.068 62.5615 142.264C62.7757 142.46 62.8828 142.715 62.8828 143.029C62.8828 143.339 62.778 143.592 62.5684 143.788C62.3587 143.979 62.0898 144.075 61.7617 144.075C61.4382 144.075 61.1715 143.979 60.9619 143.788C60.7523 143.592 60.6475 143.339 60.6475 143.029ZM68.625 141.956C68.625 141.715 68.5042 141.525 68.2627 141.389C68.0257 141.247 67.6429 141.122 67.1143 141.013C65.3551 140.644 64.4756 139.896 64.4756 138.771C64.4756 138.114 64.7467 137.567 65.2891 137.13C65.8359 136.688 66.5492 136.467 67.4287 136.467C68.3675 136.467 69.1172 136.688 69.6777 137.13C70.2428 137.572 70.5254 138.146 70.5254 138.853H68.5498C68.5498 138.57 68.4587 138.338 68.2764 138.155C68.0941 137.968 67.8092 137.875 67.4219 137.875C67.0892 137.875 66.8317 137.95 66.6494 138.101C66.4671 138.251 66.376 138.442 66.376 138.675C66.376 138.894 66.4785 139.071 66.6836 139.208C66.8932 139.34 67.2441 139.456 67.7363 139.557C68.2285 139.652 68.6432 139.762 68.9805 139.885C70.0241 140.268 70.5459 140.931 70.5459 141.874C70.5459 142.549 70.2565 143.095 69.6777 143.515C69.099 143.929 68.3516 144.137 67.4355 144.137C66.8158 144.137 66.2643 144.027 65.7812 143.809C65.3027 143.585 64.9268 143.282 64.6533 142.899C64.3799 142.512 64.2432 142.095 64.2432 141.648H66.1162C66.1344 141.999 66.2643 142.268 66.5059 142.455C66.7474 142.642 67.071 142.735 67.4766 142.735C67.8548 142.735 68.1396 142.665 68.3311 142.523C68.527 142.378 68.625 142.188 68.625 141.956ZM73.9092 144H71.9268V136.604H73.9092V144ZM71.8105 134.689C71.8105 134.393 71.9085 134.149 72.1045 133.958C72.305 133.767 72.5762 133.671 72.918 133.671C73.2552 133.671 73.5241 133.767 73.7246 133.958C73.9251 134.149 74.0254 134.393 74.0254 134.689C74.0254 134.99 73.9229 135.236 73.7178 135.428C73.5173 135.619 73.2507 135.715 72.918 135.715C72.5853 135.715 72.3164 135.619 72.1113 135.428C71.9108 135.236 71.8105 134.99 71.8105 134.689ZM75.2354 140.247C75.2354 139.094 75.4928 138.176 76.0078 137.492C76.5273 136.809 77.236 136.467 78.1338 136.467C78.8538 136.467 79.4486 136.736 79.918 137.273V133.5H81.9004V144H80.1162L80.0205 143.214C79.5283 143.829 78.8949 144.137 78.1201 144.137C77.2497 144.137 76.5501 143.795 76.0215 143.111C75.4974 142.423 75.2354 141.468 75.2354 140.247ZM77.2109 140.391C77.2109 141.083 77.3317 141.614 77.5732 141.983C77.8148 142.353 78.1657 142.537 78.626 142.537C79.2367 142.537 79.6673 142.28 79.918 141.765V138.846C79.6719 138.331 79.2458 138.073 78.6396 138.073C77.6872 138.073 77.2109 138.846 77.2109 140.391ZM86.8359 144.137C85.7513 144.137 84.8672 143.804 84.1836 143.139C83.5046 142.473 83.165 141.587 83.165 140.479V140.288C83.165 139.545 83.3086 138.882 83.5957 138.299C83.8828 137.711 84.2884 137.26 84.8125 136.945C85.3411 136.626 85.9427 136.467 86.6172 136.467C87.6289 136.467 88.4242 136.786 89.0029 137.424C89.5863 138.062 89.8779 138.966 89.8779 140.138V140.944H85.168C85.2318 141.427 85.4232 141.815 85.7422 142.106C86.0658 142.398 86.4736 142.544 86.9658 142.544C87.7269 142.544 88.3216 142.268 88.75 141.717L89.7207 142.804C89.4245 143.223 89.0234 143.551 88.5176 143.788C88.0117 144.021 87.4512 144.137 86.8359 144.137ZM86.6104 138.066C86.2184 138.066 85.8994 138.199 85.6533 138.463C85.4118 138.727 85.2568 139.105 85.1885 139.598H87.9365V139.44C87.9274 139.003 87.8089 138.666 87.5811 138.429C87.3532 138.187 87.0296 138.066 86.6104 138.066ZM97.6709 140.37C97.6709 141.555 97.418 142.48 96.9121 143.146C96.4062 143.806 95.6999 144.137 94.793 144.137C93.9909 144.137 93.3506 143.829 92.8721 143.214L92.7832 144H91.0059V133.5H92.9814V137.267C93.4372 136.733 94.0365 136.467 94.7793 136.467C95.6816 136.467 96.388 136.799 96.8984 137.465C97.4134 138.126 97.6709 139.058 97.6709 140.261V140.37ZM95.6953 140.227C95.6953 139.479 95.5768 138.935 95.3398 138.593C95.1029 138.246 94.7497 138.073 94.2803 138.073C93.6514 138.073 93.2184 138.331 92.9814 138.846V141.765C93.223 142.284 93.6605 142.544 94.2939 142.544C94.932 142.544 95.3512 142.229 95.5518 141.601C95.6475 141.3 95.6953 140.842 95.6953 140.227ZM103.181 144C103.09 143.822 103.023 143.601 102.982 143.337C102.504 143.87 101.882 144.137 101.116 144.137C100.392 144.137 99.79 143.927 99.3115 143.508C98.8376 143.089 98.6006 142.56 98.6006 141.922C98.6006 141.138 98.89 140.536 99.4688 140.117C100.052 139.698 100.893 139.486 101.991 139.481H102.9V139.058C102.9 138.716 102.812 138.442 102.634 138.237C102.461 138.032 102.185 137.93 101.807 137.93C101.474 137.93 101.212 138.009 101.021 138.169C100.834 138.328 100.74 138.547 100.74 138.825H98.7646C98.7646 138.397 98.8968 138 99.1611 137.636C99.4255 137.271 99.7992 136.986 100.282 136.781C100.765 136.572 101.308 136.467 101.909 136.467C102.821 136.467 103.543 136.697 104.076 137.157C104.614 137.613 104.883 138.256 104.883 139.085V142.291C104.887 142.993 104.985 143.524 105.177 143.884V144H103.181ZM101.547 142.626C101.839 142.626 102.107 142.562 102.354 142.435C102.6 142.302 102.782 142.127 102.9 141.908V140.637H102.162C101.173 140.637 100.647 140.979 100.583 141.662L100.576 141.778C100.576 142.024 100.663 142.227 100.836 142.387C101.009 142.546 101.246 142.626 101.547 142.626ZM110.557 138.456C110.288 138.42 110.051 138.401 109.846 138.401C109.098 138.401 108.608 138.654 108.376 139.16V144H106.4V136.604H108.267L108.321 137.485C108.718 136.806 109.267 136.467 109.969 136.467C110.188 136.467 110.393 136.496 110.584 136.556L110.557 138.456ZM44.6836 153.109C44.6836 152.364 44.7829 151.654 44.9814 150.98C45.18 150.307 45.473 149.711 45.8604 149.193C46.2477 148.673 46.6676 148.311 47.1201 148.109L47.3936 148.871C46.9183 149.223 46.5472 149.766 46.2803 150.502C46.0133 151.238 45.8799 152.097 45.8799 153.08V153.231C45.8799 154.218 46.0117 155.08 46.2754 155.819C46.5391 156.558 46.9118 157.11 47.3936 157.475L47.1201 158.222C46.6774 158.023 46.264 157.672 45.8799 157.167C45.499 156.666 45.2077 156.086 45.0059 155.429C44.804 154.771 44.6966 154.084 44.6836 153.368V153.109ZM52.7305 154.081L53.4238 150.717H54.7861L53.4385 156H52.2568L51.2559 152.675L50.2549 156H49.0781L47.7305 150.717H49.0928L49.7812 154.076L50.748 150.717H51.7686L52.7305 154.081ZM56.9785 156H55.5625V150.717H56.9785V156ZM55.4795 149.35C55.4795 149.138 55.5495 148.964 55.6895 148.827C55.8327 148.69 56.0264 148.622 56.2705 148.622C56.5114 148.622 56.7035 148.69 56.8467 148.827C56.9899 148.964 57.0615 149.138 57.0615 149.35C57.0615 149.564 56.9883 149.74 56.8418 149.877C56.6986 150.014 56.5081 150.082 56.2705 150.082C56.0329 150.082 55.8408 150.014 55.6943 149.877C55.5511 149.74 55.4795 149.564 55.4795 149.35ZM57.9258 153.319C57.9258 152.496 58.1097 151.84 58.4775 151.352C58.8486 150.863 59.3548 150.619 59.9961 150.619C60.5104 150.619 60.9352 150.811 61.2705 151.195V148.5H62.6865V156H61.4121L61.3438 155.438C60.9922 155.878 60.5397 156.098 59.9863 156.098C59.3646 156.098 58.8649 155.854 58.4873 155.365C58.113 154.874 57.9258 154.192 57.9258 153.319ZM59.3369 153.422C59.3369 153.917 59.4232 154.296 59.5957 154.56C59.7682 154.823 60.0189 154.955 60.3477 154.955C60.7839 154.955 61.0915 154.771 61.2705 154.403V152.318C61.0947 151.951 60.7904 151.767 60.3574 151.767C59.6771 151.767 59.3369 152.318 59.3369 153.422ZM65.4697 149.418V150.717H66.373V151.752H65.4697V154.389C65.4697 154.584 65.5072 154.724 65.582 154.809C65.6569 154.893 65.8001 154.936 66.0117 154.936C66.168 154.936 66.3063 154.924 66.4268 154.901V155.971C66.1501 156.055 65.8652 156.098 65.5723 156.098C64.5827 156.098 64.0781 155.598 64.0586 154.599V151.752H63.2871V150.717H64.0586V149.418H65.4697ZM68.5361 151.293C68.9105 150.844 69.3809 150.619 69.9473 150.619C71.0931 150.619 71.6742 151.285 71.6904 152.616V156H70.2793V152.655C70.2793 152.353 70.2142 152.13 70.084 151.986C69.9538 151.84 69.7373 151.767 69.4346 151.767C69.0212 151.767 68.7217 151.926 68.5361 152.245V156H67.125V148.5H68.5361V151.293ZM72.8232 155.307C72.8232 155.082 72.8981 154.9 73.0479 154.76C73.2008 154.62 73.3913 154.55 73.6191 154.55C73.8503 154.55 74.0407 154.62 74.1904 154.76C74.3434 154.9 74.4199 155.082 74.4199 155.307C74.4199 155.528 74.3451 155.709 74.1953 155.849C74.0456 155.985 73.8535 156.054 73.6191 156.054C73.388 156.054 73.1976 155.985 73.0479 155.849C72.8981 155.709 72.8232 155.528 72.8232 155.307ZM72.8232 151.308C72.8232 151.083 72.8981 150.901 73.0479 150.761C73.2008 150.621 73.3913 150.551 73.6191 150.551C73.8503 150.551 74.0407 150.621 74.1904 150.761C74.3434 150.901 74.4199 151.083 74.4199 151.308C74.4199 151.529 74.3451 151.71 74.1953 151.85C74.0456 151.986 73.8535 152.055 73.6191 152.055C73.388 152.055 73.1976 151.986 73.0479 151.85C72.8981 151.71 72.8232 151.529 72.8232 151.308ZM82.8818 156H78.0088V155.033L80.3086 152.582C80.6243 152.237 80.8571 151.936 81.0068 151.679C81.1598 151.422 81.2363 151.177 81.2363 150.946C81.2363 150.631 81.1566 150.383 80.9971 150.204C80.8376 150.022 80.6097 149.931 80.3135 149.931C79.9945 149.931 79.7422 150.041 79.5566 150.263C79.3743 150.481 79.2832 150.769 79.2832 151.127H77.8672C77.8672 150.694 77.9697 150.299 78.1748 149.94C78.3831 149.582 78.6761 149.302 79.0537 149.101C79.4313 148.896 79.8594 148.793 80.3379 148.793C81.0703 148.793 81.6383 148.969 82.042 149.32C82.4489 149.672 82.6523 150.168 82.6523 150.81C82.6523 151.161 82.5612 151.519 82.3789 151.884C82.1966 152.248 81.8841 152.673 81.4414 153.158L79.8252 154.862H82.8818V156ZM88.5361 153.061C88.5361 154.044 88.3327 154.796 87.9258 155.316C87.5189 155.837 86.9232 156.098 86.1387 156.098C85.3639 156.098 84.7715 155.842 84.3613 155.331C83.9512 154.82 83.7412 154.088 83.7314 153.134V151.825C83.7314 150.832 83.9365 150.079 84.3467 149.564C84.7601 149.05 85.3542 148.793 86.1289 148.793C86.9036 148.793 87.4961 149.049 87.9062 149.56C88.3164 150.067 88.5264 150.798 88.5361 151.752V153.061ZM87.125 151.625C87.125 151.036 87.0436 150.608 86.8809 150.341C86.7214 150.071 86.4707 149.936 86.1289 149.936C85.7969 149.936 85.5511 150.064 85.3916 150.321C85.2354 150.575 85.1523 150.974 85.1426 151.518V153.246C85.1426 153.826 85.2207 154.257 85.377 154.54C85.5365 154.82 85.7904 154.96 86.1387 154.96C86.4837 154.96 86.7327 154.825 86.8857 154.555C87.0387 154.285 87.1185 153.871 87.125 153.314V151.625ZM94.2783 153.061C94.2783 154.044 94.0749 154.796 93.668 155.316C93.2611 155.837 92.6654 156.098 91.8809 156.098C91.1061 156.098 90.5137 155.842 90.1035 155.331C89.6934 154.82 89.4834 154.088 89.4736 153.134V151.825C89.4736 150.832 89.6787 150.079 90.0889 149.564C90.5023 149.05 91.0964 148.793 91.8711 148.793C92.6458 148.793 93.2383 149.049 93.6484 149.56C94.0586 150.067 94.2686 150.798 94.2783 151.752V153.061ZM92.8672 151.625C92.8672 151.036 92.7858 150.608 92.623 150.341C92.4635 150.071 92.2129 149.936 91.8711 149.936C91.5391 149.936 91.2933 150.064 91.1338 150.321C90.9775 150.575 90.8945 150.974 90.8848 151.518V153.246C90.8848 153.826 90.9629 154.257 91.1191 154.54C91.2786 154.82 91.5326 154.96 91.8809 154.96C92.2259 154.96 92.4749 154.825 92.6279 154.555C92.7809 154.285 92.8607 153.871 92.8672 153.314V151.625ZM100.05 153.407C100.05 154.221 99.8643 154.874 99.4932 155.365C99.1253 155.854 98.6273 156.098 97.999 156.098C97.4652 156.098 97.0339 155.912 96.7051 155.541V158.031H95.2939V150.717H96.6025L96.6514 151.234C96.9932 150.824 97.4391 150.619 97.9893 150.619C98.6403 150.619 99.1465 150.86 99.5078 151.342C99.8691 151.824 100.05 152.488 100.05 153.334V153.407ZM98.6387 153.305C98.6387 152.813 98.5508 152.434 98.375 152.167C98.2025 151.9 97.9502 151.767 97.6182 151.767C97.1755 151.767 96.8711 151.936 96.7051 152.274V154.438C96.8776 154.786 97.1852 154.96 97.6279 154.96C98.3018 154.96 98.6387 154.408 98.6387 153.305ZM102.862 152.294L103.751 150.717H105.26L103.756 153.305L105.323 156H103.81L102.867 154.34L101.93 156H100.411L101.979 153.305L100.479 150.717H101.993L102.862 152.294ZM108.37 153.222C108.37 153.957 108.264 154.665 108.053 155.346C107.841 156.026 107.537 156.627 107.14 157.147C106.743 157.668 106.318 158.026 105.865 158.222L105.592 157.475C106.054 157.126 106.419 156.589 106.686 155.863C106.952 155.137 107.091 154.302 107.101 153.358V153.1C107.101 152.126 106.967 151.269 106.7 150.526C106.437 149.784 106.067 149.228 105.592 148.856L105.865 148.109C106.308 148.301 106.725 148.65 107.115 149.154C107.509 149.659 107.813 150.246 108.028 150.917C108.246 151.588 108.36 152.283 108.37 153.002V153.222Z" fill="white"/>
<path d="M501.696 147.247C501.696 146.094 501.954 145.176 502.469 144.492C502.988 143.809 503.697 143.467 504.595 143.467C505.315 143.467 505.91 143.736 506.379 144.273V140.5H508.361V151H506.577L506.481 150.214C505.989 150.829 505.356 151.137 504.581 151.137C503.711 151.137 503.011 150.795 502.482 150.111C501.958 149.423 501.696 148.468 501.696 147.247ZM503.672 147.391C503.672 148.083 503.793 148.614 504.034 148.983C504.276 149.353 504.627 149.537 505.087 149.537C505.698 149.537 506.128 149.28 506.379 148.765V145.846C506.133 145.331 505.707 145.073 505.101 145.073C504.148 145.073 503.672 145.846 503.672 147.391ZM511.978 151H509.995V143.604H511.978V151ZM509.879 141.689C509.879 141.393 509.977 141.149 510.173 140.958C510.373 140.767 510.645 140.671 510.986 140.671C511.324 140.671 511.592 140.767 511.793 140.958C511.993 141.149 512.094 141.393 512.094 141.689C512.094 141.99 511.991 142.236 511.786 142.428C511.586 142.619 511.319 142.715 510.986 142.715C510.654 142.715 510.385 142.619 510.18 142.428C509.979 142.236 509.879 141.99 509.879 141.689ZM516.38 148.587L517.754 143.604H519.818L517.323 151H515.437L512.941 143.604H515.006L516.38 148.587ZM519.647 150.029C519.647 149.715 519.752 149.46 519.962 149.264C520.176 149.068 520.443 148.97 520.762 148.97C521.085 148.97 521.352 149.068 521.562 149.264C521.776 149.46 521.883 149.715 521.883 150.029C521.883 150.339 521.778 150.592 521.568 150.788C521.359 150.979 521.09 151.075 520.762 151.075C520.438 151.075 520.172 150.979 519.962 150.788C519.752 150.592 519.647 150.339 519.647 150.029ZM527.625 148.956C527.625 148.715 527.504 148.525 527.263 148.389C527.026 148.247 526.643 148.122 526.114 148.013C524.355 147.644 523.476 146.896 523.476 145.771C523.476 145.114 523.747 144.567 524.289 144.13C524.836 143.688 525.549 143.467 526.429 143.467C527.368 143.467 528.117 143.688 528.678 144.13C529.243 144.572 529.525 145.146 529.525 145.853H527.55C527.55 145.57 527.459 145.338 527.276 145.155C527.094 144.968 526.809 144.875 526.422 144.875C526.089 144.875 525.832 144.95 525.649 145.101C525.467 145.251 525.376 145.442 525.376 145.675C525.376 145.894 525.479 146.071 525.684 146.208C525.893 146.34 526.244 146.456 526.736 146.557C527.229 146.652 527.643 146.762 527.98 146.885C529.024 147.268 529.546 147.931 529.546 148.874C529.546 149.549 529.257 150.095 528.678 150.515C528.099 150.929 527.352 151.137 526.436 151.137C525.816 151.137 525.264 151.027 524.781 150.809C524.303 150.585 523.927 150.282 523.653 149.899C523.38 149.512 523.243 149.095 523.243 148.648H525.116C525.134 148.999 525.264 149.268 525.506 149.455C525.747 149.642 526.071 149.735 526.477 149.735C526.855 149.735 527.14 149.665 527.331 149.523C527.527 149.378 527.625 149.188 527.625 148.956ZM532.909 151H530.927V143.604H532.909V151ZM530.811 141.689C530.811 141.393 530.909 141.149 531.104 140.958C531.305 140.767 531.576 140.671 531.918 140.671C532.255 140.671 532.524 140.767 532.725 140.958C532.925 141.149 533.025 141.393 533.025 141.689C533.025 141.99 532.923 142.236 532.718 142.428C532.517 142.619 532.251 142.715 531.918 142.715C531.585 142.715 531.316 142.619 531.111 142.428C530.911 142.236 530.811 141.99 530.811 141.689ZM534.235 147.247C534.235 146.094 534.493 145.176 535.008 144.492C535.527 143.809 536.236 143.467 537.134 143.467C537.854 143.467 538.449 143.736 538.918 144.273V140.5H540.9V151H539.116L539.021 150.214C538.528 150.829 537.895 151.137 537.12 151.137C536.25 151.137 535.55 150.795 535.021 150.111C534.497 149.423 534.235 148.468 534.235 147.247ZM536.211 147.391C536.211 148.083 536.332 148.614 536.573 148.983C536.815 149.353 537.166 149.537 537.626 149.537C538.237 149.537 538.667 149.28 538.918 148.765V145.846C538.672 145.331 538.246 145.073 537.64 145.073C536.687 145.073 536.211 145.846 536.211 147.391ZM545.836 151.137C544.751 151.137 543.867 150.804 543.184 150.139C542.505 149.473 542.165 148.587 542.165 147.479V147.288C542.165 146.545 542.309 145.882 542.596 145.299C542.883 144.711 543.288 144.26 543.812 143.945C544.341 143.626 544.943 143.467 545.617 143.467C546.629 143.467 547.424 143.786 548.003 144.424C548.586 145.062 548.878 145.966 548.878 147.138V147.944H544.168C544.232 148.427 544.423 148.815 544.742 149.106C545.066 149.398 545.474 149.544 545.966 149.544C546.727 149.544 547.322 149.268 547.75 148.717L548.721 149.804C548.424 150.223 548.023 150.551 547.518 150.788C547.012 151.021 546.451 151.137 545.836 151.137ZM545.61 145.066C545.218 145.066 544.899 145.199 544.653 145.463C544.412 145.727 544.257 146.105 544.188 146.598H546.937V146.44C546.927 146.003 546.809 145.666 546.581 145.429C546.353 145.187 546.03 145.066 545.61 145.066ZM556.671 147.37C556.671 148.555 556.418 149.48 555.912 150.146C555.406 150.806 554.7 151.137 553.793 151.137C552.991 151.137 552.351 150.829 551.872 150.214L551.783 151H550.006V140.5H551.981V144.267C552.437 143.733 553.036 143.467 553.779 143.467C554.682 143.467 555.388 143.799 555.898 144.465C556.413 145.126 556.671 146.058 556.671 147.261V147.37ZM554.695 147.227C554.695 146.479 554.577 145.935 554.34 145.593C554.103 145.246 553.75 145.073 553.28 145.073C552.651 145.073 552.218 145.331 551.981 145.846V148.765C552.223 149.284 552.66 149.544 553.294 149.544C553.932 149.544 554.351 149.229 554.552 148.601C554.647 148.3 554.695 147.842 554.695 147.227ZM562.181 151C562.09 150.822 562.023 150.601 561.982 150.337C561.504 150.87 560.882 151.137 560.116 151.137C559.392 151.137 558.79 150.927 558.312 150.508C557.838 150.089 557.601 149.56 557.601 148.922C557.601 148.138 557.89 147.536 558.469 147.117C559.052 146.698 559.893 146.486 560.991 146.481H561.9V146.058C561.9 145.716 561.812 145.442 561.634 145.237C561.461 145.032 561.185 144.93 560.807 144.93C560.474 144.93 560.212 145.009 560.021 145.169C559.834 145.328 559.74 145.547 559.74 145.825H557.765C557.765 145.397 557.897 145 558.161 144.636C558.425 144.271 558.799 143.986 559.282 143.781C559.765 143.572 560.308 143.467 560.909 143.467C561.821 143.467 562.543 143.697 563.076 144.157C563.614 144.613 563.883 145.256 563.883 146.085V149.291C563.887 149.993 563.985 150.524 564.177 150.884V151H562.181ZM560.547 149.626C560.839 149.626 561.107 149.562 561.354 149.435C561.6 149.302 561.782 149.127 561.9 148.908V147.637H561.162C560.173 147.637 559.647 147.979 559.583 148.662L559.576 148.778C559.576 149.024 559.663 149.227 559.836 149.387C560.009 149.546 560.246 149.626 560.547 149.626ZM569.557 145.456C569.288 145.42 569.051 145.401 568.846 145.401C568.098 145.401 567.608 145.654 567.376 146.16V151H565.4V143.604H567.267L567.321 144.485C567.718 143.806 568.267 143.467 568.969 143.467C569.188 143.467 569.393 143.496 569.584 143.556L569.557 145.456ZM503.684 160.109C503.684 159.364 503.783 158.654 503.981 157.98C504.18 157.307 504.473 156.711 504.86 156.193C505.248 155.673 505.668 155.311 506.12 155.109L506.394 155.871C505.918 156.223 505.547 156.766 505.28 157.502C505.013 158.238 504.88 159.097 504.88 160.08V160.231C504.88 161.218 505.012 162.08 505.275 162.819C505.539 163.558 505.912 164.11 506.394 164.475L506.12 165.222C505.677 165.023 505.264 164.672 504.88 164.167C504.499 163.666 504.208 163.086 504.006 162.429C503.804 161.771 503.697 161.084 503.684 160.368V160.109ZM511.73 161.081L512.424 157.717H513.786L512.438 163H511.257L510.256 159.675L509.255 163H508.078L506.73 157.717H508.093L508.781 161.076L509.748 157.717H510.769L511.73 161.081ZM515.979 163H514.562V157.717H515.979V163ZM514.479 156.35C514.479 156.138 514.549 155.964 514.689 155.827C514.833 155.69 515.026 155.622 515.271 155.622C515.511 155.622 515.703 155.69 515.847 155.827C515.99 155.964 516.062 156.138 516.062 156.35C516.062 156.564 515.988 156.74 515.842 156.877C515.699 157.014 515.508 157.082 515.271 157.082C515.033 157.082 514.841 157.014 514.694 156.877C514.551 156.74 514.479 156.564 514.479 156.35ZM516.926 160.319C516.926 159.496 517.11 158.84 517.478 158.352C517.849 157.863 518.355 157.619 518.996 157.619C519.51 157.619 519.935 157.811 520.271 158.195V155.5H521.687V163H520.412L520.344 162.438C519.992 162.878 519.54 163.098 518.986 163.098C518.365 163.098 517.865 162.854 517.487 162.365C517.113 161.874 516.926 161.192 516.926 160.319ZM518.337 160.422C518.337 160.917 518.423 161.296 518.596 161.56C518.768 161.823 519.019 161.955 519.348 161.955C519.784 161.955 520.091 161.771 520.271 161.403V159.318C520.095 158.951 519.79 158.767 519.357 158.767C518.677 158.767 518.337 159.318 518.337 160.422ZM524.47 156.418V157.717H525.373V158.752H524.47V161.389C524.47 161.584 524.507 161.724 524.582 161.809C524.657 161.893 524.8 161.936 525.012 161.936C525.168 161.936 525.306 161.924 525.427 161.901V162.971C525.15 163.055 524.865 163.098 524.572 163.098C523.583 163.098 523.078 162.598 523.059 161.599V158.752H522.287V157.717H523.059V156.418H524.47ZM527.536 158.293C527.91 157.844 528.381 157.619 528.947 157.619C530.093 157.619 530.674 158.285 530.69 159.616V163H529.279V159.655C529.279 159.353 529.214 159.13 529.084 158.986C528.954 158.84 528.737 158.767 528.435 158.767C528.021 158.767 527.722 158.926 527.536 159.245V163H526.125V155.5H527.536V158.293ZM531.823 162.307C531.823 162.082 531.898 161.9 532.048 161.76C532.201 161.62 532.391 161.55 532.619 161.55C532.85 161.55 533.041 161.62 533.19 161.76C533.343 161.9 533.42 162.082 533.42 162.307C533.42 162.528 533.345 162.709 533.195 162.849C533.046 162.985 532.854 163.054 532.619 163.054C532.388 163.054 532.198 162.985 532.048 162.849C531.898 162.709 531.823 162.528 531.823 162.307ZM531.823 158.308C531.823 158.083 531.898 157.901 532.048 157.761C532.201 157.621 532.391 157.551 532.619 157.551C532.85 157.551 533.041 157.621 533.19 157.761C533.343 157.901 533.42 158.083 533.42 158.308C533.42 158.529 533.345 158.71 533.195 158.85C533.046 158.986 532.854 159.055 532.619 159.055C532.388 159.055 532.198 158.986 532.048 158.85C531.898 158.71 531.823 158.529 531.823 158.308ZM541.882 163H537.009V162.033L539.309 159.582C539.624 159.237 539.857 158.936 540.007 158.679C540.16 158.422 540.236 158.177 540.236 157.946C540.236 157.631 540.157 157.383 539.997 157.204C539.838 157.022 539.61 156.931 539.313 156.931C538.994 156.931 538.742 157.041 538.557 157.263C538.374 157.481 538.283 157.769 538.283 158.127H536.867C536.867 157.694 536.97 157.299 537.175 156.94C537.383 156.582 537.676 156.302 538.054 156.101C538.431 155.896 538.859 155.793 539.338 155.793C540.07 155.793 540.638 155.969 541.042 156.32C541.449 156.672 541.652 157.168 541.652 157.81C541.652 158.161 541.561 158.519 541.379 158.884C541.197 159.248 540.884 159.673 540.441 160.158L538.825 161.862H541.882V163ZM547.536 160.061C547.536 161.044 547.333 161.796 546.926 162.316C546.519 162.837 545.923 163.098 545.139 163.098C544.364 163.098 543.771 162.842 543.361 162.331C542.951 161.82 542.741 161.088 542.731 160.134V158.825C542.731 157.832 542.937 157.079 543.347 156.564C543.76 156.05 544.354 155.793 545.129 155.793C545.904 155.793 546.496 156.049 546.906 156.56C547.316 157.067 547.526 157.798 547.536 158.752V160.061ZM546.125 158.625C546.125 158.036 546.044 157.608 545.881 157.341C545.721 157.071 545.471 156.936 545.129 156.936C544.797 156.936 544.551 157.064 544.392 157.321C544.235 157.575 544.152 157.974 544.143 158.518V160.246C544.143 160.826 544.221 161.257 544.377 161.54C544.536 161.82 544.79 161.96 545.139 161.96C545.484 161.96 545.733 161.825 545.886 161.555C546.039 161.285 546.118 160.871 546.125 160.314V158.625ZM553.278 160.061C553.278 161.044 553.075 161.796 552.668 162.316C552.261 162.837 551.665 163.098 550.881 163.098C550.106 163.098 549.514 162.842 549.104 162.331C548.693 161.82 548.483 161.088 548.474 160.134V158.825C548.474 157.832 548.679 157.079 549.089 156.564C549.502 156.05 550.096 155.793 550.871 155.793C551.646 155.793 552.238 156.049 552.648 156.56C553.059 157.067 553.269 157.798 553.278 158.752V160.061ZM551.867 158.625C551.867 158.036 551.786 157.608 551.623 157.341C551.464 157.071 551.213 156.936 550.871 156.936C550.539 156.936 550.293 157.064 550.134 157.321C549.978 157.575 549.895 157.974 549.885 158.518V160.246C549.885 160.826 549.963 161.257 550.119 161.54C550.279 161.82 550.533 161.96 550.881 161.96C551.226 161.96 551.475 161.825 551.628 161.555C551.781 161.285 551.861 160.871 551.867 160.314V158.625ZM559.05 160.407C559.05 161.221 558.864 161.874 558.493 162.365C558.125 162.854 557.627 163.098 556.999 163.098C556.465 163.098 556.034 162.912 555.705 162.541V165.031H554.294V157.717H555.603L555.651 158.234C555.993 157.824 556.439 157.619 556.989 157.619C557.64 157.619 558.146 157.86 558.508 158.342C558.869 158.824 559.05 159.488 559.05 160.334V160.407ZM557.639 160.305C557.639 159.813 557.551 159.434 557.375 159.167C557.202 158.9 556.95 158.767 556.618 158.767C556.175 158.767 555.871 158.936 555.705 159.274V161.438C555.878 161.786 556.185 161.96 556.628 161.96C557.302 161.96 557.639 161.408 557.639 160.305ZM561.862 159.294L562.751 157.717H564.26L562.756 160.305L564.323 163H562.81L561.867 161.34L560.93 163H559.411L560.979 160.305L559.479 157.717H560.993L561.862 159.294ZM567.37 160.222C567.37 160.957 567.264 161.665 567.053 162.346C566.841 163.026 566.537 163.627 566.14 164.147C565.743 164.668 565.318 165.026 564.865 165.222L564.592 164.475C565.054 164.126 565.419 163.589 565.686 162.863C565.952 162.137 566.091 161.302 566.101 160.358V160.1C566.101 159.126 565.967 158.269 565.7 157.526C565.437 156.784 565.067 156.228 564.592 155.856L564.865 155.109C565.308 155.301 565.725 155.65 566.115 156.154C566.509 156.659 566.813 157.246 567.028 157.917C567.246 158.588 567.36 159.283 567.37 160.002V160.222Z" fill="white"/>
<path d="M265.17 143.247C265.17 142.094 265.427 141.176 265.942 140.492C266.462 139.809 267.171 139.467 268.068 139.467C268.788 139.467 269.383 139.736 269.853 140.273V136.5H271.835V147H270.051L269.955 146.214C269.463 146.829 268.829 147.137 268.055 147.137C267.184 147.137 266.485 146.795 265.956 146.111C265.432 145.423 265.17 144.468 265.17 143.247ZM267.146 143.391C267.146 144.083 267.266 144.614 267.508 144.983C267.749 145.353 268.1 145.537 268.561 145.537C269.171 145.537 269.602 145.28 269.853 144.765V141.846C269.606 141.331 269.18 141.073 268.574 141.073C267.622 141.073 267.146 141.846 267.146 143.391ZM275.451 147H273.469V139.604H275.451V147ZM273.353 137.689C273.353 137.393 273.451 137.149 273.646 136.958C273.847 136.767 274.118 136.671 274.46 136.671C274.797 136.671 275.066 136.767 275.267 136.958C275.467 137.149 275.567 137.393 275.567 137.689C275.567 137.99 275.465 138.236 275.26 138.428C275.059 138.619 274.793 138.715 274.46 138.715C274.127 138.715 273.858 138.619 273.653 138.428C273.453 138.236 273.353 137.99 273.353 137.689ZM279.854 144.587L281.228 139.604H283.292L280.797 147H278.91L276.415 139.604H278.479L279.854 144.587ZM283.121 146.029C283.121 145.715 283.226 145.46 283.436 145.264C283.65 145.068 283.916 144.97 284.235 144.97C284.559 144.97 284.826 145.068 285.035 145.264C285.249 145.46 285.356 145.715 285.356 146.029C285.356 146.339 285.252 146.592 285.042 146.788C284.832 146.979 284.563 147.075 284.235 147.075C283.912 147.075 283.645 146.979 283.436 146.788C283.226 146.592 283.121 146.339 283.121 146.029ZM290.169 145.544C290.534 145.544 290.83 145.444 291.058 145.243C291.285 145.043 291.404 144.776 291.413 144.443H293.266C293.261 144.945 293.124 145.405 292.855 145.824C292.587 146.239 292.217 146.562 291.748 146.795C291.283 147.023 290.768 147.137 290.203 147.137C289.146 147.137 288.312 146.802 287.701 146.132C287.09 145.457 286.785 144.528 286.785 143.343V143.213C286.785 142.074 287.088 141.164 287.694 140.485C288.3 139.806 289.132 139.467 290.189 139.467C291.115 139.467 291.855 139.731 292.411 140.26C292.972 140.784 293.257 141.483 293.266 142.358H291.413C291.404 141.976 291.285 141.666 291.058 141.429C290.83 141.187 290.529 141.066 290.155 141.066C289.695 141.066 289.346 141.235 289.109 141.572C288.877 141.905 288.761 142.447 288.761 143.199V143.404C288.761 144.165 288.877 144.712 289.109 145.045C289.342 145.378 289.695 145.544 290.169 145.544ZM294.086 143.233C294.086 142.5 294.227 141.846 294.51 141.271C294.792 140.697 295.198 140.253 295.727 139.938C296.26 139.624 296.877 139.467 297.579 139.467C298.577 139.467 299.391 139.772 300.02 140.383C300.653 140.993 301.006 141.823 301.079 142.871L301.093 143.377C301.093 144.512 300.776 145.423 300.143 146.111C299.509 146.795 298.659 147.137 297.593 147.137C296.526 147.137 295.674 146.795 295.036 146.111C294.403 145.428 294.086 144.498 294.086 143.322V143.233ZM296.062 143.377C296.062 144.079 296.194 144.617 296.458 144.99C296.722 145.359 297.101 145.544 297.593 145.544C298.071 145.544 298.445 145.362 298.714 144.997C298.983 144.628 299.117 144.04 299.117 143.233C299.117 142.545 298.983 142.012 298.714 141.634C298.445 141.256 298.067 141.066 297.579 141.066C297.096 141.066 296.722 141.256 296.458 141.634C296.194 142.007 296.062 142.589 296.062 143.377ZM304.128 139.604L304.189 140.458C304.718 139.797 305.427 139.467 306.315 139.467C307.099 139.467 307.683 139.697 308.065 140.157C308.448 140.618 308.644 141.306 308.653 142.222V147H306.678V142.27C306.678 141.85 306.587 141.547 306.404 141.36C306.222 141.169 305.919 141.073 305.495 141.073C304.939 141.073 304.522 141.31 304.244 141.784V147H302.269V139.604H304.128ZM312.522 137.785V139.604H313.787V141.053H312.522V144.744C312.522 145.018 312.575 145.214 312.68 145.332C312.785 145.451 312.985 145.51 313.281 145.51C313.5 145.51 313.694 145.494 313.862 145.462V146.959C313.475 147.077 313.076 147.137 312.666 147.137C311.281 147.137 310.574 146.437 310.547 145.038V141.053H309.467V139.604H310.547V137.785H312.522ZM318.292 147.137C317.207 147.137 316.323 146.804 315.64 146.139C314.961 145.473 314.621 144.587 314.621 143.479V143.288C314.621 142.545 314.765 141.882 315.052 141.299C315.339 140.711 315.744 140.26 316.269 139.945C316.797 139.626 317.399 139.467 318.073 139.467C319.085 139.467 319.88 139.786 320.459 140.424C321.042 141.062 321.334 141.966 321.334 143.138V143.944H316.624C316.688 144.427 316.879 144.815 317.198 145.106C317.522 145.398 317.93 145.544 318.422 145.544C319.183 145.544 319.778 145.268 320.206 144.717L321.177 145.804C320.881 146.223 320.479 146.551 319.974 146.788C319.468 147.021 318.907 147.137 318.292 147.137ZM318.066 141.066C317.674 141.066 317.355 141.199 317.109 141.463C316.868 141.727 316.713 142.105 316.645 142.598H319.393V142.44C319.383 142.003 319.265 141.666 319.037 141.429C318.809 141.187 318.486 141.066 318.066 141.066ZM324.28 139.604L324.342 140.458C324.87 139.797 325.579 139.467 326.468 139.467C327.252 139.467 327.835 139.697 328.218 140.157C328.601 140.618 328.797 141.306 328.806 142.222V147H326.83V142.27C326.83 141.85 326.739 141.547 326.557 141.36C326.374 141.169 326.071 141.073 325.647 141.073C325.091 141.073 324.674 141.31 324.396 141.784V147H322.421V139.604H324.28ZM332.675 137.785V139.604H333.939V141.053H332.675V144.744C332.675 145.018 332.727 145.214 332.832 145.332C332.937 145.451 333.137 145.51 333.434 145.51C333.652 145.51 333.846 145.494 334.015 145.462V146.959C333.627 147.077 333.229 147.137 332.818 147.137C331.433 147.137 330.727 146.437 330.699 145.038V141.053H329.619V139.604H330.699V137.785H332.675ZM187.076 157.531C187.076 156.637 187.195 155.785 187.434 154.977C187.672 154.168 188.023 153.453 188.488 152.832C188.953 152.207 189.457 151.773 190 151.531L190.328 152.445C189.758 152.867 189.312 153.52 188.992 154.402C188.672 155.285 188.512 156.316 188.512 157.496V157.678C188.512 158.861 188.67 159.896 188.986 160.783C189.303 161.67 189.75 162.332 190.328 162.77L190 163.666C189.469 163.428 188.973 163.006 188.512 162.4C188.055 161.799 187.705 161.104 187.463 160.314C187.221 159.525 187.092 158.701 187.076 157.842V157.531ZM196.732 158.697L197.564 154.66H199.199L197.582 161H196.164L194.963 157.01L193.762 161H192.35L190.732 154.66H192.367L193.193 158.691L194.354 154.66H195.578L196.732 158.697ZM201.83 161H200.131V154.66H201.83V161ZM200.031 153.02C200.031 152.766 200.115 152.557 200.283 152.393C200.455 152.229 200.688 152.146 200.98 152.146C201.27 152.146 201.5 152.229 201.672 152.393C201.844 152.557 201.93 152.766 201.93 153.02C201.93 153.277 201.842 153.488 201.666 153.652C201.494 153.816 201.266 153.898 200.98 153.898C200.695 153.898 200.465 153.816 200.289 153.652C200.117 153.488 200.031 153.277 200.031 153.02ZM202.967 157.783C202.967 156.795 203.188 156.008 203.629 155.422C204.074 154.836 204.682 154.543 205.451 154.543C206.068 154.543 206.578 154.773 206.98 155.234V152H208.68V161H207.15L207.068 160.326C206.646 160.854 206.104 161.117 205.439 161.117C204.693 161.117 204.094 160.824 203.641 160.238C203.191 159.648 202.967 158.83 202.967 157.783ZM204.66 157.906C204.66 158.5 204.764 158.955 204.971 159.271C205.178 159.588 205.479 159.746 205.873 159.746C206.396 159.746 206.766 159.525 206.98 159.084V156.582C206.77 156.141 206.404 155.92 205.885 155.92C205.068 155.92 204.66 156.582 204.66 157.906ZM212.02 153.102V154.66H213.104V155.902H212.02V159.066C212.02 159.301 212.064 159.469 212.154 159.57C212.244 159.672 212.416 159.723 212.67 159.723C212.857 159.723 213.023 159.709 213.168 159.682V160.965C212.836 161.066 212.494 161.117 212.143 161.117C210.955 161.117 210.35 160.518 210.326 159.318V155.902H209.4V154.66H210.326V153.102H212.02ZM215.699 155.352C216.148 154.812 216.713 154.543 217.393 154.543C218.768 154.543 219.465 155.342 219.484 156.939V161H217.791V156.986C217.791 156.623 217.713 156.355 217.557 156.184C217.4 156.008 217.141 155.92 216.777 155.92C216.281 155.92 215.922 156.111 215.699 156.494V161H214.006V152H215.699V155.352ZM220.844 160.168C220.844 159.898 220.934 159.68 221.113 159.512C221.297 159.344 221.525 159.26 221.799 159.26C222.076 159.26 222.305 159.344 222.484 159.512C222.668 159.68 222.76 159.898 222.76 160.168C222.76 160.434 222.67 160.65 222.49 160.818C222.311 160.982 222.08 161.064 221.799 161.064C221.521 161.064 221.293 160.982 221.113 160.818C220.934 160.65 220.844 160.434 220.844 160.168ZM220.844 155.369C220.844 155.1 220.934 154.881 221.113 154.713C221.297 154.545 221.525 154.461 221.799 154.461C222.076 154.461 222.305 154.545 222.484 154.713C222.668 154.881 222.76 155.1 222.76 155.369C222.76 155.635 222.67 155.852 222.49 156.02C222.311 156.184 222.08 156.266 221.799 156.266C221.521 156.266 221.293 156.184 221.113 156.02C220.934 155.852 220.844 155.635 220.844 155.369ZM231.18 161H229.486V154.473L227.465 155.1V153.723L230.998 152.457H231.18V161ZM239.699 157.473C239.699 158.652 239.455 159.555 238.967 160.18C238.479 160.805 237.764 161.117 236.822 161.117C235.893 161.117 235.182 160.811 234.689 160.197C234.197 159.584 233.945 158.705 233.934 157.561V155.99C233.934 154.799 234.18 153.895 234.672 153.277C235.168 152.66 235.881 152.352 236.811 152.352C237.74 152.352 238.451 152.658 238.943 153.271C239.436 153.881 239.688 154.758 239.699 155.902V157.473ZM238.006 155.75C238.006 155.043 237.908 154.529 237.713 154.209C237.521 153.885 237.221 153.723 236.811 153.723C236.412 153.723 236.117 153.877 235.926 154.186C235.738 154.49 235.639 154.969 235.627 155.621V157.695C235.627 158.391 235.721 158.908 235.908 159.248C236.1 159.584 236.404 159.752 236.822 159.752C237.236 159.752 237.535 159.59 237.719 159.266C237.902 158.941 237.998 158.445 238.006 157.777V155.75ZM246.59 157.473C246.59 158.652 246.346 159.555 245.857 160.18C245.369 160.805 244.654 161.117 243.713 161.117C242.783 161.117 242.072 160.811 241.58 160.197C241.088 159.584 240.836 158.705 240.824 157.561V155.99C240.824 154.799 241.07 153.895 241.562 153.277C242.059 152.66 242.771 152.352 243.701 152.352C244.631 152.352 245.342 152.658 245.834 153.271C246.326 153.881 246.578 154.758 246.59 155.902V157.473ZM244.896 155.75C244.896 155.043 244.799 154.529 244.604 154.209C244.412 153.885 244.111 153.723 243.701 153.723C243.303 153.723 243.008 153.877 242.816 154.186C242.629 154.49 242.529 154.969 242.518 155.621V157.695C242.518 158.391 242.611 158.908 242.799 159.248C242.99 159.584 243.295 159.752 243.713 159.752C244.127 159.752 244.426 159.59 244.609 159.266C244.793 158.941 244.889 158.445 244.896 157.777V155.75ZM247.715 154.109C247.715 153.586 247.885 153.162 248.225 152.838C248.564 152.51 249.01 152.346 249.561 152.346C250.119 152.346 250.568 152.508 250.908 152.832C251.248 153.152 251.418 153.588 251.418 154.139V154.561C251.418 155.088 251.248 155.512 250.908 155.832C250.568 156.152 250.123 156.312 249.572 156.312C249.018 156.312 248.568 156.152 248.225 155.832C247.885 155.508 247.715 155.072 247.715 154.525V154.109ZM248.84 154.561C248.84 154.795 248.906 154.984 249.039 155.129C249.176 155.27 249.354 155.34 249.572 155.34C249.791 155.34 249.965 155.268 250.094 155.123C250.223 154.979 250.287 154.785 250.287 154.543V154.109C250.287 153.875 250.223 153.686 250.094 153.541C249.965 153.396 249.787 153.324 249.561 153.324C249.346 153.324 249.172 153.396 249.039 153.541C248.906 153.682 248.84 153.879 248.84 154.133V154.561ZM251.793 158.908C251.793 158.381 251.965 157.957 252.309 157.637C252.652 157.312 253.098 157.15 253.645 157.15C254.199 157.15 254.646 157.311 254.986 157.631C255.33 157.947 255.502 158.385 255.502 158.943V159.365C255.502 159.889 255.334 160.312 254.998 160.637C254.662 160.957 254.215 161.117 253.656 161.117C253.094 161.117 252.643 160.955 252.303 160.631C251.963 160.307 251.793 159.877 251.793 159.342V158.908ZM252.918 159.365C252.918 159.58 252.988 159.764 253.129 159.916C253.27 160.068 253.445 160.145 253.656 160.145C254.133 160.145 254.371 159.881 254.371 159.354V158.908C254.371 158.674 254.305 158.486 254.172 158.346C254.039 158.201 253.863 158.129 253.645 158.129C253.426 158.129 253.25 158.201 253.117 158.346C252.984 158.486 252.918 158.68 252.918 158.926V159.365ZM249.906 160.361L249.08 159.916L253.246 153.248L254.072 153.693L249.906 160.361ZM261.244 154.66L261.297 155.369C261.746 154.818 262.354 154.543 263.119 154.543C263.936 154.543 264.496 154.865 264.801 155.51C265.246 154.865 265.881 154.543 266.705 154.543C267.393 154.543 267.904 154.744 268.24 155.146C268.576 155.545 268.744 156.146 268.744 156.951V161H267.045V156.957C267.045 156.598 266.975 156.336 266.834 156.172C266.693 156.004 266.445 155.92 266.09 155.92C265.582 155.92 265.23 156.162 265.035 156.646L265.041 161H263.348V156.963C263.348 156.596 263.275 156.33 263.131 156.166C262.986 156.002 262.74 155.92 262.393 155.92C261.912 155.92 261.564 156.119 261.35 156.518V161H259.656V154.66H261.244ZM271.838 161H270.139V154.66H271.838V161ZM270.039 153.02C270.039 152.766 270.123 152.557 270.291 152.393C270.463 152.229 270.695 152.146 270.988 152.146C271.277 152.146 271.508 152.229 271.68 152.393C271.852 152.557 271.938 152.766 271.938 153.02C271.938 153.277 271.85 153.488 271.674 153.652C271.502 153.816 271.273 153.898 270.988 153.898C270.703 153.898 270.473 153.816 270.297 153.652C270.125 153.488 270.039 153.277 270.039 153.02ZM274.797 154.66L274.85 155.393C275.303 154.826 275.91 154.543 276.672 154.543C277.344 154.543 277.844 154.74 278.172 155.135C278.5 155.529 278.668 156.119 278.676 156.904V161H276.982V156.945C276.982 156.586 276.904 156.326 276.748 156.166C276.592 156.002 276.332 155.92 275.969 155.92C275.492 155.92 275.135 156.123 274.896 156.529V161H273.203V154.66H274.797ZM283.762 160.355C283.344 160.863 282.766 161.117 282.027 161.117C281.348 161.117 280.828 160.922 280.469 160.531C280.113 160.141 279.932 159.568 279.924 158.814V154.66H281.617V158.756C281.617 159.416 281.918 159.746 282.52 159.746C283.094 159.746 283.488 159.547 283.703 159.148V154.66H285.402V161H283.809L283.762 160.355ZM290.113 159.248C290.113 159.041 290.01 158.879 289.803 158.762C289.6 158.641 289.271 158.533 288.818 158.439C287.311 158.123 286.557 157.482 286.557 156.518C286.557 155.955 286.789 155.486 287.254 155.111C287.723 154.732 288.334 154.543 289.088 154.543C289.893 154.543 290.535 154.732 291.016 155.111C291.5 155.49 291.742 155.982 291.742 156.588H290.049C290.049 156.346 289.971 156.146 289.814 155.99C289.658 155.83 289.414 155.75 289.082 155.75C288.797 155.75 288.576 155.814 288.42 155.943C288.264 156.072 288.186 156.236 288.186 156.436C288.186 156.623 288.273 156.775 288.449 156.893C288.629 157.006 288.93 157.105 289.352 157.191C289.773 157.273 290.129 157.367 290.418 157.473C291.312 157.801 291.76 158.369 291.76 159.178C291.76 159.756 291.512 160.225 291.016 160.584C290.52 160.939 289.879 161.117 289.094 161.117C288.562 161.117 288.09 161.023 287.676 160.836C287.266 160.645 286.943 160.385 286.709 160.057C286.475 159.725 286.357 159.367 286.357 158.984H287.963C287.979 159.285 288.09 159.516 288.297 159.676C288.504 159.836 288.781 159.916 289.129 159.916C289.453 159.916 289.697 159.855 289.861 159.734C290.029 159.609 290.113 159.447 290.113 159.248ZM301.357 158.697L302.189 154.66H303.824L302.207 161H300.789L299.588 157.01L298.387 161H296.975L295.357 154.66H296.992L297.818 158.691L298.979 154.66H300.203L301.357 158.697ZM306.455 161H304.756V154.66H306.455V161ZM304.656 153.02C304.656 152.766 304.74 152.557 304.908 152.393C305.08 152.229 305.312 152.146 305.605 152.146C305.895 152.146 306.125 152.229 306.297 152.393C306.469 152.557 306.555 152.766 306.555 153.02C306.555 153.277 306.467 153.488 306.291 153.652C306.119 153.816 305.891 153.898 305.605 153.898C305.32 153.898 305.09 153.816 304.914 153.652C304.742 153.488 304.656 153.277 304.656 153.02ZM307.592 157.783C307.592 156.795 307.812 156.008 308.254 155.422C308.699 154.836 309.307 154.543 310.076 154.543C310.693 154.543 311.203 154.773 311.605 155.234V152H313.305V161H311.775L311.693 160.326C311.271 160.854 310.729 161.117 310.064 161.117C309.318 161.117 308.719 160.824 308.266 160.238C307.816 159.648 307.592 158.83 307.592 157.783ZM309.285 157.906C309.285 158.5 309.389 158.955 309.596 159.271C309.803 159.588 310.104 159.746 310.498 159.746C311.021 159.746 311.391 159.525 311.605 159.084V156.582C311.395 156.141 311.029 155.92 310.51 155.92C309.693 155.92 309.285 156.582 309.285 157.906ZM316.645 153.102V154.66H317.729V155.902H316.645V159.066C316.645 159.301 316.689 159.469 316.779 159.57C316.869 159.672 317.041 159.723 317.295 159.723C317.482 159.723 317.648 159.709 317.793 159.682V160.965C317.461 161.066 317.119 161.117 316.768 161.117C315.58 161.117 314.975 160.518 314.951 159.318V155.902H314.025V154.66H314.951V153.102H316.645ZM320.324 155.352C320.773 154.812 321.338 154.543 322.018 154.543C323.393 154.543 324.09 155.342 324.109 156.939V161H322.416V156.986C322.416 156.623 322.338 156.355 322.182 156.184C322.025 156.008 321.766 155.92 321.402 155.92C320.906 155.92 320.547 156.111 320.324 156.494V161H318.631V152H320.324V155.352ZM328.111 157.771C328.111 157.143 328.232 156.582 328.475 156.09C328.717 155.598 329.064 155.217 329.518 154.947C329.975 154.678 330.504 154.543 331.105 154.543C331.961 154.543 332.658 154.805 333.197 155.328C333.74 155.852 334.043 156.562 334.105 157.461L334.117 157.895C334.117 158.867 333.846 159.648 333.303 160.238C332.76 160.824 332.031 161.117 331.117 161.117C330.203 161.117 329.473 160.824 328.926 160.238C328.383 159.652 328.111 158.855 328.111 157.848V157.771ZM329.805 157.895C329.805 158.496 329.918 158.957 330.145 159.277C330.371 159.594 330.695 159.752 331.117 159.752C331.527 159.752 331.848 159.596 332.078 159.283C332.309 158.967 332.424 158.463 332.424 157.771C332.424 157.182 332.309 156.725 332.078 156.4C331.848 156.076 331.523 155.914 331.105 155.914C330.691 155.914 330.371 156.076 330.145 156.4C329.918 156.721 329.805 157.219 329.805 157.895ZM335.623 161V155.902H334.68V154.66H335.623V154.121C335.623 153.41 335.826 152.859 336.232 152.469C336.643 152.074 337.215 151.877 337.949 151.877C338.184 151.877 338.471 151.916 338.811 151.994L338.793 153.307C338.652 153.271 338.48 153.254 338.277 153.254C337.641 153.254 337.322 153.553 337.322 154.15V154.66H338.582V155.902H337.322V161H335.623ZM344.477 153.102V154.66H345.561V155.902H344.477V159.066C344.477 159.301 344.521 159.469 344.611 159.57C344.701 159.672 344.873 159.723 345.127 159.723C345.314 159.723 345.48 159.709 345.625 159.682V160.965C345.293 161.066 344.951 161.117 344.6 161.117C343.412 161.117 342.807 160.518 342.783 159.318V155.902H341.857V154.66H342.783V153.102H344.477ZM348.156 155.352C348.605 154.812 349.17 154.543 349.85 154.543C351.225 154.543 351.922 155.342 351.941 156.939V161H350.248V156.986C350.248 156.623 350.17 156.355 350.014 156.184C349.857 156.008 349.598 155.92 349.234 155.92C348.738 155.92 348.379 156.111 348.156 156.494V161H346.463V152H348.156V155.352ZM356.137 161.117C355.207 161.117 354.449 160.832 353.863 160.262C353.281 159.691 352.99 158.932 352.99 157.982V157.818C352.99 157.182 353.113 156.613 353.359 156.113C353.605 155.609 353.953 155.223 354.402 154.953C354.855 154.68 355.371 154.543 355.949 154.543C356.816 154.543 357.498 154.816 357.994 155.363C358.494 155.91 358.744 156.686 358.744 157.689V158.381H354.707C354.762 158.795 354.926 159.127 355.199 159.377C355.477 159.627 355.826 159.752 356.248 159.752C356.9 159.752 357.41 159.516 357.777 159.043L358.609 159.975C358.355 160.334 358.012 160.615 357.578 160.818C357.145 161.018 356.664 161.117 356.137 161.117ZM355.943 155.914C355.607 155.914 355.334 156.027 355.123 156.254C354.916 156.48 354.783 156.805 354.725 157.227H357.08V157.092C357.072 156.717 356.971 156.428 356.775 156.225C356.58 156.018 356.303 155.914 355.943 155.914ZM366.133 159.248C366.133 159.041 366.029 158.879 365.822 158.762C365.619 158.641 365.291 158.533 364.838 158.439C363.33 158.123 362.576 157.482 362.576 156.518C362.576 155.955 362.809 155.486 363.273 155.111C363.742 154.732 364.354 154.543 365.107 154.543C365.912 154.543 366.555 154.732 367.035 155.111C367.52 155.49 367.762 155.982 367.762 156.588H366.068C366.068 156.346 365.99 156.146 365.834 155.99C365.678 155.83 365.434 155.75 365.102 155.75C364.816 155.75 364.596 155.814 364.439 155.943C364.283 156.072 364.205 156.236 364.205 156.436C364.205 156.623 364.293 156.775 364.469 156.893C364.648 157.006 364.949 157.105 365.371 157.191C365.793 157.273 366.148 157.367 366.438 157.473C367.332 157.801 367.779 158.369 367.779 159.178C367.779 159.756 367.531 160.225 367.035 160.584C366.539 160.939 365.898 161.117 365.113 161.117C364.582 161.117 364.109 161.023 363.695 160.836C363.285 160.645 362.963 160.385 362.729 160.057C362.494 159.725 362.377 159.367 362.377 158.984H363.982C363.998 159.285 364.109 159.516 364.316 159.676C364.523 159.836 364.801 159.916 365.148 159.916C365.473 159.916 365.717 159.855 365.881 159.734C366.049 159.609 366.133 159.447 366.133 159.248ZM370.662 161H368.963V154.66H370.662V161ZM368.863 153.02C368.863 152.766 368.947 152.557 369.115 152.393C369.287 152.229 369.52 152.146 369.812 152.146C370.102 152.146 370.332 152.229 370.504 152.393C370.676 152.557 370.762 152.766 370.762 153.02C370.762 153.277 370.674 153.488 370.498 153.652C370.326 153.816 370.098 153.898 369.812 153.898C369.527 153.898 369.297 153.816 369.121 153.652C368.949 153.488 368.863 153.277 368.863 153.02ZM371.799 157.783C371.799 156.795 372.02 156.008 372.461 155.422C372.906 154.836 373.514 154.543 374.283 154.543C374.9 154.543 375.41 154.773 375.812 155.234V152H377.512V161H375.982L375.9 160.326C375.479 160.854 374.936 161.117 374.271 161.117C373.525 161.117 372.926 160.824 372.473 160.238C372.023 159.648 371.799 158.83 371.799 157.783ZM373.492 157.906C373.492 158.5 373.596 158.955 373.803 159.271C374.01 159.588 374.311 159.746 374.705 159.746C375.229 159.746 375.598 159.525 375.812 159.084V156.582C375.602 156.141 375.236 155.92 374.717 155.92C373.9 155.92 373.492 156.582 373.492 157.906ZM381.742 161.117C380.812 161.117 380.055 160.832 379.469 160.262C378.887 159.691 378.596 158.932 378.596 157.982V157.818C378.596 157.182 378.719 156.613 378.965 156.113C379.211 155.609 379.559 155.223 380.008 154.953C380.461 154.68 380.977 154.543 381.555 154.543C382.422 154.543 383.104 154.816 383.6 155.363C384.1 155.91 384.35 156.686 384.35 157.689V158.381H380.312C380.367 158.795 380.531 159.127 380.805 159.377C381.082 159.627 381.432 159.752 381.854 159.752C382.506 159.752 383.016 159.516 383.383 159.043L384.215 159.975C383.961 160.334 383.617 160.615 383.184 160.818C382.75 161.018 382.27 161.117 381.742 161.117ZM381.549 155.914C381.213 155.914 380.939 156.027 380.729 156.254C380.521 156.48 380.389 156.805 380.33 157.227H382.686V157.092C382.678 156.717 382.576 156.428 382.381 156.225C382.186 156.018 381.908 155.914 381.549 155.914ZM391.029 157.889C391.029 158.904 390.812 159.697 390.379 160.268C389.945 160.834 389.34 161.117 388.562 161.117C387.875 161.117 387.326 160.854 386.916 160.326L386.84 161H385.316V152H387.01V155.229C387.4 154.771 387.914 154.543 388.551 154.543C389.324 154.543 389.93 154.828 390.367 155.398C390.809 155.965 391.029 156.764 391.029 157.795V157.889ZM389.336 157.766C389.336 157.125 389.234 156.658 389.031 156.365C388.828 156.068 388.525 155.92 388.123 155.92C387.584 155.92 387.213 156.141 387.01 156.582V159.084C387.217 159.529 387.592 159.752 388.135 159.752C388.682 159.752 389.041 159.482 389.213 158.943C389.295 158.686 389.336 158.293 389.336 157.766ZM395.752 161C395.674 160.848 395.617 160.658 395.582 160.432C395.172 160.889 394.639 161.117 393.982 161.117C393.361 161.117 392.846 160.938 392.436 160.578C392.029 160.219 391.826 159.766 391.826 159.219C391.826 158.547 392.074 158.031 392.57 157.672C393.07 157.312 393.791 157.131 394.732 157.127H395.512V156.764C395.512 156.471 395.436 156.236 395.283 156.061C395.135 155.885 394.898 155.797 394.574 155.797C394.289 155.797 394.064 155.865 393.9 156.002C393.74 156.139 393.66 156.326 393.66 156.564H391.967C391.967 156.197 392.08 155.857 392.307 155.545C392.533 155.232 392.854 154.988 393.268 154.812C393.682 154.633 394.146 154.543 394.662 154.543C395.443 154.543 396.062 154.74 396.52 155.135C396.98 155.525 397.211 156.076 397.211 156.787V159.535C397.215 160.137 397.299 160.592 397.463 160.9V161H395.752ZM394.352 159.822C394.602 159.822 394.832 159.768 395.043 159.658C395.254 159.545 395.41 159.395 395.512 159.207V158.117H394.879C394.031 158.117 393.58 158.41 393.525 158.996L393.52 159.096C393.52 159.307 393.594 159.48 393.742 159.617C393.891 159.754 394.094 159.822 394.352 159.822ZM402.074 156.248C401.844 156.217 401.641 156.201 401.465 156.201C400.824 156.201 400.404 156.418 400.205 156.852V161H398.512V154.66H400.111L400.158 155.416C400.498 154.834 400.969 154.543 401.57 154.543C401.758 154.543 401.934 154.568 402.098 154.619L402.074 156.248ZM406.328 159.248C406.328 159.041 406.225 158.879 406.018 158.762C405.814 158.641 405.486 158.533 405.033 158.439C403.525 158.123 402.771 157.482 402.771 156.518C402.771 155.955 403.004 155.486 403.469 155.111C403.938 154.732 404.549 154.543 405.303 154.543C406.107 154.543 406.75 154.732 407.23 155.111C407.715 155.49 407.957 155.982 407.957 156.588H406.264C406.264 156.346 406.186 156.146 406.029 155.99C405.873 155.83 405.629 155.75 405.297 155.75C405.012 155.75 404.791 155.814 404.635 155.943C404.479 156.072 404.4 156.236 404.4 156.436C404.4 156.623 404.488 156.775 404.664 156.893C404.844 157.006 405.145 157.105 405.566 157.191C405.988 157.273 406.344 157.367 406.633 157.473C407.527 157.801 407.975 158.369 407.975 159.178C407.975 159.756 407.727 160.225 407.23 160.584C406.734 160.939 406.094 161.117 405.309 161.117C404.777 161.117 404.305 161.023 403.891 160.836C403.48 160.645 403.158 160.385 402.924 160.057C402.689 159.725 402.572 159.367 402.572 158.984H404.178C404.193 159.285 404.305 159.516 404.512 159.676C404.719 159.836 404.996 159.916 405.344 159.916C405.668 159.916 405.912 159.855 406.076 159.734C406.244 159.609 406.328 159.447 406.328 159.248ZM411.988 157.666C411.988 158.549 411.861 159.398 411.607 160.215C411.354 161.031 410.988 161.752 410.512 162.377C410.035 163.002 409.525 163.432 408.982 163.666L408.654 162.77C409.209 162.352 409.646 161.707 409.967 160.836C410.287 159.965 410.453 158.963 410.465 157.83V157.52C410.465 156.352 410.305 155.322 409.984 154.432C409.668 153.541 409.225 152.873 408.654 152.428L408.982 151.531C409.514 151.762 410.014 152.18 410.482 152.785C410.955 153.391 411.32 154.096 411.578 154.9C411.84 155.705 411.977 156.539 411.988 157.402V157.666Z" fill="white"/>
</svg>
