<svg width="478" height="452" viewBox="0 0 478 452" fill="none" xmlns="http://www.w3.org/2000/svg">
<rect width="478" height="452" fill="white"/>
<rect x="17.5" y="67.5" width="442" height="94" stroke="#96BFCC" stroke-width="3" stroke-dasharray="10 10"/>
<rect x="28" y="78" width="147" height="70" fill="#3949AB"/>
<rect x="186" y="78" width="262" height="70" fill="#FB8C00"/>
<path d="M16.6494 55.2402C16.6494 54.1055 16.9183 53.194 17.4561 52.5059C17.9938 51.8132 18.6979 51.4668 19.5684 51.4668C20.4342 51.4668 21.1201 51.763 21.626 52.3555V48.5H22.8906V59H21.7285L21.667 58.207C21.1611 58.8268 20.457 59.1367 19.5547 59.1367C18.6979 59.1367 17.9984 58.7858 17.4561 58.084C16.9183 57.3822 16.6494 56.4661 16.6494 55.3359V55.2402ZM17.9141 55.3838C17.9141 56.2223 18.0872 56.8786 18.4336 57.3525C18.7799 57.8265 19.2585 58.0635 19.8691 58.0635C20.6712 58.0635 21.2568 57.7035 21.626 56.9834V53.5859C21.2477 52.8887 20.6667 52.54 19.8828 52.54C19.263 52.54 18.7799 52.7793 18.4336 53.2578C18.0872 53.7363 17.9141 54.445 17.9141 55.3838ZM26.2334 59H24.9688V51.6035H26.2334V59ZM24.8662 49.6416C24.8662 49.4365 24.9277 49.2633 25.0508 49.1221C25.1784 48.9808 25.3652 48.9102 25.6113 48.9102C25.8574 48.9102 26.0443 48.9808 26.1719 49.1221C26.2995 49.2633 26.3633 49.4365 26.3633 49.6416C26.3633 49.8467 26.2995 50.0176 26.1719 50.1543C26.0443 50.291 25.8574 50.3594 25.6113 50.3594C25.3652 50.3594 25.1784 50.291 25.0508 50.1543C24.9277 50.0176 24.8662 49.8467 24.8662 49.6416ZM30.7041 57.2842L32.5361 51.6035H33.8281L31.1758 59H30.2119L27.5322 51.6035H28.8242L30.7041 57.2842ZM34.334 58.3369C34.334 58.1182 34.3978 57.9359 34.5254 57.79C34.6576 57.6442 34.8535 57.5713 35.1133 57.5713C35.373 57.5713 35.569 57.6442 35.7012 57.79C35.8379 57.9359 35.9062 58.1182 35.9062 58.3369C35.9062 58.5465 35.8379 58.722 35.7012 58.8633C35.569 59.0046 35.373 59.0752 35.1133 59.0752C34.8535 59.0752 34.6576 59.0046 34.5254 58.8633C34.3978 58.722 34.334 58.5465 34.334 58.3369ZM44.5469 57.2568L45.9688 51.6035H47.2334L45.0801 59H44.0547L42.2568 53.3945L40.5068 59H39.4814L37.335 51.6035H38.5928L40.0488 57.1406L41.7715 51.6035H42.79L44.5469 57.2568ZM52.1006 52.7383C51.9092 52.7064 51.7018 52.6904 51.4785 52.6904C50.6491 52.6904 50.0863 53.0436 49.79 53.75V59H48.5254V51.6035H49.7559L49.7764 52.458C50.1911 51.7972 50.779 51.4668 51.54 51.4668C51.7861 51.4668 51.973 51.4987 52.1006 51.5625V52.7383ZM57.5625 59C57.4896 58.8542 57.4303 58.5944 57.3848 58.2207C56.7969 58.8314 56.0951 59.1367 55.2793 59.1367C54.5501 59.1367 53.9508 58.9316 53.4814 58.5215C53.0166 58.1068 52.7842 57.5827 52.7842 56.9492C52.7842 56.179 53.0758 55.582 53.6592 55.1582C54.2471 54.7298 55.0719 54.5156 56.1338 54.5156H57.3643V53.9346C57.3643 53.4925 57.2321 53.1416 56.9678 52.8818C56.7035 52.6175 56.3138 52.4854 55.7988 52.4854C55.3477 52.4854 54.9694 52.5993 54.6641 52.8271C54.3587 53.055 54.2061 53.3307 54.2061 53.6543H52.9346C52.9346 53.2852 53.0645 52.9297 53.3242 52.5879C53.5885 52.2415 53.944 51.9681 54.3906 51.7676C54.8418 51.5671 55.3363 51.4668 55.874 51.4668C56.7262 51.4668 57.3939 51.681 57.877 52.1094C58.36 52.5332 58.6107 53.1188 58.6289 53.8662V57.2705C58.6289 57.9495 58.7155 58.4896 58.8887 58.8906V59H57.5625ZM55.4639 58.0361C55.8604 58.0361 56.2363 57.9336 56.5918 57.7285C56.9473 57.5234 57.2048 57.2568 57.3643 56.9287V55.4111H56.373C54.8236 55.4111 54.0488 55.8646 54.0488 56.7715C54.0488 57.168 54.181 57.4779 54.4453 57.7012C54.7096 57.9245 55.0492 58.0361 55.4639 58.0361ZM66.8594 55.3838C66.8594 56.5094 66.6019 57.4163 66.0869 58.1045C65.5719 58.7926 64.8747 59.1367 63.9951 59.1367C63.0973 59.1367 62.391 58.8519 61.876 58.2822V61.8438H60.6113V51.6035H61.7666L61.8281 52.4238C62.3431 51.7858 63.0586 51.4668 63.9746 51.4668C64.8633 51.4668 65.5651 51.8018 66.0801 52.4717C66.5996 53.1416 66.8594 54.0736 66.8594 55.2676V55.3838ZM65.5947 55.2402C65.5947 54.4062 65.417 53.7477 65.0615 53.2646C64.7061 52.7816 64.2184 52.54 63.5986 52.54C62.833 52.54 62.2588 52.8796 61.876 53.5586V57.0928C62.2542 57.7673 62.833 58.1045 63.6123 58.1045C64.2184 58.1045 64.6992 57.8652 65.0547 57.3867C65.4147 56.9036 65.5947 56.1882 65.5947 55.2402ZM74.7207 55.3838C74.7207 56.5094 74.4632 57.4163 73.9482 58.1045C73.4333 58.7926 72.736 59.1367 71.8564 59.1367C70.9587 59.1367 70.2523 58.8519 69.7373 58.2822V61.8438H68.4727V51.6035H69.6279L69.6895 52.4238C70.2044 51.7858 70.9199 51.4668 71.8359 51.4668C72.7246 51.4668 73.4264 51.8018 73.9414 52.4717C74.4609 53.1416 74.7207 54.0736 74.7207 55.2676V55.3838ZM73.4561 55.2402C73.4561 54.4062 73.2783 53.7477 72.9229 53.2646C72.5674 52.7816 72.0798 52.54 71.46 52.54C70.6943 52.54 70.1201 52.8796 69.7373 53.5586V57.0928C70.1156 57.7673 70.6943 58.1045 71.4736 58.1045C72.0798 58.1045 72.5605 57.8652 72.916 57.3867C73.276 56.9036 73.4561 56.1882 73.4561 55.2402ZM79.4033 59.1367C78.4007 59.1367 77.585 58.8086 76.9561 58.1523C76.3271 57.4915 76.0127 56.6097 76.0127 55.5068V55.2744C76.0127 54.5407 76.1517 53.8867 76.4297 53.3125C76.7122 52.7337 77.1042 52.2826 77.6055 51.959C78.1113 51.6309 78.6582 51.4668 79.2461 51.4668C80.2077 51.4668 80.9551 51.7835 81.4883 52.417C82.0215 53.0505 82.2881 53.9574 82.2881 55.1377V55.6641H77.2773C77.2956 56.3932 77.5075 56.9834 77.9131 57.4346C78.3232 57.8812 78.8428 58.1045 79.4717 58.1045C79.9183 58.1045 80.2965 58.0133 80.6064 57.8311C80.9163 57.6488 81.1875 57.4072 81.4199 57.1064L82.1924 57.708C81.5726 58.6605 80.6429 59.1367 79.4033 59.1367ZM79.2461 52.5059C78.7357 52.5059 78.3073 52.6927 77.9609 53.0664C77.6146 53.4355 77.4004 53.9551 77.3184 54.625H81.0234V54.5293C80.987 53.8867 80.8138 53.39 80.5039 53.0391C80.194 52.6836 79.7747 52.5059 79.2461 52.5059ZM87.333 52.7383C87.1416 52.7064 86.9342 52.6904 86.7109 52.6904C85.8815 52.6904 85.3187 53.0436 85.0225 53.75V59H83.7578V51.6035H84.9883L85.0088 52.458C85.4235 51.7972 86.0114 51.4668 86.7725 51.4668C87.0186 51.4668 87.2054 51.4987 87.333 51.5625V52.7383ZM91.9268 54.96C91.9268 53.93 92.0635 52.9411 92.3369 51.9932C92.6149 51.0452 93.0273 50.1839 93.5742 49.4092C94.1211 48.6344 94.6885 48.0876 95.2764 47.7686L95.5361 48.6025C94.8708 49.113 94.3239 49.8923 93.8955 50.9404C93.4717 51.9886 93.2393 53.1621 93.1982 54.4609L93.1914 55.042C93.1914 56.8011 93.5127 58.3278 94.1553 59.6221C94.5426 60.3968 95.0029 61.0029 95.5361 61.4404L95.2764 62.2129C94.6702 61.8757 94.0915 61.3105 93.54 60.5176C92.4645 58.9681 91.9268 57.1156 91.9268 54.96ZM103.309 57.2568L104.73 51.6035H105.995L103.842 59H102.816L101.019 53.3945L99.2686 59H98.2432L96.0967 51.6035H97.3545L98.8105 57.1406L100.533 51.6035H101.552L103.309 57.2568ZM108.661 59H107.396V51.6035H108.661V59ZM107.294 49.6416C107.294 49.4365 107.355 49.2633 107.479 49.1221C107.606 48.9808 107.793 48.9102 108.039 48.9102C108.285 48.9102 108.472 48.9808 108.6 49.1221C108.727 49.2633 108.791 49.4365 108.791 49.6416C108.791 49.8467 108.727 50.0176 108.6 50.1543C108.472 50.291 108.285 50.3594 108.039 50.3594C107.793 50.3594 107.606 50.291 107.479 50.1543C107.355 50.0176 107.294 49.8467 107.294 49.6416ZM110.384 55.2402C110.384 54.1055 110.653 53.194 111.19 52.5059C111.728 51.8132 112.432 51.4668 113.303 51.4668C114.169 51.4668 114.854 51.763 115.36 52.3555V48.5H116.625V59H115.463L115.401 58.207C114.896 58.8268 114.191 59.1367 113.289 59.1367C112.432 59.1367 111.733 58.7858 111.19 58.084C110.653 57.3822 110.384 56.4661 110.384 55.3359V55.2402ZM111.648 55.3838C111.648 56.2223 111.822 56.8786 112.168 57.3525C112.514 57.8265 112.993 58.0635 113.604 58.0635C114.406 58.0635 114.991 57.7035 115.36 56.9834V53.5859C114.982 52.8887 114.401 52.54 113.617 52.54C112.997 52.54 112.514 52.7793 112.168 53.2578C111.822 53.7363 111.648 54.445 111.648 55.3838ZM120.31 49.8125V51.6035H121.69V52.5811H120.31V57.168C120.31 57.4642 120.371 57.6875 120.494 57.8379C120.617 57.9837 120.827 58.0566 121.123 58.0566C121.269 58.0566 121.469 58.0293 121.725 57.9746V59C121.392 59.0911 121.068 59.1367 120.754 59.1367C120.189 59.1367 119.763 58.9658 119.476 58.624C119.188 58.2822 119.045 57.7969 119.045 57.168V52.5811H117.698V51.6035H119.045V49.8125H120.31ZM124.438 52.499C124.999 51.8109 125.728 51.4668 126.626 51.4668C128.189 51.4668 128.978 52.3486 128.991 54.1123V59H127.727V54.1055C127.722 53.5723 127.599 53.1781 127.357 52.9229C127.12 52.6676 126.749 52.54 126.243 52.54C125.833 52.54 125.473 52.6494 125.163 52.8682C124.853 53.0869 124.612 53.374 124.438 53.7295V59H123.174V48.5H124.438V52.499ZM130.844 58.3369C130.844 58.1182 130.908 57.9359 131.035 57.79C131.167 57.6442 131.363 57.5713 131.623 57.5713C131.883 57.5713 132.079 57.6442 132.211 57.79C132.348 57.9359 132.416 58.1182 132.416 58.3369C132.416 58.5465 132.348 58.722 132.211 58.8633C132.079 59.0046 131.883 59.0752 131.623 59.0752C131.363 59.0752 131.167 59.0046 131.035 58.8633C130.908 58.722 130.844 58.5465 130.844 58.3369ZM130.851 52.3008C130.851 52.082 130.914 51.8997 131.042 51.7539C131.174 51.6081 131.37 51.5352 131.63 51.5352C131.89 51.5352 132.086 51.6081 132.218 51.7539C132.354 51.8997 132.423 52.082 132.423 52.3008C132.423 52.5104 132.354 52.6859 132.218 52.8271C132.086 52.9684 131.89 53.0391 131.63 53.0391C131.37 53.0391 131.174 52.9684 131.042 52.8271C130.914 52.6859 130.851 52.5104 130.851 52.3008ZM141.774 59H140.503V50.5713L137.953 51.5078V50.3594L141.576 48.999H141.774V59ZM151.721 54.7549C151.721 56.236 151.468 57.3366 150.962 58.0566C150.456 58.7767 149.665 59.1367 148.59 59.1367C147.528 59.1367 146.742 58.7858 146.231 58.084C145.721 57.3776 145.457 56.3249 145.438 54.9258V53.2373C145.438 51.7744 145.691 50.6875 146.197 49.9766C146.703 49.2656 147.496 48.9102 148.576 48.9102C149.647 48.9102 150.436 49.2542 150.941 49.9424C151.447 50.626 151.707 51.6833 151.721 53.1143V54.7549ZM150.456 53.0254C150.456 51.9544 150.306 51.1751 150.005 50.6875C149.704 50.1953 149.228 49.9492 148.576 49.9492C147.929 49.9492 147.457 50.193 147.161 50.6807C146.865 51.1683 146.712 51.918 146.703 52.9297V54.9531C146.703 56.0286 146.858 56.8239 147.168 57.3389C147.482 57.8493 147.956 58.1045 148.59 58.1045C149.214 58.1045 149.677 57.863 149.978 57.3799C150.283 56.8968 150.442 56.1357 150.456 55.0967V53.0254ZM159.582 54.7549C159.582 56.236 159.329 57.3366 158.823 58.0566C158.317 58.7767 157.527 59.1367 156.451 59.1367C155.389 59.1367 154.603 58.7858 154.093 58.084C153.582 57.3776 153.318 56.3249 153.3 54.9258V53.2373C153.3 51.7744 153.553 50.6875 154.059 49.9766C154.564 49.2656 155.357 48.9102 156.438 48.9102C157.508 48.9102 158.297 49.2542 158.803 49.9424C159.309 50.626 159.568 51.6833 159.582 53.1143V54.7549ZM158.317 53.0254C158.317 51.9544 158.167 51.1751 157.866 50.6875C157.565 50.1953 157.089 49.9492 156.438 49.9492C155.79 49.9492 155.319 50.193 155.022 50.6807C154.726 51.1683 154.574 51.918 154.564 52.9297V54.9531C154.564 56.0286 154.719 56.8239 155.029 57.3389C155.344 57.8493 155.818 58.1045 156.451 58.1045C157.076 58.1045 157.538 57.863 157.839 57.3799C158.144 56.8968 158.304 56.1357 158.317 55.0967V53.0254ZM161.093 50.9609C161.093 50.3639 161.282 49.8717 161.66 49.4844C162.043 49.097 162.533 48.9033 163.13 48.9033C163.736 48.9033 164.226 49.0993 164.6 49.4912C164.978 49.8786 165.167 50.3822 165.167 51.002V51.4873C165.167 52.0889 164.976 52.5811 164.593 52.9639C164.215 53.3421 163.731 53.5312 163.144 53.5312C162.551 53.5312 162.061 53.3421 161.674 52.9639C161.286 52.5811 161.093 52.0729 161.093 51.4395V50.9609ZM162.036 51.4873C162.036 51.8428 162.136 52.1367 162.337 52.3691C162.537 52.597 162.806 52.7109 163.144 52.7109C163.467 52.7109 163.727 52.5993 163.923 52.376C164.123 52.1527 164.224 51.8473 164.224 51.46V50.9609C164.224 50.6055 164.126 50.3115 163.93 50.0791C163.734 49.8467 163.467 49.7305 163.13 49.7305C162.793 49.7305 162.526 49.8467 162.33 50.0791C162.134 50.3115 162.036 50.6146 162.036 50.9883V51.4873ZM165.939 56.5596C165.939 55.9626 166.129 55.4727 166.507 55.0898C166.89 54.7025 167.38 54.5088 167.977 54.5088C168.574 54.5088 169.063 54.7002 169.446 55.083C169.829 55.4658 170.021 55.974 170.021 56.6074V57.0928C170.021 57.6898 169.829 58.182 169.446 58.5693C169.068 58.9521 168.583 59.1436 167.99 59.1436C167.398 59.1436 166.908 58.9544 166.521 58.5762C166.133 58.1934 165.939 57.6852 165.939 57.0518V56.5596ZM166.883 57.0928C166.883 57.4528 166.983 57.749 167.184 57.9814C167.384 58.2093 167.653 58.3232 167.99 58.3232C168.318 58.3232 168.58 58.2116 168.776 57.9883C168.972 57.7604 169.07 57.4528 169.07 57.0654V56.5596C169.07 56.1995 168.97 55.9056 168.77 55.6777C168.574 55.4499 168.309 55.3359 167.977 55.3359C167.653 55.3359 167.389 55.4499 167.184 55.6777C166.983 55.901 166.883 56.2041 166.883 56.5869V57.0928ZM163.431 58.248L162.713 57.7969L167.573 50.0176L168.291 50.4688L163.431 58.248ZM177.69 55.2881H174.354V54.2559H177.69V55.2881ZM188.792 59H182.271V58.0908L185.716 54.2627C186.226 53.6839 186.577 53.2145 186.769 52.8545C186.965 52.4899 187.062 52.1139 187.062 51.7266C187.062 51.207 186.905 50.7809 186.591 50.4482C186.276 50.1156 185.857 49.9492 185.333 49.9492C184.704 49.9492 184.214 50.1292 183.863 50.4893C183.517 50.8447 183.344 51.3415 183.344 51.9795H182.079C182.079 51.0635 182.373 50.3229 182.961 49.7578C183.553 49.1927 184.344 48.9102 185.333 48.9102C186.258 48.9102 186.99 49.154 187.527 49.6416C188.065 50.1247 188.334 50.7695 188.334 51.5762C188.334 52.556 187.71 53.7227 186.461 55.0762L183.795 57.9678H188.792V59ZM196.373 54.7549C196.373 56.236 196.12 57.3366 195.614 58.0566C195.108 58.7767 194.318 59.1367 193.242 59.1367C192.18 59.1367 191.394 58.7858 190.884 58.084C190.373 57.3776 190.109 56.3249 190.091 54.9258V53.2373C190.091 51.7744 190.344 50.6875 190.85 49.9766C191.355 49.2656 192.148 48.9102 193.229 48.9102C194.299 48.9102 195.088 49.2542 195.594 49.9424C196.1 50.626 196.359 51.6833 196.373 53.1143V54.7549ZM195.108 53.0254C195.108 51.9544 194.958 51.1751 194.657 50.6875C194.356 50.1953 193.88 49.9492 193.229 49.9492C192.581 49.9492 192.11 50.193 191.813 50.6807C191.517 51.1683 191.365 51.918 191.355 52.9297V54.9531C191.355 56.0286 191.51 56.8239 191.82 57.3389C192.135 57.8493 192.609 58.1045 193.242 58.1045C193.867 58.1045 194.329 57.863 194.63 57.3799C194.935 56.8968 195.095 56.1357 195.108 55.0967V53.0254ZM204.371 55.3838C204.371 56.5094 204.114 57.4163 203.599 58.1045C203.084 58.7926 202.386 59.1367 201.507 59.1367C200.609 59.1367 199.903 58.8519 199.388 58.2822V61.8438H198.123V51.6035H199.278L199.34 52.4238C199.855 51.7858 200.57 51.4668 201.486 51.4668C202.375 51.4668 203.077 51.8018 203.592 52.4717C204.111 53.1416 204.371 54.0736 204.371 55.2676V55.3838ZM203.106 55.2402C203.106 54.4062 202.929 53.7477 202.573 53.2646C202.218 52.7816 201.73 52.54 201.11 52.54C200.345 52.54 199.771 52.8796 199.388 53.5586V57.0928C199.766 57.7673 200.345 58.1045 201.124 58.1045C201.73 58.1045 202.211 57.8652 202.566 57.3867C202.926 56.9036 203.106 56.1882 203.106 55.2402ZM208.356 54.3037L209.997 51.6035H211.474L209.054 55.2607L211.549 59H210.086L208.377 56.2314L206.668 59H205.198L207.693 55.2607L205.273 51.6035H206.736L208.356 54.3037ZM215.739 55.0283C215.739 56.0446 215.605 57.0199 215.336 57.9541C215.072 58.8838 214.664 59.7428 214.112 60.5312C213.565 61.3197 212.991 61.8802 212.39 62.2129L212.123 61.4404C212.825 60.9027 213.388 60.0687 213.812 58.9385C214.24 57.8037 214.459 56.5459 214.468 55.165V54.9463C214.468 53.9893 214.368 53.1006 214.167 52.2803C213.966 51.4554 213.686 50.7171 213.326 50.0654C212.971 49.4137 212.57 48.9056 212.123 48.541L212.39 47.7686C212.991 48.1012 213.563 48.6572 214.105 49.4365C214.652 50.2158 215.06 51.0749 215.329 52.0137C215.603 52.9525 215.739 53.9574 215.739 55.0283Z" fill="#6BAFC5"/>
<path d="M290.341 105.247C290.341 104.094 290.598 103.176 291.113 102.492C291.633 101.809 292.341 101.467 293.239 101.467C293.959 101.467 294.554 101.736 295.023 102.273V98.5H297.006V109H295.222L295.126 108.214C294.634 108.829 294 109.137 293.226 109.137C292.355 109.137 291.656 108.795 291.127 108.111C290.603 107.423 290.341 106.468 290.341 105.247ZM292.316 105.391C292.316 106.083 292.437 106.614 292.679 106.983C292.92 107.353 293.271 107.537 293.731 107.537C294.342 107.537 294.773 107.28 295.023 106.765V103.846C294.777 103.331 294.351 103.073 293.745 103.073C292.793 103.073 292.316 103.846 292.316 105.391ZM300.622 109H298.64V101.604H300.622V109ZM298.523 99.6895C298.523 99.3932 298.621 99.1494 298.817 98.958C299.018 98.7666 299.289 98.6709 299.631 98.6709C299.968 98.6709 300.237 98.7666 300.438 98.958C300.638 99.1494 300.738 99.3932 300.738 99.6895C300.738 99.9902 300.636 100.236 300.431 100.428C300.23 100.619 299.964 100.715 299.631 100.715C299.298 100.715 299.029 100.619 298.824 100.428C298.624 100.236 298.523 99.9902 298.523 99.6895ZM305.024 106.587L306.398 101.604H308.463L305.968 109H304.081L301.586 101.604H303.65L305.024 106.587ZM308.292 108.029C308.292 107.715 308.397 107.46 308.606 107.264C308.821 107.068 309.087 106.97 309.406 106.97C309.73 106.97 309.996 107.068 310.206 107.264C310.42 107.46 310.527 107.715 310.527 108.029C310.527 108.339 310.423 108.592 310.213 108.788C310.003 108.979 309.734 109.075 309.406 109.075C309.083 109.075 308.816 108.979 308.606 108.788C308.397 108.592 308.292 108.339 308.292 108.029ZM315.032 106.587L316.406 101.604H318.471L315.976 109H314.089L311.594 101.604H313.658L315.032 106.587ZM323.522 109C323.431 108.822 323.365 108.601 323.324 108.337C322.846 108.87 322.224 109.137 321.458 109.137C320.733 109.137 320.132 108.927 319.653 108.508C319.179 108.089 318.942 107.56 318.942 106.922C318.942 106.138 319.232 105.536 319.811 105.117C320.394 104.698 321.235 104.486 322.333 104.481H323.242V104.058C323.242 103.716 323.153 103.442 322.976 103.237C322.802 103.032 322.527 102.93 322.148 102.93C321.816 102.93 321.554 103.009 321.362 103.169C321.175 103.328 321.082 103.547 321.082 103.825H319.106C319.106 103.397 319.239 103 319.503 102.636C319.767 102.271 320.141 101.986 320.624 101.781C321.107 101.572 321.649 101.467 322.251 101.467C323.162 101.467 323.885 101.697 324.418 102.157C324.956 102.613 325.225 103.256 325.225 104.085V107.291C325.229 107.993 325.327 108.524 325.519 108.884V109H323.522ZM321.889 107.626C322.18 107.626 322.449 107.562 322.695 107.435C322.941 107.302 323.124 107.127 323.242 106.908V105.637H322.504C321.515 105.637 320.989 105.979 320.925 106.662L320.918 106.778C320.918 107.024 321.005 107.227 321.178 107.387C321.351 107.546 321.588 107.626 321.889 107.626ZM328.827 109H326.845V98.5H328.827V109ZM334.891 108.248C334.403 108.84 333.729 109.137 332.867 109.137C332.074 109.137 331.468 108.909 331.049 108.453C330.634 107.997 330.422 107.33 330.413 106.45V101.604H332.389V106.382C332.389 107.152 332.74 107.537 333.441 107.537C334.111 107.537 334.572 107.305 334.822 106.84V101.604H336.805V109H334.945L334.891 108.248ZM341.699 109.137C340.615 109.137 339.73 108.804 339.047 108.139C338.368 107.473 338.028 106.587 338.028 105.479V105.288C338.028 104.545 338.172 103.882 338.459 103.299C338.746 102.711 339.152 102.26 339.676 101.945C340.204 101.626 340.806 101.467 341.48 101.467C342.492 101.467 343.287 101.786 343.866 102.424C344.45 103.062 344.741 103.966 344.741 105.138V105.944H340.031C340.095 106.427 340.286 106.815 340.605 107.106C340.929 107.398 341.337 107.544 341.829 107.544C342.59 107.544 343.185 107.268 343.613 106.717L344.584 107.804C344.288 108.223 343.887 108.551 343.381 108.788C342.875 109.021 342.314 109.137 341.699 109.137ZM341.474 103.066C341.082 103.066 340.763 103.199 340.517 103.463C340.275 103.727 340.12 104.105 340.052 104.598H342.8V104.44C342.791 104.003 342.672 103.666 342.444 103.429C342.216 103.187 341.893 103.066 341.474 103.066ZM286.908 119.531C286.908 118.637 287.027 117.785 287.266 116.977C287.504 116.168 287.855 115.453 288.32 114.832C288.785 114.207 289.289 113.773 289.832 113.531L290.16 114.445C289.59 114.867 289.145 115.52 288.824 116.402C288.504 117.285 288.344 118.316 288.344 119.496V119.678C288.344 120.861 288.502 121.896 288.818 122.783C289.135 123.67 289.582 124.332 290.16 124.77L289.832 125.666C289.301 125.428 288.805 125.006 288.344 124.4C287.887 123.799 287.537 123.104 287.295 122.314C287.053 121.525 286.924 120.701 286.908 119.842V119.531ZM296.564 120.697L297.396 116.66H299.031L297.414 123H295.996L294.795 119.01L293.594 123H292.182L290.564 116.66H292.199L293.025 120.691L294.186 116.66H295.41L296.564 120.697ZM301.662 123H299.963V116.66H301.662V123ZM299.863 115.02C299.863 114.766 299.947 114.557 300.115 114.393C300.287 114.229 300.52 114.146 300.812 114.146C301.102 114.146 301.332 114.229 301.504 114.393C301.676 114.557 301.762 114.766 301.762 115.02C301.762 115.277 301.674 115.488 301.498 115.652C301.326 115.816 301.098 115.898 300.812 115.898C300.527 115.898 300.297 115.816 300.121 115.652C299.949 115.488 299.863 115.277 299.863 115.02ZM302.799 119.783C302.799 118.795 303.02 118.008 303.461 117.422C303.906 116.836 304.514 116.543 305.283 116.543C305.9 116.543 306.41 116.773 306.812 117.234V114H308.512V123H306.982L306.9 122.326C306.479 122.854 305.936 123.117 305.271 123.117C304.525 123.117 303.926 122.824 303.473 122.238C303.023 121.648 302.799 120.83 302.799 119.783ZM304.492 119.906C304.492 120.5 304.596 120.955 304.803 121.271C305.01 121.588 305.311 121.746 305.705 121.746C306.229 121.746 306.598 121.525 306.812 121.084V118.582C306.602 118.141 306.236 117.92 305.717 117.92C304.9 117.92 304.492 118.582 304.492 119.906ZM311.852 115.102V116.66H312.936V117.902H311.852V121.066C311.852 121.301 311.896 121.469 311.986 121.57C312.076 121.672 312.248 121.723 312.502 121.723C312.689 121.723 312.855 121.709 313 121.682V122.965C312.668 123.066 312.326 123.117 311.975 123.117C310.787 123.117 310.182 122.518 310.158 121.318V117.902H309.232V116.66H310.158V115.102H311.852ZM315.531 117.352C315.98 116.812 316.545 116.543 317.225 116.543C318.6 116.543 319.297 117.342 319.316 118.939V123H317.623V118.986C317.623 118.623 317.545 118.355 317.389 118.184C317.232 118.008 316.973 117.92 316.609 117.92C316.113 117.92 315.754 118.111 315.531 118.494V123H313.838V114H315.531V117.352ZM320.676 122.168C320.676 121.898 320.766 121.68 320.945 121.512C321.129 121.344 321.357 121.26 321.631 121.26C321.908 121.26 322.137 121.344 322.316 121.512C322.5 121.68 322.592 121.898 322.592 122.168C322.592 122.434 322.502 122.65 322.322 122.818C322.143 122.982 321.912 123.064 321.631 123.064C321.354 123.064 321.125 122.982 320.945 122.818C320.766 122.65 320.676 122.434 320.676 122.168ZM320.676 117.369C320.676 117.1 320.766 116.881 320.945 116.713C321.129 116.545 321.357 116.461 321.631 116.461C321.908 116.461 322.137 116.545 322.316 116.713C322.5 116.881 322.592 117.1 322.592 117.369C322.592 117.635 322.502 117.852 322.322 118.02C322.143 118.184 321.912 118.266 321.631 118.266C321.354 118.266 321.125 118.184 320.945 118.02C320.766 117.852 320.676 117.635 320.676 117.369ZM332.746 123H326.898V121.84L329.658 118.898C330.037 118.484 330.316 118.123 330.496 117.814C330.68 117.506 330.771 117.213 330.771 116.936C330.771 116.557 330.676 116.26 330.484 116.045C330.293 115.826 330.02 115.717 329.664 115.717C329.281 115.717 328.979 115.85 328.756 116.115C328.537 116.377 328.428 116.723 328.428 117.152H326.729C326.729 116.633 326.852 116.158 327.098 115.729C327.348 115.299 327.699 114.963 328.152 114.721C328.605 114.475 329.119 114.352 329.693 114.352C330.572 114.352 331.254 114.562 331.738 114.984C332.227 115.406 332.471 116.002 332.471 116.771C332.471 117.193 332.361 117.623 332.143 118.061C331.924 118.498 331.549 119.008 331.018 119.59L329.078 121.635H332.746V123ZM334.393 123.732H333.133L336.273 114.469H337.533L334.393 123.732ZM340 117.984H340.902C341.332 117.984 341.65 117.877 341.857 117.662C342.064 117.447 342.168 117.162 342.168 116.807C342.168 116.463 342.064 116.195 341.857 116.004C341.654 115.812 341.373 115.717 341.014 115.717C340.689 115.717 340.418 115.807 340.199 115.986C339.98 116.162 339.871 116.393 339.871 116.678H338.178C338.178 116.232 338.297 115.834 338.535 115.482C338.777 115.127 339.113 114.85 339.543 114.65C339.977 114.451 340.453 114.352 340.973 114.352C341.875 114.352 342.582 114.568 343.094 115.002C343.605 115.432 343.861 116.025 343.861 116.783C343.861 117.174 343.742 117.533 343.504 117.861C343.266 118.189 342.953 118.441 342.566 118.617C343.047 118.789 343.404 119.047 343.639 119.391C343.877 119.734 343.996 120.141 343.996 120.609C343.996 121.367 343.719 121.975 343.164 122.432C342.613 122.889 341.883 123.117 340.973 123.117C340.121 123.117 339.424 122.893 338.881 122.443C338.342 121.994 338.072 121.4 338.072 120.662H339.766C339.766 120.982 339.885 121.244 340.123 121.447C340.365 121.65 340.662 121.752 341.014 121.752C341.416 121.752 341.73 121.646 341.957 121.436C342.188 121.221 342.303 120.938 342.303 120.586C342.303 119.734 341.834 119.309 340.896 119.309H340V117.984ZM348.156 119.666C348.156 120.549 348.029 121.398 347.775 122.215C347.521 123.031 347.156 123.752 346.68 124.377C346.203 125.002 345.693 125.432 345.15 125.666L344.822 124.77C345.377 124.352 345.814 123.707 346.135 122.836C346.455 121.965 346.621 120.963 346.633 119.83V119.52C346.633 118.352 346.473 117.322 346.152 116.432C345.836 115.541 345.393 114.873 344.822 114.428L345.15 113.531C345.682 113.762 346.182 114.18 346.65 114.785C347.123 115.391 347.488 116.096 347.746 116.9C348.008 117.705 348.145 118.539 348.156 119.402V119.666Z" fill="white"/>
<path d="M78.9072 107.247C78.9072 106.094 79.1647 105.176 79.6797 104.492C80.1992 103.809 80.9079 103.467 81.8057 103.467C82.5257 103.467 83.1204 103.736 83.5898 104.273V100.5H85.5723V111H83.7881L83.6924 110.214C83.2002 110.829 82.5667 111.137 81.792 111.137C80.9215 111.137 80.222 110.795 79.6934 110.111C79.1693 109.423 78.9072 108.468 78.9072 107.247ZM80.8828 107.391C80.8828 108.083 81.0036 108.614 81.2451 108.983C81.4867 109.353 81.8376 109.537 82.2979 109.537C82.9085 109.537 83.3392 109.28 83.5898 108.765V105.846C83.3438 105.331 82.9176 105.073 82.3115 105.073C81.359 105.073 80.8828 105.846 80.8828 107.391ZM89.1885 111H87.2061V103.604H89.1885V111ZM87.0898 101.689C87.0898 101.393 87.1878 101.149 87.3838 100.958C87.5843 100.767 87.8555 100.671 88.1973 100.671C88.5345 100.671 88.8034 100.767 89.0039 100.958C89.2044 101.149 89.3047 101.393 89.3047 101.689C89.3047 101.99 89.2021 102.236 88.9971 102.428C88.7965 102.619 88.5299 102.715 88.1973 102.715C87.8646 102.715 87.5957 102.619 87.3906 102.428C87.1901 102.236 87.0898 101.99 87.0898 101.689ZM93.5908 108.587L94.9648 103.604H97.0293L94.5342 111H92.6475L90.1523 103.604H92.2168L93.5908 108.587ZM96.8584 110.029C96.8584 109.715 96.9632 109.46 97.1729 109.264C97.387 109.068 97.6536 108.97 97.9727 108.97C98.2962 108.97 98.5628 109.068 98.7725 109.264C98.9867 109.46 99.0938 109.715 99.0938 110.029C99.0938 110.339 98.9889 110.592 98.7793 110.788C98.5697 110.979 98.3008 111.075 97.9727 111.075C97.6491 111.075 97.3825 110.979 97.1729 110.788C96.9632 110.592 96.8584 110.339 96.8584 110.029ZM103.195 101.785V103.604H104.46V105.053H103.195V108.744C103.195 109.018 103.248 109.214 103.353 109.332C103.457 109.451 103.658 109.51 103.954 109.51C104.173 109.51 104.367 109.494 104.535 109.462V110.959C104.148 111.077 103.749 111.137 103.339 111.137C101.953 111.137 101.247 110.437 101.22 109.038V105.053H100.14V103.604H101.22V101.785H103.195ZM107.646 111H105.663V103.604H107.646V111ZM105.547 101.689C105.547 101.393 105.645 101.149 105.841 100.958C106.041 100.767 106.312 100.671 106.654 100.671C106.992 100.671 107.26 100.767 107.461 100.958C107.661 101.149 107.762 101.393 107.762 101.689C107.762 101.99 107.659 102.236 107.454 102.428C107.254 102.619 106.987 102.715 106.654 102.715C106.322 102.715 106.053 102.619 105.848 102.428C105.647 102.236 105.547 101.99 105.547 101.689ZM111.645 101.785V103.604H112.909V105.053H111.645V108.744C111.645 109.018 111.697 109.214 111.802 109.332C111.907 109.451 112.107 109.51 112.403 109.51C112.622 109.51 112.816 109.494 112.984 109.462V110.959C112.597 111.077 112.198 111.137 111.788 111.137C110.403 111.137 109.696 110.437 109.669 109.038V105.053H108.589V103.604H109.669V101.785H111.645ZM116.095 111H114.112V100.5H116.095V111ZM121.133 111.137C120.048 111.137 119.164 110.804 118.48 110.139C117.801 109.473 117.462 108.587 117.462 107.479V107.288C117.462 106.545 117.605 105.882 117.893 105.299C118.18 104.711 118.585 104.26 119.109 103.945C119.638 103.626 120.24 103.467 120.914 103.467C121.926 103.467 122.721 103.786 123.3 104.424C123.883 105.062 124.175 105.966 124.175 107.138V107.944H119.465C119.529 108.427 119.72 108.815 120.039 109.106C120.363 109.398 120.771 109.544 121.263 109.544C122.024 109.544 122.618 109.268 123.047 108.717L124.018 109.804C123.721 110.223 123.32 110.551 122.814 110.788C122.309 111.021 121.748 111.137 121.133 111.137ZM120.907 105.066C120.515 105.066 120.196 105.199 119.95 105.463C119.709 105.727 119.554 106.105 119.485 106.598H122.233V106.44C122.224 106.003 122.106 105.666 121.878 105.429C121.65 105.187 121.326 105.066 120.907 105.066ZM70.9082 121.531C70.9082 120.637 71.0273 119.785 71.2656 118.977C71.5039 118.168 71.8555 117.453 72.3203 116.832C72.7852 116.207 73.2891 115.773 73.832 115.531L74.1602 116.445C73.5898 116.867 73.1445 117.52 72.8242 118.402C72.5039 119.285 72.3438 120.316 72.3438 121.496V121.678C72.3438 122.861 72.502 123.896 72.8184 124.783C73.1348 125.67 73.582 126.332 74.1602 126.77L73.832 127.666C73.3008 127.428 72.8047 127.006 72.3438 126.4C71.8867 125.799 71.5371 125.104 71.2949 124.314C71.0527 123.525 70.9238 122.701 70.9082 121.842V121.531ZM80.5645 122.697L81.3965 118.66H83.0312L81.4141 125H79.9961L78.7949 121.01L77.5938 125H76.1816L74.5645 118.66H76.1992L77.0254 122.691L78.1855 118.66H79.4102L80.5645 122.697ZM85.6621 125H83.9629V118.66H85.6621V125ZM83.8633 117.02C83.8633 116.766 83.9473 116.557 84.1152 116.393C84.2871 116.229 84.5195 116.146 84.8125 116.146C85.1016 116.146 85.332 116.229 85.5039 116.393C85.6758 116.557 85.7617 116.766 85.7617 117.02C85.7617 117.277 85.6738 117.488 85.498 117.652C85.3262 117.816 85.0977 117.898 84.8125 117.898C84.5273 117.898 84.2969 117.816 84.1211 117.652C83.9492 117.488 83.8633 117.277 83.8633 117.02ZM86.7988 121.783C86.7988 120.795 87.0195 120.008 87.4609 119.422C87.9062 118.836 88.5137 118.543 89.2832 118.543C89.9004 118.543 90.4102 118.773 90.8125 119.234V116H92.5117V125H90.9824L90.9004 124.326C90.4785 124.854 89.9355 125.117 89.2715 125.117C88.5254 125.117 87.9258 124.824 87.4727 124.238C87.0234 123.648 86.7988 122.83 86.7988 121.783ZM88.4922 121.906C88.4922 122.5 88.5957 122.955 88.8027 123.271C89.0098 123.588 89.3105 123.746 89.7051 123.746C90.2285 123.746 90.5977 123.525 90.8125 123.084V120.582C90.6016 120.141 90.2363 119.92 89.7168 119.92C88.9004 119.92 88.4922 120.582 88.4922 121.906ZM95.8516 117.102V118.66H96.9355V119.902H95.8516V123.066C95.8516 123.301 95.8965 123.469 95.9863 123.57C96.0762 123.672 96.248 123.723 96.502 123.723C96.6895 123.723 96.8555 123.709 97 123.682V124.965C96.668 125.066 96.3262 125.117 95.9746 125.117C94.7871 125.117 94.1816 124.518 94.1582 123.318V119.902H93.2324V118.66H94.1582V117.102H95.8516ZM99.5312 119.352C99.9805 118.812 100.545 118.543 101.225 118.543C102.6 118.543 103.297 119.342 103.316 120.939V125H101.623V120.986C101.623 120.623 101.545 120.355 101.389 120.184C101.232 120.008 100.973 119.92 100.609 119.92C100.113 119.92 99.7539 120.111 99.5312 120.494V125H97.8379V116H99.5312V119.352ZM104.676 124.168C104.676 123.898 104.766 123.68 104.945 123.512C105.129 123.344 105.357 123.26 105.631 123.26C105.908 123.26 106.137 123.344 106.316 123.512C106.5 123.68 106.592 123.898 106.592 124.168C106.592 124.434 106.502 124.65 106.322 124.818C106.143 124.982 105.912 125.064 105.631 125.064C105.354 125.064 105.125 124.982 104.945 124.818C104.766 124.65 104.676 124.434 104.676 124.168ZM104.676 119.369C104.676 119.1 104.766 118.881 104.945 118.713C105.129 118.545 105.357 118.461 105.631 118.461C105.908 118.461 106.137 118.545 106.316 118.713C106.5 118.881 106.592 119.1 106.592 119.369C106.592 119.635 106.502 119.852 106.322 120.02C106.143 120.184 105.912 120.266 105.631 120.266C105.354 120.266 105.125 120.184 104.945 120.02C104.766 119.852 104.676 119.635 104.676 119.369ZM115.012 125H113.318V118.473L111.297 119.1V117.723L114.83 116.457H115.012V125ZM118.393 125.732H117.133L120.273 116.469H121.533L118.393 125.732ZM124 119.984H124.902C125.332 119.984 125.65 119.877 125.857 119.662C126.064 119.447 126.168 119.162 126.168 118.807C126.168 118.463 126.064 118.195 125.857 118.004C125.654 117.812 125.373 117.717 125.014 117.717C124.689 117.717 124.418 117.807 124.199 117.986C123.98 118.162 123.871 118.393 123.871 118.678H122.178C122.178 118.232 122.297 117.834 122.535 117.482C122.777 117.127 123.113 116.85 123.543 116.65C123.977 116.451 124.453 116.352 124.973 116.352C125.875 116.352 126.582 116.568 127.094 117.002C127.605 117.432 127.861 118.025 127.861 118.783C127.861 119.174 127.742 119.533 127.504 119.861C127.266 120.189 126.953 120.441 126.566 120.617C127.047 120.789 127.404 121.047 127.639 121.391C127.877 121.734 127.996 122.141 127.996 122.609C127.996 123.367 127.719 123.975 127.164 124.432C126.613 124.889 125.883 125.117 124.973 125.117C124.121 125.117 123.424 124.893 122.881 124.443C122.342 123.994 122.072 123.4 122.072 122.662H123.766C123.766 122.982 123.885 123.244 124.123 123.447C124.365 123.65 124.662 123.752 125.014 123.752C125.416 123.752 125.73 123.646 125.957 123.436C126.188 123.221 126.303 122.938 126.303 122.586C126.303 121.734 125.834 121.309 124.896 121.309H124V119.984ZM132.156 121.666C132.156 122.549 132.029 123.398 131.775 124.215C131.521 125.031 131.156 125.752 130.68 126.377C130.203 127.002 129.693 127.432 129.15 127.666L128.822 126.77C129.377 126.352 129.814 125.707 130.135 124.836C130.455 123.965 130.621 122.963 130.633 121.83V121.52C130.633 120.352 130.473 119.322 130.152 118.432C129.836 117.541 129.393 116.873 128.822 116.428L129.15 115.531C129.682 115.762 130.182 116.18 130.65 116.785C131.123 117.391 131.488 118.096 131.746 118.9C132.008 119.705 132.145 120.539 132.156 121.402V121.666Z" fill="white"/>
<path d="M21.8135 222.257L24.6572 214.047H26.0928L22.4014 224H21.2393L17.5547 214.047H18.9834L21.8135 222.257ZM28.6084 224H27.3438V216.604H28.6084V224ZM27.2412 214.642C27.2412 214.437 27.3027 214.263 27.4258 214.122C27.5534 213.981 27.7402 213.91 27.9863 213.91C28.2324 213.91 28.4193 213.981 28.5469 214.122C28.6745 214.263 28.7383 214.437 28.7383 214.642C28.7383 214.847 28.6745 215.018 28.5469 215.154C28.4193 215.291 28.2324 215.359 27.9863 215.359C27.7402 215.359 27.5534 215.291 27.4258 215.154C27.3027 215.018 27.2412 214.847 27.2412 214.642ZM33.708 224.137C32.7054 224.137 31.8896 223.809 31.2607 223.152C30.6318 222.492 30.3174 221.61 30.3174 220.507V220.274C30.3174 219.541 30.4564 218.887 30.7344 218.312C31.0169 217.734 31.4089 217.283 31.9102 216.959C32.416 216.631 32.9629 216.467 33.5508 216.467C34.5124 216.467 35.2598 216.784 35.793 217.417C36.3262 218.05 36.5928 218.957 36.5928 220.138V220.664H31.582C31.6003 221.393 31.8122 221.983 32.2178 222.435C32.6279 222.881 33.1475 223.104 33.7764 223.104C34.223 223.104 34.6012 223.013 34.9111 222.831C35.221 222.649 35.4922 222.407 35.7246 222.106L36.4971 222.708C35.8773 223.66 34.9476 224.137 33.708 224.137ZM33.5508 217.506C33.0404 217.506 32.612 217.693 32.2656 218.066C31.9193 218.436 31.7051 218.955 31.623 219.625H35.3281V219.529C35.2917 218.887 35.1185 218.39 34.8086 218.039C34.4987 217.684 34.0794 217.506 33.5508 217.506ZM44.6113 222.257L46.0332 216.604H47.2979L45.1445 224H44.1191L42.3213 218.395L40.5713 224H39.5459L37.3994 216.604H38.6572L40.1133 222.141L41.8359 216.604H42.8545L44.6113 222.257ZM54.8379 220.384C54.8379 221.509 54.5804 222.416 54.0654 223.104C53.5505 223.793 52.8532 224.137 51.9736 224.137C51.0758 224.137 50.3695 223.852 49.8545 223.282V226.844H48.5898V216.604H49.7451L49.8066 217.424C50.3216 216.786 51.0371 216.467 51.9531 216.467C52.8418 216.467 53.5436 216.802 54.0586 217.472C54.5781 218.142 54.8379 219.074 54.8379 220.268V220.384ZM53.5732 220.24C53.5732 219.406 53.3955 218.748 53.04 218.265C52.6846 217.782 52.1969 217.54 51.5771 217.54C50.8115 217.54 50.2373 217.88 49.8545 218.559V222.093C50.2327 222.767 50.8115 223.104 51.5908 223.104C52.1969 223.104 52.6777 222.865 53.0332 222.387C53.3932 221.904 53.5732 221.188 53.5732 220.24ZM56.1162 220.233C56.1162 219.509 56.2575 218.857 56.54 218.278C56.8271 217.7 57.2236 217.253 57.7295 216.938C58.2399 216.624 58.821 216.467 59.4727 216.467C60.4798 216.467 61.2933 216.815 61.9131 217.513C62.5374 218.21 62.8496 219.137 62.8496 220.295V220.384C62.8496 221.104 62.7106 221.751 62.4326 222.325C62.1592 222.895 61.765 223.339 61.25 223.658C60.7396 223.977 60.1517 224.137 59.4863 224.137C58.4837 224.137 57.6702 223.788 57.0459 223.091C56.4261 222.394 56.1162 221.471 56.1162 220.322V220.233ZM57.3877 220.384C57.3877 221.204 57.5768 221.863 57.9551 222.359C58.3379 222.856 58.8483 223.104 59.4863 223.104C60.1289 223.104 60.6393 222.854 61.0176 222.353C61.3958 221.847 61.585 221.14 61.585 220.233C61.585 219.422 61.3913 218.766 61.0039 218.265C60.6211 217.759 60.1107 217.506 59.4727 217.506C58.8483 217.506 58.3447 217.754 57.9619 218.251C57.5791 218.748 57.3877 219.459 57.3877 220.384ZM68.0107 217.738C67.8193 217.706 67.612 217.69 67.3887 217.69C66.5592 217.69 65.9964 218.044 65.7002 218.75V224H64.4355V216.604H65.666L65.6865 217.458C66.1012 216.797 66.6891 216.467 67.4502 216.467C67.6963 216.467 67.8831 216.499 68.0107 216.562V217.738ZM71.2373 214.812V216.604H72.6182V217.581H71.2373V222.168C71.2373 222.464 71.2988 222.688 71.4219 222.838C71.5449 222.984 71.7546 223.057 72.0508 223.057C72.1966 223.057 72.3971 223.029 72.6523 222.975V224C72.3197 224.091 71.9961 224.137 71.6816 224.137C71.1165 224.137 70.6904 223.966 70.4033 223.624C70.1162 223.282 69.9727 222.797 69.9727 222.168V217.581H68.626V216.604H69.9727V214.812H71.2373ZM84.123 222.257L85.5449 216.604H86.8096L84.6562 224H83.6309L81.833 218.395L80.083 224H79.0576L76.9111 216.604H78.1689L79.625 222.141L81.3477 216.604H82.3662L84.123 222.257ZM89.4756 224H88.2109V216.604H89.4756V224ZM88.1084 214.642C88.1084 214.437 88.1699 214.263 88.293 214.122C88.4206 213.981 88.6074 213.91 88.8535 213.91C89.0996 213.91 89.2865 213.981 89.4141 214.122C89.5417 214.263 89.6055 214.437 89.6055 214.642C89.6055 214.847 89.5417 215.018 89.4141 215.154C89.2865 215.291 89.0996 215.359 88.8535 215.359C88.6074 215.359 88.4206 215.291 88.293 215.154C88.1699 215.018 88.1084 214.847 88.1084 214.642ZM91.1982 220.24C91.1982 219.105 91.4671 218.194 92.0049 217.506C92.5426 216.813 93.2467 216.467 94.1172 216.467C94.9831 216.467 95.6689 216.763 96.1748 217.355V213.5H97.4395V224H96.2773L96.2158 223.207C95.71 223.827 95.0059 224.137 94.1035 224.137C93.2467 224.137 92.5472 223.786 92.0049 223.084C91.4671 222.382 91.1982 221.466 91.1982 220.336V220.24ZM92.4629 220.384C92.4629 221.222 92.6361 221.879 92.9824 222.353C93.3288 222.826 93.8073 223.063 94.418 223.063C95.2201 223.063 95.8057 222.703 96.1748 221.983V218.586C95.7965 217.889 95.2155 217.54 94.4316 217.54C93.8118 217.54 93.3288 217.779 92.9824 218.258C92.6361 218.736 92.4629 219.445 92.4629 220.384ZM101.124 214.812V216.604H102.505V217.581H101.124V222.168C101.124 222.464 101.186 222.688 101.309 222.838C101.432 222.984 101.641 223.057 101.938 223.057C102.083 223.057 102.284 223.029 102.539 222.975V224C102.206 224.091 101.883 224.137 101.568 224.137C101.003 224.137 100.577 223.966 100.29 223.624C100.003 223.282 99.8594 222.797 99.8594 222.168V217.581H98.5127V216.604H99.8594V214.812H101.124ZM105.253 217.499C105.813 216.811 106.543 216.467 107.44 216.467C109.004 216.467 109.792 217.349 109.806 219.112V224H108.541V219.105C108.536 218.572 108.413 218.178 108.172 217.923C107.935 217.668 107.563 217.54 107.058 217.54C106.647 217.54 106.287 217.649 105.978 217.868C105.668 218.087 105.426 218.374 105.253 218.729V224H103.988V213.5H105.253V217.499ZM116.02 219.598L120.299 221.327V222.667L114.707 220.076V219.078L120.299 216.494V217.834L116.02 219.598ZM128.078 218.436H122.377V217.335H128.078V218.436ZM128.078 221.272H122.377V220.179H128.078V221.272ZM137.478 224H136.206V215.571L133.656 216.508V215.359L137.279 213.999H137.478V224ZM147.424 219.755C147.424 221.236 147.171 222.337 146.665 223.057C146.159 223.777 145.368 224.137 144.293 224.137C143.231 224.137 142.445 223.786 141.935 223.084C141.424 222.378 141.16 221.325 141.142 219.926V218.237C141.142 216.774 141.395 215.688 141.9 214.977C142.406 214.266 143.199 213.91 144.279 213.91C145.35 213.91 146.139 214.254 146.645 214.942C147.15 215.626 147.41 216.683 147.424 218.114V219.755ZM146.159 218.025C146.159 216.954 146.009 216.175 145.708 215.688C145.407 215.195 144.931 214.949 144.279 214.949C143.632 214.949 143.16 215.193 142.864 215.681C142.568 216.168 142.415 216.918 142.406 217.93V219.953C142.406 221.029 142.561 221.824 142.871 222.339C143.186 222.849 143.66 223.104 144.293 223.104C144.917 223.104 145.38 222.863 145.681 222.38C145.986 221.897 146.146 221.136 146.159 220.097V218.025ZM155.285 219.755C155.285 221.236 155.032 222.337 154.526 223.057C154.021 223.777 153.23 224.137 152.154 224.137C151.092 224.137 150.306 223.786 149.796 223.084C149.285 222.378 149.021 221.325 149.003 219.926V218.237C149.003 216.774 149.256 215.688 149.762 214.977C150.268 214.266 151.061 213.91 152.141 213.91C153.212 213.91 154 214.254 154.506 214.942C155.012 215.626 155.271 216.683 155.285 218.114V219.755ZM154.021 218.025C154.021 216.954 153.87 216.175 153.569 215.688C153.269 215.195 152.792 214.949 152.141 214.949C151.493 214.949 151.022 215.193 150.726 215.681C150.429 216.168 150.277 216.918 150.268 217.93V219.953C150.268 221.029 150.423 221.824 150.732 222.339C151.047 222.849 151.521 223.104 152.154 223.104C152.779 223.104 153.241 222.863 153.542 222.38C153.847 221.897 154.007 221.136 154.021 220.097V218.025ZM163.146 219.755C163.146 221.236 162.894 222.337 162.388 223.057C161.882 223.777 161.091 224.137 160.016 224.137C158.954 224.137 158.168 223.786 157.657 223.084C157.147 222.378 156.882 221.325 156.864 219.926V218.237C156.864 216.774 157.117 215.688 157.623 214.977C158.129 214.266 158.922 213.91 160.002 213.91C161.073 213.91 161.861 214.254 162.367 214.942C162.873 215.626 163.133 216.683 163.146 218.114V219.755ZM161.882 218.025C161.882 216.954 161.731 216.175 161.431 215.688C161.13 215.195 160.654 214.949 160.002 214.949C159.355 214.949 158.883 215.193 158.587 215.681C158.291 216.168 158.138 216.918 158.129 217.93V219.953C158.129 221.029 158.284 221.824 158.594 222.339C158.908 222.849 159.382 223.104 160.016 223.104C160.64 223.104 161.103 222.863 161.403 222.38C161.709 221.897 161.868 221.136 161.882 220.097V218.025ZM171.145 220.384C171.145 221.509 170.887 222.416 170.372 223.104C169.857 223.793 169.16 224.137 168.28 224.137C167.382 224.137 166.676 223.852 166.161 223.282V226.844H164.896V216.604H166.052L166.113 217.424C166.628 216.786 167.344 216.467 168.26 216.467C169.148 216.467 169.85 216.802 170.365 217.472C170.885 218.142 171.145 219.074 171.145 220.268V220.384ZM169.88 220.24C169.88 219.406 169.702 218.748 169.347 218.265C168.991 217.782 168.504 217.54 167.884 217.54C167.118 217.54 166.544 217.88 166.161 218.559V222.093C166.539 222.767 167.118 223.104 167.897 223.104C168.504 223.104 168.984 222.865 169.34 222.387C169.7 221.904 169.88 221.188 169.88 220.24ZM175.13 219.304L176.771 216.604H178.247L175.827 220.261L178.322 224H176.859L175.15 221.231L173.441 224H171.972L174.467 220.261L172.047 216.604H173.51L175.13 219.304Z" fill="black"/>
<path d="M21.5596 28.2568L24.4033 20.0469H25.8389L22.1475 30H20.9854L17.3008 20.0469H18.7295L21.5596 28.2568ZM28.3545 30H27.0898V22.6035H28.3545V30ZM26.9873 20.6416C26.9873 20.4365 27.0488 20.2633 27.1719 20.1221C27.2995 19.9808 27.4863 19.9102 27.7324 19.9102C27.9785 19.9102 28.1654 19.9808 28.293 20.1221C28.4206 20.2633 28.4844 20.4365 28.4844 20.6416C28.4844 20.8467 28.4206 21.0176 28.293 21.1543C28.1654 21.291 27.9785 21.3594 27.7324 21.3594C27.4863 21.3594 27.2995 21.291 27.1719 21.1543C27.0488 21.0176 26.9873 20.8467 26.9873 20.6416ZM33.4541 30.1367C32.4515 30.1367 31.6357 29.8086 31.0068 29.1523C30.3779 28.4915 30.0635 27.6097 30.0635 26.5068V26.2744C30.0635 25.5407 30.2025 24.8867 30.4805 24.3125C30.763 23.7337 31.1549 23.2826 31.6562 22.959C32.1621 22.6309 32.709 22.4668 33.2969 22.4668C34.2585 22.4668 35.0059 22.7835 35.5391 23.417C36.0723 24.0505 36.3389 24.9574 36.3389 26.1377V26.6641H31.3281C31.3464 27.3932 31.5583 27.9834 31.9639 28.4346C32.374 28.8812 32.8936 29.1045 33.5225 29.1045C33.9691 29.1045 34.3473 29.0133 34.6572 28.8311C34.9671 28.6488 35.2383 28.4072 35.4707 28.1064L36.2432 28.708C35.6234 29.6605 34.6937 30.1367 33.4541 30.1367ZM33.2969 23.5059C32.7865 23.5059 32.3581 23.6927 32.0117 24.0664C31.6654 24.4355 31.4512 24.9551 31.3691 25.625H35.0742V25.5293C35.0378 24.8867 34.8646 24.39 34.5547 24.0391C34.2448 23.6836 33.8255 23.5059 33.2969 23.5059ZM44.3574 28.2568L45.7793 22.6035H47.0439L44.8906 30H43.8652L42.0674 24.3945L40.3174 30H39.292L37.1455 22.6035H38.4033L39.8594 28.1406L41.582 22.6035H42.6006L44.3574 28.2568ZM54.584 26.3838C54.584 27.5094 54.3265 28.4163 53.8115 29.1045C53.2965 29.7926 52.5993 30.1367 51.7197 30.1367C50.8219 30.1367 50.1156 29.8519 49.6006 29.2822V32.8438H48.3359V22.6035H49.4912L49.5527 23.4238C50.0677 22.7858 50.7832 22.4668 51.6992 22.4668C52.5879 22.4668 53.2897 22.8018 53.8047 23.4717C54.3242 24.1416 54.584 25.0736 54.584 26.2676V26.3838ZM53.3193 26.2402C53.3193 25.4062 53.1416 24.7477 52.7861 24.2646C52.4307 23.7816 51.943 23.54 51.3232 23.54C50.5576 23.54 49.9834 23.8796 49.6006 24.5586V28.0928C49.9788 28.7673 50.5576 29.1045 51.3369 29.1045C51.943 29.1045 52.4238 28.8652 52.7793 28.3867C53.1393 27.9036 53.3193 27.1882 53.3193 26.2402ZM55.8623 26.2334C55.8623 25.5088 56.0036 24.8571 56.2861 24.2783C56.5732 23.6995 56.9697 23.2529 57.4756 22.9385C57.986 22.624 58.5671 22.4668 59.2188 22.4668C60.2259 22.4668 61.0394 22.8154 61.6592 23.5127C62.2835 24.21 62.5957 25.1374 62.5957 26.2949V26.3838C62.5957 27.1038 62.4567 27.751 62.1787 28.3252C61.9053 28.8949 61.5111 29.3392 60.9961 29.6582C60.4857 29.9772 59.8978 30.1367 59.2324 30.1367C58.2298 30.1367 57.4163 29.7881 56.792 29.0908C56.1722 28.3936 55.8623 27.4707 55.8623 26.3223V26.2334ZM57.1338 26.3838C57.1338 27.2041 57.3229 27.8626 57.7012 28.3594C58.084 28.8561 58.5944 29.1045 59.2324 29.1045C59.875 29.1045 60.3854 28.8538 60.7637 28.3525C61.1419 27.8467 61.3311 27.1403 61.3311 26.2334C61.3311 25.4222 61.1374 24.766 60.75 24.2646C60.3672 23.7588 59.8568 23.5059 59.2188 23.5059C58.5944 23.5059 58.0908 23.7542 57.708 24.251C57.3252 24.7477 57.1338 25.4587 57.1338 26.3838ZM67.7568 23.7383C67.5654 23.7064 67.3581 23.6904 67.1348 23.6904C66.3053 23.6904 65.7425 24.0436 65.4463 24.75V30H64.1816V22.6035H65.4121L65.4326 23.458C65.8473 22.7972 66.4352 22.4668 67.1963 22.4668C67.4424 22.4668 67.6292 22.4987 67.7568 22.5625V23.7383ZM70.9834 20.8125V22.6035H72.3643V23.5811H70.9834V28.168C70.9834 28.4642 71.0449 28.6875 71.168 28.8379C71.291 28.9837 71.5007 29.0566 71.7969 29.0566C71.9427 29.0566 72.1432 29.0293 72.3984 28.9746V30C72.0658 30.0911 71.7422 30.1367 71.4277 30.1367C70.8626 30.1367 70.4365 29.9658 70.1494 29.624C69.8623 29.2822 69.7188 28.7969 69.7188 28.168V23.5811H68.3721V22.6035H69.7188V20.8125H70.9834ZM83.8691 28.2568L85.291 22.6035H86.5557L84.4023 30H83.377L81.5791 24.3945L79.8291 30H78.8037L76.6572 22.6035H77.915L79.3711 28.1406L81.0938 22.6035H82.1123L83.8691 28.2568ZM89.2217 30H87.957V22.6035H89.2217V30ZM87.8545 20.6416C87.8545 20.4365 87.916 20.2633 88.0391 20.1221C88.1667 19.9808 88.3535 19.9102 88.5996 19.9102C88.8457 19.9102 89.0326 19.9808 89.1602 20.1221C89.2878 20.2633 89.3516 20.4365 89.3516 20.6416C89.3516 20.8467 89.2878 21.0176 89.1602 21.1543C89.0326 21.291 88.8457 21.3594 88.5996 21.3594C88.3535 21.3594 88.1667 21.291 88.0391 21.1543C87.916 21.0176 87.8545 20.8467 87.8545 20.6416ZM90.9443 26.2402C90.9443 25.1055 91.2132 24.194 91.751 23.5059C92.2887 22.8132 92.9928 22.4668 93.8633 22.4668C94.7292 22.4668 95.415 22.763 95.9209 23.3555V19.5H97.1855V30H96.0234L95.9619 29.207C95.4561 29.8268 94.752 30.1367 93.8496 30.1367C92.9928 30.1367 92.2933 29.7858 91.751 29.084C91.2132 28.3822 90.9443 27.4661 90.9443 26.3359V26.2402ZM92.209 26.3838C92.209 27.2223 92.3822 27.8786 92.7285 28.3525C93.0749 28.8265 93.5534 29.0635 94.1641 29.0635C94.9661 29.0635 95.5518 28.7035 95.9209 27.9834V24.5859C95.5426 23.8887 94.9616 23.54 94.1777 23.54C93.5579 23.54 93.0749 23.7793 92.7285 24.2578C92.3822 24.7363 92.209 25.445 92.209 26.3838ZM100.87 20.8125V22.6035H102.251V23.5811H100.87V28.168C100.87 28.4642 100.932 28.6875 101.055 28.8379C101.178 28.9837 101.387 29.0566 101.684 29.0566C101.829 29.0566 102.03 29.0293 102.285 28.9746V30C101.952 30.0911 101.629 30.1367 101.314 30.1367C100.749 30.1367 100.323 29.9658 100.036 29.624C99.749 29.2822 99.6055 28.7969 99.6055 28.168V23.5811H98.2588V22.6035H99.6055V20.8125H100.87ZM104.999 23.499C105.56 22.8109 106.289 22.4668 107.187 22.4668C108.75 22.4668 109.538 23.3486 109.552 25.1123V30H108.287V25.1055C108.283 24.5723 108.16 24.1781 107.918 23.9229C107.681 23.6676 107.31 23.54 106.804 23.54C106.394 23.54 106.034 23.6494 105.724 23.8682C105.414 24.0869 105.172 24.374 104.999 24.7295V30H103.734V19.5H104.999V23.499ZM119.396 25.5566L114.877 23.7861V22.4873L120.715 25.0713V26.0693L114.877 28.6602V27.3477L119.396 25.5566ZM129.731 30H128.46V21.5713L125.91 22.5078V21.3594L129.533 19.999H129.731V30ZM139.678 25.7549C139.678 27.236 139.425 28.3366 138.919 29.0566C138.413 29.7767 137.622 30.1367 136.547 30.1367C135.485 30.1367 134.699 29.7858 134.188 29.084C133.678 28.3776 133.414 27.3249 133.396 25.9258V24.2373C133.396 22.7744 133.648 21.6875 134.154 20.9766C134.66 20.2656 135.453 19.9102 136.533 19.9102C137.604 19.9102 138.393 20.2542 138.898 20.9424C139.404 21.626 139.664 22.6833 139.678 24.1143V25.7549ZM138.413 24.0254C138.413 22.9544 138.263 22.1751 137.962 21.6875C137.661 21.1953 137.185 20.9492 136.533 20.9492C135.886 20.9492 135.414 21.193 135.118 21.6807C134.822 22.1683 134.669 22.918 134.66 23.9297V25.9531C134.66 27.0286 134.815 27.8239 135.125 28.3389C135.439 28.8493 135.913 29.1045 136.547 29.1045C137.171 29.1045 137.634 28.863 137.935 28.3799C138.24 27.8968 138.399 27.1357 138.413 26.0967V24.0254ZM147.539 25.7549C147.539 27.236 147.286 28.3366 146.78 29.0566C146.274 29.7767 145.484 30.1367 144.408 30.1367C143.346 30.1367 142.56 29.7858 142.05 29.084C141.539 28.3776 141.275 27.3249 141.257 25.9258V24.2373C141.257 22.7744 141.51 21.6875 142.016 20.9766C142.521 20.2656 143.314 19.9102 144.395 19.9102C145.465 19.9102 146.254 20.2542 146.76 20.9424C147.266 21.626 147.525 22.6833 147.539 24.1143V25.7549ZM146.274 24.0254C146.274 22.9544 146.124 22.1751 145.823 21.6875C145.522 21.1953 145.046 20.9492 144.395 20.9492C143.747 20.9492 143.276 21.193 142.979 21.6807C142.683 22.1683 142.531 22.918 142.521 23.9297V25.9531C142.521 27.0286 142.676 27.8239 142.986 28.3389C143.301 28.8493 143.775 29.1045 144.408 29.1045C145.033 29.1045 145.495 28.863 145.796 28.3799C146.101 27.8968 146.261 27.1357 146.274 26.0967V24.0254ZM155.4 25.7549C155.4 27.236 155.147 28.3366 154.642 29.0566C154.136 29.7767 153.345 30.1367 152.27 30.1367C151.208 30.1367 150.422 29.7858 149.911 29.084C149.401 28.3776 149.136 27.3249 149.118 25.9258V24.2373C149.118 22.7744 149.371 21.6875 149.877 20.9766C150.383 20.2656 151.176 19.9102 152.256 19.9102C153.327 19.9102 154.115 20.2542 154.621 20.9424C155.127 21.626 155.387 22.6833 155.4 24.1143V25.7549ZM154.136 24.0254C154.136 22.9544 153.985 22.1751 153.685 21.6875C153.384 21.1953 152.908 20.9492 152.256 20.9492C151.609 20.9492 151.137 21.193 150.841 21.6807C150.545 22.1683 150.392 22.918 150.383 23.9297V25.9531C150.383 27.0286 150.538 27.8239 150.848 28.3389C151.162 28.8493 151.636 29.1045 152.27 29.1045C152.894 29.1045 153.356 28.863 153.657 28.3799C153.963 27.8968 154.122 27.1357 154.136 26.0967V24.0254ZM163.398 26.3838C163.398 27.5094 163.141 28.4163 162.626 29.1045C162.111 29.7926 161.414 30.1367 160.534 30.1367C159.636 30.1367 158.93 29.8519 158.415 29.2822V32.8438H157.15V22.6035H158.306L158.367 23.4238C158.882 22.7858 159.598 22.4668 160.514 22.4668C161.402 22.4668 162.104 22.8018 162.619 23.4717C163.139 24.1416 163.398 25.0736 163.398 26.2676V26.3838ZM162.134 26.2402C162.134 25.4062 161.956 24.7477 161.601 24.2646C161.245 23.7816 160.757 23.54 160.138 23.54C159.372 23.54 158.798 23.8796 158.415 24.5586V28.0928C158.793 28.7673 159.372 29.1045 160.151 29.1045C160.757 29.1045 161.238 28.8652 161.594 28.3867C161.954 27.9036 162.134 27.1882 162.134 26.2402ZM167.384 25.3037L169.024 22.6035H170.501L168.081 26.2607L170.576 30H169.113L167.404 27.2314L165.695 30H164.226L166.721 26.2607L164.301 22.6035H165.764L167.384 25.3037Z" fill="black"/>
<rect x="18.5" y="261.5" width="442" height="168" stroke="#96BFCC" stroke-width="3" stroke-dasharray="10 10"/>
<rect x="29" y="272" width="420" height="70" fill="#3949AB"/>
<rect x="29" y="348" width="420" height="70" fill="#FB8C00"/>
<path d="M17.6494 249.24C17.6494 248.105 17.9183 247.194 18.4561 246.506C18.9938 245.813 19.6979 245.467 20.5684 245.467C21.4342 245.467 22.1201 245.763 22.626 246.355V242.5H23.8906V253H22.7285L22.667 252.207C22.1611 252.827 21.457 253.137 20.5547 253.137C19.6979 253.137 18.9984 252.786 18.4561 252.084C17.9183 251.382 17.6494 250.466 17.6494 249.336V249.24ZM18.9141 249.384C18.9141 250.222 19.0872 250.879 19.4336 251.353C19.7799 251.826 20.2585 252.063 20.8691 252.063C21.6712 252.063 22.2568 251.703 22.626 250.983V247.586C22.2477 246.889 21.6667 246.54 20.8828 246.54C20.263 246.54 19.7799 246.779 19.4336 247.258C19.0872 247.736 18.9141 248.445 18.9141 249.384ZM27.2334 253H25.9688V245.604H27.2334V253ZM25.8662 243.642C25.8662 243.437 25.9277 243.263 26.0508 243.122C26.1784 242.981 26.3652 242.91 26.6113 242.91C26.8574 242.91 27.0443 242.981 27.1719 243.122C27.2995 243.263 27.3633 243.437 27.3633 243.642C27.3633 243.847 27.2995 244.018 27.1719 244.154C27.0443 244.291 26.8574 244.359 26.6113 244.359C26.3652 244.359 26.1784 244.291 26.0508 244.154C25.9277 244.018 25.8662 243.847 25.8662 243.642ZM31.7041 251.284L33.5361 245.604H34.8281L32.1758 253H31.2119L28.5322 245.604H29.8242L31.7041 251.284ZM35.334 252.337C35.334 252.118 35.3978 251.936 35.5254 251.79C35.6576 251.644 35.8535 251.571 36.1133 251.571C36.373 251.571 36.569 251.644 36.7012 251.79C36.8379 251.936 36.9062 252.118 36.9062 252.337C36.9062 252.547 36.8379 252.722 36.7012 252.863C36.569 253.005 36.373 253.075 36.1133 253.075C35.8535 253.075 35.6576 253.005 35.5254 252.863C35.3978 252.722 35.334 252.547 35.334 252.337ZM45.5469 251.257L46.9688 245.604H48.2334L46.0801 253H45.0547L43.2568 247.395L41.5068 253H40.4814L38.335 245.604H39.5928L41.0488 251.141L42.7715 245.604H43.79L45.5469 251.257ZM53.1006 246.738C52.9092 246.706 52.7018 246.69 52.4785 246.69C51.6491 246.69 51.0863 247.044 50.79 247.75V253H49.5254V245.604H50.7559L50.7764 246.458C51.1911 245.797 51.779 245.467 52.54 245.467C52.7861 245.467 52.973 245.499 53.1006 245.562V246.738ZM58.5625 253C58.4896 252.854 58.4303 252.594 58.3848 252.221C57.7969 252.831 57.0951 253.137 56.2793 253.137C55.5501 253.137 54.9508 252.932 54.4814 252.521C54.0166 252.107 53.7842 251.583 53.7842 250.949C53.7842 250.179 54.0758 249.582 54.6592 249.158C55.2471 248.73 56.0719 248.516 57.1338 248.516H58.3643V247.935C58.3643 247.493 58.2321 247.142 57.9678 246.882C57.7035 246.618 57.3138 246.485 56.7988 246.485C56.3477 246.485 55.9694 246.599 55.6641 246.827C55.3587 247.055 55.2061 247.331 55.2061 247.654H53.9346C53.9346 247.285 54.0645 246.93 54.3242 246.588C54.5885 246.242 54.944 245.968 55.3906 245.768C55.8418 245.567 56.3363 245.467 56.874 245.467C57.7262 245.467 58.3939 245.681 58.877 246.109C59.36 246.533 59.6107 247.119 59.6289 247.866V251.271C59.6289 251.95 59.7155 252.49 59.8887 252.891V253H58.5625ZM56.4639 252.036C56.8604 252.036 57.2363 251.934 57.5918 251.729C57.9473 251.523 58.2048 251.257 58.3643 250.929V249.411H57.373C55.8236 249.411 55.0488 249.865 55.0488 250.771C55.0488 251.168 55.181 251.478 55.4453 251.701C55.7096 251.924 56.0492 252.036 56.4639 252.036ZM67.8594 249.384C67.8594 250.509 67.6019 251.416 67.0869 252.104C66.5719 252.793 65.8747 253.137 64.9951 253.137C64.0973 253.137 63.391 252.852 62.876 252.282V255.844H61.6113V245.604H62.7666L62.8281 246.424C63.3431 245.786 64.0586 245.467 64.9746 245.467C65.8633 245.467 66.5651 245.802 67.0801 246.472C67.5996 247.142 67.8594 248.074 67.8594 249.268V249.384ZM66.5947 249.24C66.5947 248.406 66.417 247.748 66.0615 247.265C65.7061 246.782 65.2184 246.54 64.5986 246.54C63.833 246.54 63.2588 246.88 62.876 247.559V251.093C63.2542 251.767 63.833 252.104 64.6123 252.104C65.2184 252.104 65.6992 251.865 66.0547 251.387C66.4147 250.904 66.5947 250.188 66.5947 249.24ZM75.7207 249.384C75.7207 250.509 75.4632 251.416 74.9482 252.104C74.4333 252.793 73.736 253.137 72.8564 253.137C71.9587 253.137 71.2523 252.852 70.7373 252.282V255.844H69.4727V245.604H70.6279L70.6895 246.424C71.2044 245.786 71.9199 245.467 72.8359 245.467C73.7246 245.467 74.4264 245.802 74.9414 246.472C75.4609 247.142 75.7207 248.074 75.7207 249.268V249.384ZM74.4561 249.24C74.4561 248.406 74.2783 247.748 73.9229 247.265C73.5674 246.782 73.0798 246.54 72.46 246.54C71.6943 246.54 71.1201 246.88 70.7373 247.559V251.093C71.1156 251.767 71.6943 252.104 72.4736 252.104C73.0798 252.104 73.5605 251.865 73.916 251.387C74.276 250.904 74.4561 250.188 74.4561 249.24ZM80.4033 253.137C79.4007 253.137 78.585 252.809 77.9561 252.152C77.3271 251.492 77.0127 250.61 77.0127 249.507V249.274C77.0127 248.541 77.1517 247.887 77.4297 247.312C77.7122 246.734 78.1042 246.283 78.6055 245.959C79.1113 245.631 79.6582 245.467 80.2461 245.467C81.2077 245.467 81.9551 245.784 82.4883 246.417C83.0215 247.05 83.2881 247.957 83.2881 249.138V249.664H78.2773C78.2956 250.393 78.5075 250.983 78.9131 251.435C79.3232 251.881 79.8428 252.104 80.4717 252.104C80.9183 252.104 81.2965 252.013 81.6064 251.831C81.9163 251.649 82.1875 251.407 82.4199 251.106L83.1924 251.708C82.5726 252.66 81.6429 253.137 80.4033 253.137ZM80.2461 246.506C79.7357 246.506 79.3073 246.693 78.9609 247.066C78.6146 247.436 78.4004 247.955 78.3184 248.625H82.0234V248.529C81.987 247.887 81.8138 247.39 81.5039 247.039C81.194 246.684 80.7747 246.506 80.2461 246.506ZM88.333 246.738C88.1416 246.706 87.9342 246.69 87.7109 246.69C86.8815 246.69 86.3187 247.044 86.0225 247.75V253H84.7578V245.604H85.9883L86.0088 246.458C86.4235 245.797 87.0114 245.467 87.7725 245.467C88.0186 245.467 88.2054 245.499 88.333 245.562V246.738ZM92.9268 248.96C92.9268 247.93 93.0635 246.941 93.3369 245.993C93.6149 245.045 94.0273 244.184 94.5742 243.409C95.1211 242.634 95.6885 242.088 96.2764 241.769L96.5361 242.603C95.8708 243.113 95.3239 243.892 94.8955 244.94C94.4717 245.989 94.2393 247.162 94.1982 248.461L94.1914 249.042C94.1914 250.801 94.5127 252.328 95.1553 253.622C95.5426 254.397 96.0029 255.003 96.5361 255.44L96.2764 256.213C95.6702 255.876 95.0915 255.311 94.54 254.518C93.4645 252.968 92.9268 251.116 92.9268 248.96ZM104.309 251.257L105.73 245.604H106.995L104.842 253H103.816L102.019 247.395L100.269 253H99.2432L97.0967 245.604H98.3545L99.8105 251.141L101.533 245.604H102.552L104.309 251.257ZM109.661 253H108.396V245.604H109.661V253ZM108.294 243.642C108.294 243.437 108.355 243.263 108.479 243.122C108.606 242.981 108.793 242.91 109.039 242.91C109.285 242.91 109.472 242.981 109.6 243.122C109.727 243.263 109.791 243.437 109.791 243.642C109.791 243.847 109.727 244.018 109.6 244.154C109.472 244.291 109.285 244.359 109.039 244.359C108.793 244.359 108.606 244.291 108.479 244.154C108.355 244.018 108.294 243.847 108.294 243.642ZM111.384 249.24C111.384 248.105 111.653 247.194 112.19 246.506C112.728 245.813 113.432 245.467 114.303 245.467C115.169 245.467 115.854 245.763 116.36 246.355V242.5H117.625V253H116.463L116.401 252.207C115.896 252.827 115.191 253.137 114.289 253.137C113.432 253.137 112.733 252.786 112.19 252.084C111.653 251.382 111.384 250.466 111.384 249.336V249.24ZM112.648 249.384C112.648 250.222 112.822 250.879 113.168 251.353C113.514 251.826 113.993 252.063 114.604 252.063C115.406 252.063 115.991 251.703 116.36 250.983V247.586C115.982 246.889 115.401 246.54 114.617 246.54C113.997 246.54 113.514 246.779 113.168 247.258C112.822 247.736 112.648 248.445 112.648 249.384ZM121.31 243.812V245.604H122.69V246.581H121.31V251.168C121.31 251.464 121.371 251.688 121.494 251.838C121.617 251.984 121.827 252.057 122.123 252.057C122.269 252.057 122.469 252.029 122.725 251.975V253C122.392 253.091 122.068 253.137 121.754 253.137C121.189 253.137 120.763 252.966 120.476 252.624C120.188 252.282 120.045 251.797 120.045 251.168V246.581H118.698V245.604H120.045V243.812H121.31ZM125.438 246.499C125.999 245.811 126.728 245.467 127.626 245.467C129.189 245.467 129.978 246.349 129.991 248.112V253H128.727V248.105C128.722 247.572 128.599 247.178 128.357 246.923C128.12 246.668 127.749 246.54 127.243 246.54C126.833 246.54 126.473 246.649 126.163 246.868C125.853 247.087 125.612 247.374 125.438 247.729V253H124.174V242.5H125.438V246.499ZM131.844 252.337C131.844 252.118 131.908 251.936 132.035 251.79C132.167 251.644 132.363 251.571 132.623 251.571C132.883 251.571 133.079 251.644 133.211 251.79C133.348 251.936 133.416 252.118 133.416 252.337C133.416 252.547 133.348 252.722 133.211 252.863C133.079 253.005 132.883 253.075 132.623 253.075C132.363 253.075 132.167 253.005 132.035 252.863C131.908 252.722 131.844 252.547 131.844 252.337ZM131.851 246.301C131.851 246.082 131.914 245.9 132.042 245.754C132.174 245.608 132.37 245.535 132.63 245.535C132.89 245.535 133.086 245.608 133.218 245.754C133.354 245.9 133.423 246.082 133.423 246.301C133.423 246.51 133.354 246.686 133.218 246.827C133.086 246.968 132.89 247.039 132.63 247.039C132.37 247.039 132.174 246.968 132.042 246.827C131.914 246.686 131.851 246.51 131.851 246.301ZM142.774 253H141.503V244.571L138.953 245.508V244.359L142.576 242.999H142.774V253ZM152.721 248.755C152.721 250.236 152.468 251.337 151.962 252.057C151.456 252.777 150.665 253.137 149.59 253.137C148.528 253.137 147.742 252.786 147.231 252.084C146.721 251.378 146.457 250.325 146.438 248.926V247.237C146.438 245.774 146.691 244.688 147.197 243.977C147.703 243.266 148.496 242.91 149.576 242.91C150.647 242.91 151.436 243.254 151.941 243.942C152.447 244.626 152.707 245.683 152.721 247.114V248.755ZM151.456 247.025C151.456 245.954 151.306 245.175 151.005 244.688C150.704 244.195 150.228 243.949 149.576 243.949C148.929 243.949 148.457 244.193 148.161 244.681C147.865 245.168 147.712 245.918 147.703 246.93V248.953C147.703 250.029 147.858 250.824 148.168 251.339C148.482 251.849 148.956 252.104 149.59 252.104C150.214 252.104 150.677 251.863 150.978 251.38C151.283 250.897 151.442 250.136 151.456 249.097V247.025ZM160.582 248.755C160.582 250.236 160.329 251.337 159.823 252.057C159.317 252.777 158.527 253.137 157.451 253.137C156.389 253.137 155.603 252.786 155.093 252.084C154.582 251.378 154.318 250.325 154.3 248.926V247.237C154.3 245.774 154.553 244.688 155.059 243.977C155.564 243.266 156.357 242.91 157.438 242.91C158.508 242.91 159.297 243.254 159.803 243.942C160.309 244.626 160.568 245.683 160.582 247.114V248.755ZM159.317 247.025C159.317 245.954 159.167 245.175 158.866 244.688C158.565 244.195 158.089 243.949 157.438 243.949C156.79 243.949 156.319 244.193 156.022 244.681C155.726 245.168 155.574 245.918 155.564 246.93V248.953C155.564 250.029 155.719 250.824 156.029 251.339C156.344 251.849 156.818 252.104 157.451 252.104C158.076 252.104 158.538 251.863 158.839 251.38C159.144 250.897 159.304 250.136 159.317 249.097V247.025ZM162.093 244.961C162.093 244.364 162.282 243.872 162.66 243.484C163.043 243.097 163.533 242.903 164.13 242.903C164.736 242.903 165.226 243.099 165.6 243.491C165.978 243.879 166.167 244.382 166.167 245.002V245.487C166.167 246.089 165.976 246.581 165.593 246.964C165.215 247.342 164.731 247.531 164.144 247.531C163.551 247.531 163.061 247.342 162.674 246.964C162.286 246.581 162.093 246.073 162.093 245.439V244.961ZM163.036 245.487C163.036 245.843 163.136 246.137 163.337 246.369C163.537 246.597 163.806 246.711 164.144 246.711C164.467 246.711 164.727 246.599 164.923 246.376C165.123 246.153 165.224 245.847 165.224 245.46V244.961C165.224 244.605 165.126 244.312 164.93 244.079C164.734 243.847 164.467 243.73 164.13 243.73C163.793 243.73 163.526 243.847 163.33 244.079C163.134 244.312 163.036 244.615 163.036 244.988V245.487ZM166.939 250.56C166.939 249.963 167.129 249.473 167.507 249.09C167.89 248.702 168.38 248.509 168.977 248.509C169.574 248.509 170.063 248.7 170.446 249.083C170.829 249.466 171.021 249.974 171.021 250.607V251.093C171.021 251.69 170.829 252.182 170.446 252.569C170.068 252.952 169.583 253.144 168.99 253.144C168.398 253.144 167.908 252.954 167.521 252.576C167.133 252.193 166.939 251.685 166.939 251.052V250.56ZM167.883 251.093C167.883 251.453 167.983 251.749 168.184 251.981C168.384 252.209 168.653 252.323 168.99 252.323C169.318 252.323 169.58 252.212 169.776 251.988C169.972 251.76 170.07 251.453 170.07 251.065V250.56C170.07 250.2 169.97 249.906 169.77 249.678C169.574 249.45 169.309 249.336 168.977 249.336C168.653 249.336 168.389 249.45 168.184 249.678C167.983 249.901 167.883 250.204 167.883 250.587V251.093ZM164.431 252.248L163.713 251.797L168.573 244.018L169.291 244.469L164.431 252.248ZM178.69 249.288H175.354V248.256H178.69V249.288ZM189.792 253H183.271V252.091L186.716 248.263C187.226 247.684 187.577 247.215 187.769 246.854C187.965 246.49 188.062 246.114 188.062 245.727C188.062 245.207 187.905 244.781 187.591 244.448C187.276 244.116 186.857 243.949 186.333 243.949C185.704 243.949 185.214 244.129 184.863 244.489C184.517 244.845 184.344 245.341 184.344 245.979H183.079C183.079 245.063 183.373 244.323 183.961 243.758C184.553 243.193 185.344 242.91 186.333 242.91C187.258 242.91 187.99 243.154 188.527 243.642C189.065 244.125 189.334 244.77 189.334 245.576C189.334 246.556 188.71 247.723 187.461 249.076L184.795 251.968H189.792V253ZM197.373 248.755C197.373 250.236 197.12 251.337 196.614 252.057C196.108 252.777 195.318 253.137 194.242 253.137C193.18 253.137 192.394 252.786 191.884 252.084C191.373 251.378 191.109 250.325 191.091 248.926V247.237C191.091 245.774 191.344 244.688 191.85 243.977C192.355 243.266 193.148 242.91 194.229 242.91C195.299 242.91 196.088 243.254 196.594 243.942C197.1 244.626 197.359 245.683 197.373 247.114V248.755ZM196.108 247.025C196.108 245.954 195.958 245.175 195.657 244.688C195.356 244.195 194.88 243.949 194.229 243.949C193.581 243.949 193.11 244.193 192.813 244.681C192.517 245.168 192.365 245.918 192.355 246.93V248.953C192.355 250.029 192.51 250.824 192.82 251.339C193.135 251.849 193.609 252.104 194.242 252.104C194.867 252.104 195.329 251.863 195.63 251.38C195.935 250.897 196.095 250.136 196.108 249.097V247.025ZM205.371 249.384C205.371 250.509 205.114 251.416 204.599 252.104C204.084 252.793 203.386 253.137 202.507 253.137C201.609 253.137 200.903 252.852 200.388 252.282V255.844H199.123V245.604H200.278L200.34 246.424C200.855 245.786 201.57 245.467 202.486 245.467C203.375 245.467 204.077 245.802 204.592 246.472C205.111 247.142 205.371 248.074 205.371 249.268V249.384ZM204.106 249.24C204.106 248.406 203.929 247.748 203.573 247.265C203.218 246.782 202.73 246.54 202.11 246.54C201.345 246.54 200.771 246.88 200.388 247.559V251.093C200.766 251.767 201.345 252.104 202.124 252.104C202.73 252.104 203.211 251.865 203.566 251.387C203.926 250.904 204.106 250.188 204.106 249.24ZM209.356 248.304L210.997 245.604H212.474L210.054 249.261L212.549 253H211.086L209.377 250.231L207.668 253H206.198L208.693 249.261L206.273 245.604H207.736L209.356 248.304ZM216.739 249.028C216.739 250.045 216.605 251.02 216.336 251.954C216.072 252.884 215.664 253.743 215.112 254.531C214.565 255.32 213.991 255.88 213.39 256.213L213.123 255.44C213.825 254.903 214.388 254.069 214.812 252.938C215.24 251.804 215.459 250.546 215.468 249.165V248.946C215.468 247.989 215.368 247.101 215.167 246.28C214.966 245.455 214.686 244.717 214.326 244.065C213.971 243.414 213.57 242.906 213.123 242.541L213.39 241.769C213.991 242.101 214.563 242.657 215.105 243.437C215.652 244.216 216.06 245.075 216.329 246.014C216.603 246.952 216.739 247.957 216.739 249.028Z" fill="#6BAFC5"/>
<path d="M211.341 376.247C211.341 375.094 211.598 374.176 212.113 373.492C212.633 372.809 213.341 372.467 214.239 372.467C214.959 372.467 215.554 372.736 216.023 373.273V369.5H218.006V380H216.222L216.126 379.214C215.634 379.829 215 380.137 214.226 380.137C213.355 380.137 212.656 379.795 212.127 379.111C211.603 378.423 211.341 377.468 211.341 376.247ZM213.316 376.391C213.316 377.083 213.437 377.614 213.679 377.983C213.92 378.353 214.271 378.537 214.731 378.537C215.342 378.537 215.773 378.28 216.023 377.765V374.846C215.777 374.331 215.351 374.073 214.745 374.073C213.793 374.073 213.316 374.846 213.316 376.391ZM221.622 380H219.64V372.604H221.622V380ZM219.523 370.689C219.523 370.393 219.621 370.149 219.817 369.958C220.018 369.767 220.289 369.671 220.631 369.671C220.968 369.671 221.237 369.767 221.438 369.958C221.638 370.149 221.738 370.393 221.738 370.689C221.738 370.99 221.636 371.236 221.431 371.428C221.23 371.619 220.964 371.715 220.631 371.715C220.298 371.715 220.029 371.619 219.824 371.428C219.624 371.236 219.523 370.99 219.523 370.689ZM226.024 377.587L227.398 372.604H229.463L226.968 380H225.081L222.586 372.604H224.65L226.024 377.587ZM229.292 379.029C229.292 378.715 229.397 378.46 229.606 378.264C229.821 378.068 230.087 377.97 230.406 377.97C230.73 377.97 230.996 378.068 231.206 378.264C231.42 378.46 231.527 378.715 231.527 379.029C231.527 379.339 231.423 379.592 231.213 379.788C231.003 379.979 230.734 380.075 230.406 380.075C230.083 380.075 229.816 379.979 229.606 379.788C229.397 379.592 229.292 379.339 229.292 379.029ZM236.032 377.587L237.406 372.604H239.471L236.976 380H235.089L232.594 372.604H234.658L236.032 377.587ZM244.522 380C244.431 379.822 244.365 379.601 244.324 379.337C243.846 379.87 243.224 380.137 242.458 380.137C241.733 380.137 241.132 379.927 240.653 379.508C240.179 379.089 239.942 378.56 239.942 377.922C239.942 377.138 240.232 376.536 240.811 376.117C241.394 375.698 242.235 375.486 243.333 375.481H244.242V375.058C244.242 374.716 244.153 374.442 243.976 374.237C243.802 374.032 243.527 373.93 243.148 373.93C242.816 373.93 242.554 374.009 242.362 374.169C242.175 374.328 242.082 374.547 242.082 374.825H240.106C240.106 374.397 240.239 374 240.503 373.636C240.767 373.271 241.141 372.986 241.624 372.781C242.107 372.572 242.649 372.467 243.251 372.467C244.162 372.467 244.885 372.697 245.418 373.157C245.956 373.613 246.225 374.256 246.225 375.085V378.291C246.229 378.993 246.327 379.524 246.519 379.884V380H244.522ZM242.889 378.626C243.18 378.626 243.449 378.562 243.695 378.435C243.941 378.302 244.124 378.127 244.242 377.908V376.637H243.504C242.515 376.637 241.989 376.979 241.925 377.662L241.918 377.778C241.918 378.024 242.005 378.227 242.178 378.387C242.351 378.546 242.588 378.626 242.889 378.626ZM249.827 380H247.845V369.5H249.827V380ZM255.891 379.248C255.403 379.84 254.729 380.137 253.867 380.137C253.074 380.137 252.468 379.909 252.049 379.453C251.634 378.997 251.422 378.33 251.413 377.45V372.604H253.389V377.382C253.389 378.152 253.74 378.537 254.441 378.537C255.111 378.537 255.572 378.305 255.822 377.84V372.604H257.805V380H255.945L255.891 379.248ZM262.699 380.137C261.615 380.137 260.73 379.804 260.047 379.139C259.368 378.473 259.028 377.587 259.028 376.479V376.288C259.028 375.545 259.172 374.882 259.459 374.299C259.746 373.711 260.152 373.26 260.676 372.945C261.204 372.626 261.806 372.467 262.48 372.467C263.492 372.467 264.287 372.786 264.866 373.424C265.45 374.062 265.741 374.966 265.741 376.138V376.944H261.031C261.095 377.427 261.286 377.815 261.605 378.106C261.929 378.398 262.337 378.544 262.829 378.544C263.59 378.544 264.185 378.268 264.613 377.717L265.584 378.804C265.288 379.223 264.887 379.551 264.381 379.788C263.875 380.021 263.314 380.137 262.699 380.137ZM262.474 374.066C262.082 374.066 261.763 374.199 261.517 374.463C261.275 374.727 261.12 375.105 261.052 375.598H263.8V375.44C263.791 375.003 263.672 374.666 263.444 374.429C263.216 374.187 262.893 374.066 262.474 374.066ZM207.908 390.531C207.908 389.637 208.027 388.785 208.266 387.977C208.504 387.168 208.855 386.453 209.32 385.832C209.785 385.207 210.289 384.773 210.832 384.531L211.16 385.445C210.59 385.867 210.145 386.52 209.824 387.402C209.504 388.285 209.344 389.316 209.344 390.496V390.678C209.344 391.861 209.502 392.896 209.818 393.783C210.135 394.67 210.582 395.332 211.16 395.77L210.832 396.666C210.301 396.428 209.805 396.006 209.344 395.4C208.887 394.799 208.537 394.104 208.295 393.314C208.053 392.525 207.924 391.701 207.908 390.842V390.531ZM217.564 391.697L218.396 387.66H220.031L218.414 394H216.996L215.795 390.01L214.594 394H213.182L211.564 387.66H213.199L214.025 391.691L215.186 387.66H216.41L217.564 391.697ZM222.662 394H220.963V387.66H222.662V394ZM220.863 386.02C220.863 385.766 220.947 385.557 221.115 385.393C221.287 385.229 221.52 385.146 221.812 385.146C222.102 385.146 222.332 385.229 222.504 385.393C222.676 385.557 222.762 385.766 222.762 386.02C222.762 386.277 222.674 386.488 222.498 386.652C222.326 386.816 222.098 386.898 221.812 386.898C221.527 386.898 221.297 386.816 221.121 386.652C220.949 386.488 220.863 386.277 220.863 386.02ZM223.799 390.783C223.799 389.795 224.02 389.008 224.461 388.422C224.906 387.836 225.514 387.543 226.283 387.543C226.9 387.543 227.41 387.773 227.812 388.234V385H229.512V394H227.982L227.9 393.326C227.479 393.854 226.936 394.117 226.271 394.117C225.525 394.117 224.926 393.824 224.473 393.238C224.023 392.648 223.799 391.83 223.799 390.783ZM225.492 390.906C225.492 391.5 225.596 391.955 225.803 392.271C226.01 392.588 226.311 392.746 226.705 392.746C227.229 392.746 227.598 392.525 227.812 392.084V389.582C227.602 389.141 227.236 388.92 226.717 388.92C225.9 388.92 225.492 389.582 225.492 390.906ZM232.852 386.102V387.66H233.936V388.902H232.852V392.066C232.852 392.301 232.896 392.469 232.986 392.57C233.076 392.672 233.248 392.723 233.502 392.723C233.689 392.723 233.855 392.709 234 392.682V393.965C233.668 394.066 233.326 394.117 232.975 394.117C231.787 394.117 231.182 393.518 231.158 392.318V388.902H230.232V387.66H231.158V386.102H232.852ZM236.531 388.352C236.98 387.812 237.545 387.543 238.225 387.543C239.6 387.543 240.297 388.342 240.316 389.939V394H238.623V389.986C238.623 389.623 238.545 389.355 238.389 389.184C238.232 389.008 237.973 388.92 237.609 388.92C237.113 388.92 236.754 389.111 236.531 389.494V394H234.838V385H236.531V388.352ZM241.676 393.168C241.676 392.898 241.766 392.68 241.945 392.512C242.129 392.344 242.357 392.26 242.631 392.26C242.908 392.26 243.137 392.344 243.316 392.512C243.5 392.68 243.592 392.898 243.592 393.168C243.592 393.434 243.502 393.65 243.322 393.818C243.143 393.982 242.912 394.064 242.631 394.064C242.354 394.064 242.125 393.982 241.945 393.818C241.766 393.65 241.676 393.434 241.676 393.168ZM241.676 388.369C241.676 388.1 241.766 387.881 241.945 387.713C242.129 387.545 242.357 387.461 242.631 387.461C242.908 387.461 243.137 387.545 243.316 387.713C243.5 387.881 243.592 388.1 243.592 388.369C243.592 388.635 243.502 388.852 243.322 389.02C243.143 389.184 242.912 389.266 242.631 389.266C242.354 389.266 242.125 389.184 241.945 389.02C241.766 388.852 241.676 388.635 241.676 388.369ZM253.746 394H247.898V392.84L250.658 389.898C251.037 389.484 251.316 389.123 251.496 388.814C251.68 388.506 251.771 388.213 251.771 387.936C251.771 387.557 251.676 387.26 251.484 387.045C251.293 386.826 251.02 386.717 250.664 386.717C250.281 386.717 249.979 386.85 249.756 387.115C249.537 387.377 249.428 387.723 249.428 388.152H247.729C247.729 387.633 247.852 387.158 248.098 386.729C248.348 386.299 248.699 385.963 249.152 385.721C249.605 385.475 250.119 385.352 250.693 385.352C251.572 385.352 252.254 385.562 252.738 385.984C253.227 386.406 253.471 387.002 253.471 387.771C253.471 388.193 253.361 388.623 253.143 389.061C252.924 389.498 252.549 390.008 252.018 390.59L250.078 392.635H253.746V394ZM255.393 394.732H254.133L257.273 385.469H258.533L255.393 394.732ZM261 388.984H261.902C262.332 388.984 262.65 388.877 262.857 388.662C263.064 388.447 263.168 388.162 263.168 387.807C263.168 387.463 263.064 387.195 262.857 387.004C262.654 386.812 262.373 386.717 262.014 386.717C261.689 386.717 261.418 386.807 261.199 386.986C260.98 387.162 260.871 387.393 260.871 387.678H259.178C259.178 387.232 259.297 386.834 259.535 386.482C259.777 386.127 260.113 385.85 260.543 385.65C260.977 385.451 261.453 385.352 261.973 385.352C262.875 385.352 263.582 385.568 264.094 386.002C264.605 386.432 264.861 387.025 264.861 387.783C264.861 388.174 264.742 388.533 264.504 388.861C264.266 389.189 263.953 389.441 263.566 389.617C264.047 389.789 264.404 390.047 264.639 390.391C264.877 390.734 264.996 391.141 264.996 391.609C264.996 392.367 264.719 392.975 264.164 393.432C263.613 393.889 262.883 394.117 261.973 394.117C261.121 394.117 260.424 393.893 259.881 393.443C259.342 392.994 259.072 392.4 259.072 391.662H260.766C260.766 391.982 260.885 392.244 261.123 392.447C261.365 392.65 261.662 392.752 262.014 392.752C262.416 392.752 262.73 392.646 262.957 392.436C263.188 392.221 263.303 391.938 263.303 391.586C263.303 390.734 262.834 390.309 261.896 390.309H261V388.984ZM269.156 390.666C269.156 391.549 269.029 392.398 268.775 393.215C268.521 394.031 268.156 394.752 267.68 395.377C267.203 396.002 266.693 396.432 266.15 396.666L265.822 395.77C266.377 395.352 266.814 394.707 267.135 393.836C267.455 392.965 267.621 391.963 267.633 390.83V390.52C267.633 389.352 267.473 388.322 267.152 387.432C266.836 386.541 266.393 385.873 265.822 385.428L266.15 384.531C266.682 384.762 267.182 385.18 267.65 385.785C268.123 386.391 268.488 387.096 268.746 387.9C269.008 388.705 269.145 389.539 269.156 390.402V390.666Z" fill="white"/>
<path d="M216.907 297.247C216.907 296.094 217.165 295.176 217.68 294.492C218.199 293.809 218.908 293.467 219.806 293.467C220.526 293.467 221.12 293.736 221.59 294.273V290.5H223.572V301H221.788L221.692 300.214C221.2 300.829 220.567 301.137 219.792 301.137C218.922 301.137 218.222 300.795 217.693 300.111C217.169 299.423 216.907 298.468 216.907 297.247ZM218.883 297.391C218.883 298.083 219.004 298.614 219.245 298.983C219.487 299.353 219.838 299.537 220.298 299.537C220.909 299.537 221.339 299.28 221.59 298.765V295.846C221.344 295.331 220.918 295.073 220.312 295.073C219.359 295.073 218.883 295.846 218.883 297.391ZM227.188 301H225.206V293.604H227.188V301ZM225.09 291.689C225.09 291.393 225.188 291.149 225.384 290.958C225.584 290.767 225.855 290.671 226.197 290.671C226.535 290.671 226.803 290.767 227.004 290.958C227.204 291.149 227.305 291.393 227.305 291.689C227.305 291.99 227.202 292.236 226.997 292.428C226.797 292.619 226.53 292.715 226.197 292.715C225.865 292.715 225.596 292.619 225.391 292.428C225.19 292.236 225.09 291.99 225.09 291.689ZM231.591 298.587L232.965 293.604H235.029L232.534 301H230.647L228.152 293.604H230.217L231.591 298.587ZM234.858 300.029C234.858 299.715 234.963 299.46 235.173 299.264C235.387 299.068 235.654 298.97 235.973 298.97C236.296 298.97 236.563 299.068 236.772 299.264C236.987 299.46 237.094 299.715 237.094 300.029C237.094 300.339 236.989 300.592 236.779 300.788C236.57 300.979 236.301 301.075 235.973 301.075C235.649 301.075 235.382 300.979 235.173 300.788C234.963 300.592 234.858 300.339 234.858 300.029ZM241.195 291.785V293.604H242.46V295.053H241.195V298.744C241.195 299.018 241.248 299.214 241.353 299.332C241.457 299.451 241.658 299.51 241.954 299.51C242.173 299.51 242.367 299.494 242.535 299.462V300.959C242.148 301.077 241.749 301.137 241.339 301.137C239.953 301.137 239.247 300.437 239.22 299.038V295.053H238.14V293.604H239.22V291.785H241.195ZM245.646 301H243.663V293.604H245.646V301ZM243.547 291.689C243.547 291.393 243.645 291.149 243.841 290.958C244.041 290.767 244.312 290.671 244.654 290.671C244.992 290.671 245.26 290.767 245.461 290.958C245.661 291.149 245.762 291.393 245.762 291.689C245.762 291.99 245.659 292.236 245.454 292.428C245.254 292.619 244.987 292.715 244.654 292.715C244.322 292.715 244.053 292.619 243.848 292.428C243.647 292.236 243.547 291.99 243.547 291.689ZM249.645 291.785V293.604H250.909V295.053H249.645V298.744C249.645 299.018 249.697 299.214 249.802 299.332C249.907 299.451 250.107 299.51 250.403 299.51C250.622 299.51 250.816 299.494 250.984 299.462V300.959C250.597 301.077 250.198 301.137 249.788 301.137C248.403 301.137 247.696 300.437 247.669 299.038V295.053H246.589V293.604H247.669V291.785H249.645ZM254.095 301H252.112V290.5H254.095V301ZM259.133 301.137C258.048 301.137 257.164 300.804 256.48 300.139C255.801 299.473 255.462 298.587 255.462 297.479V297.288C255.462 296.545 255.605 295.882 255.893 295.299C256.18 294.711 256.585 294.26 257.109 293.945C257.638 293.626 258.24 293.467 258.914 293.467C259.926 293.467 260.721 293.786 261.3 294.424C261.883 295.062 262.175 295.966 262.175 297.138V297.944H257.465C257.529 298.427 257.72 298.815 258.039 299.106C258.363 299.398 258.771 299.544 259.263 299.544C260.024 299.544 260.618 299.268 261.047 298.717L262.018 299.804C261.721 300.223 261.32 300.551 260.814 300.788C260.309 301.021 259.748 301.137 259.133 301.137ZM258.907 295.066C258.515 295.066 258.196 295.199 257.95 295.463C257.709 295.727 257.554 296.105 257.485 296.598H260.233V296.44C260.224 296.003 260.106 295.666 259.878 295.429C259.65 295.187 259.326 295.066 258.907 295.066ZM208.908 311.531C208.908 310.637 209.027 309.785 209.266 308.977C209.504 308.168 209.855 307.453 210.32 306.832C210.785 306.207 211.289 305.773 211.832 305.531L212.16 306.445C211.59 306.867 211.145 307.52 210.824 308.402C210.504 309.285 210.344 310.316 210.344 311.496V311.678C210.344 312.861 210.502 313.896 210.818 314.783C211.135 315.67 211.582 316.332 212.16 316.77L211.832 317.666C211.301 317.428 210.805 317.006 210.344 316.4C209.887 315.799 209.537 315.104 209.295 314.314C209.053 313.525 208.924 312.701 208.908 311.842V311.531ZM218.564 312.697L219.396 308.66H221.031L219.414 315H217.996L216.795 311.01L215.594 315H214.182L212.564 308.66H214.199L215.025 312.691L216.186 308.66H217.41L218.564 312.697ZM223.662 315H221.963V308.66H223.662V315ZM221.863 307.02C221.863 306.766 221.947 306.557 222.115 306.393C222.287 306.229 222.52 306.146 222.812 306.146C223.102 306.146 223.332 306.229 223.504 306.393C223.676 306.557 223.762 306.766 223.762 307.02C223.762 307.277 223.674 307.488 223.498 307.652C223.326 307.816 223.098 307.898 222.812 307.898C222.527 307.898 222.297 307.816 222.121 307.652C221.949 307.488 221.863 307.277 221.863 307.02ZM224.799 311.783C224.799 310.795 225.02 310.008 225.461 309.422C225.906 308.836 226.514 308.543 227.283 308.543C227.9 308.543 228.41 308.773 228.812 309.234V306H230.512V315H228.982L228.9 314.326C228.479 314.854 227.936 315.117 227.271 315.117C226.525 315.117 225.926 314.824 225.473 314.238C225.023 313.648 224.799 312.83 224.799 311.783ZM226.492 311.906C226.492 312.5 226.596 312.955 226.803 313.271C227.01 313.588 227.311 313.746 227.705 313.746C228.229 313.746 228.598 313.525 228.812 313.084V310.582C228.602 310.141 228.236 309.92 227.717 309.92C226.9 309.92 226.492 310.582 226.492 311.906ZM233.852 307.102V308.66H234.936V309.902H233.852V313.066C233.852 313.301 233.896 313.469 233.986 313.57C234.076 313.672 234.248 313.723 234.502 313.723C234.689 313.723 234.855 313.709 235 313.682V314.965C234.668 315.066 234.326 315.117 233.975 315.117C232.787 315.117 232.182 314.518 232.158 313.318V309.902H231.232V308.66H232.158V307.102H233.852ZM237.531 309.352C237.98 308.812 238.545 308.543 239.225 308.543C240.6 308.543 241.297 309.342 241.316 310.939V315H239.623V310.986C239.623 310.623 239.545 310.355 239.389 310.184C239.232 310.008 238.973 309.92 238.609 309.92C238.113 309.92 237.754 310.111 237.531 310.494V315H235.838V306H237.531V309.352ZM242.676 314.168C242.676 313.898 242.766 313.68 242.945 313.512C243.129 313.344 243.357 313.26 243.631 313.26C243.908 313.26 244.137 313.344 244.316 313.512C244.5 313.68 244.592 313.898 244.592 314.168C244.592 314.434 244.502 314.65 244.322 314.818C244.143 314.982 243.912 315.064 243.631 315.064C243.354 315.064 243.125 314.982 242.945 314.818C242.766 314.65 242.676 314.434 242.676 314.168ZM242.676 309.369C242.676 309.1 242.766 308.881 242.945 308.713C243.129 308.545 243.357 308.461 243.631 308.461C243.908 308.461 244.137 308.545 244.316 308.713C244.5 308.881 244.592 309.1 244.592 309.369C244.592 309.635 244.502 309.852 244.322 310.02C244.143 310.184 243.912 310.266 243.631 310.266C243.354 310.266 243.125 310.184 242.945 310.02C242.766 309.852 242.676 309.635 242.676 309.369ZM253.012 315H251.318V308.473L249.297 309.1V307.723L252.83 306.457H253.012V315ZM256.393 315.732H255.133L258.273 306.469H259.533L256.393 315.732ZM262 309.984H262.902C263.332 309.984 263.65 309.877 263.857 309.662C264.064 309.447 264.168 309.162 264.168 308.807C264.168 308.463 264.064 308.195 263.857 308.004C263.654 307.812 263.373 307.717 263.014 307.717C262.689 307.717 262.418 307.807 262.199 307.986C261.98 308.162 261.871 308.393 261.871 308.678H260.178C260.178 308.232 260.297 307.834 260.535 307.482C260.777 307.127 261.113 306.85 261.543 306.65C261.977 306.451 262.453 306.352 262.973 306.352C263.875 306.352 264.582 306.568 265.094 307.002C265.605 307.432 265.861 308.025 265.861 308.783C265.861 309.174 265.742 309.533 265.504 309.861C265.266 310.189 264.953 310.441 264.566 310.617C265.047 310.789 265.404 311.047 265.639 311.391C265.877 311.734 265.996 312.141 265.996 312.609C265.996 313.367 265.719 313.975 265.164 314.432C264.613 314.889 263.883 315.117 262.973 315.117C262.121 315.117 261.424 314.893 260.881 314.443C260.342 313.994 260.072 313.4 260.072 312.662H261.766C261.766 312.982 261.885 313.244 262.123 313.447C262.365 313.65 262.662 313.752 263.014 313.752C263.416 313.752 263.73 313.646 263.957 313.436C264.188 313.221 264.303 312.938 264.303 312.586C264.303 311.734 263.834 311.309 262.896 311.309H262V309.984ZM270.156 311.666C270.156 312.549 270.029 313.398 269.775 314.215C269.521 315.031 269.156 315.752 268.68 316.377C268.203 317.002 267.693 317.432 267.15 317.666L266.822 316.77C267.377 316.352 267.814 315.707 268.135 314.836C268.455 313.965 268.621 312.963 268.633 311.83V311.52C268.633 310.352 268.473 309.322 268.152 308.432C267.836 307.541 267.393 306.873 266.822 306.428L267.15 305.531C267.682 305.762 268.182 306.18 268.65 306.785C269.123 307.391 269.488 308.096 269.746 308.9C270.008 309.705 270.145 310.539 270.156 311.402V311.666Z" fill="white"/>
</svg>
